<svg width="288" height="288" viewBox="0 0 288 288" fill="none" xmlns="http://www.w3.org/2000/svg">
    <path
        d="M249.189 80.1875L247.789 77.8835C235.97 58.4032 214.606 46.6644 192.079 48.1216C189.174 48.2888 186.286 48.6739 183.439 49.2736C162.956 53.657 145.135 69.1456 137.75 88.9831C133.407 100.647 132.192 114.079 123.926 123.341C113.195 135.391 94.9824 135.766 78.9638 135.27C62.9452 134.775 44.7206 135.196 34.0358 147.292C27.4003 154.872 25.2748 165.626 25.8105 175.792C27.239 202.657 45.9705 226.682 69.7708 238.622C93.5712 250.563 121.611 251.628 147.663 246.375C184.164 239.02 218.874 218.813 239.737 187.623C260.6 156.433 265.882 113.872 249.189 80.1875Z"
        fill="var(--bubbleColor)" />
    <path
        d="M62.721 76.6486C66.3223 73.0473 66.3223 67.2084 62.721 63.607C59.1197 60.0057 53.2808 60.0057 49.6795 63.607C46.0781 67.2084 46.0781 73.0473 49.6795 76.6486C53.2808 80.2499 59.1197 80.2499 62.721 76.6486Z"
        fill="var(--bubbleColor)" />
    <path
        d="M250.117 243.328C255.21 243.328 259.338 239.199 259.338 234.106C259.338 229.013 255.21 224.885 250.117 224.885C245.024 224.885 240.895 229.013 240.895 234.106C240.895 239.199 245.024 243.328 250.117 243.328Z"
        fill="var(--bubbleColor)" />
    <path
        d="M81.216 119.638C82.8496 123.639 83.2591 128.036 82.3924 132.27C81.5257 136.504 79.4219 140.386 76.3475 143.424C73.273 146.462 69.3661 148.519 65.1217 149.335C60.8773 150.151 56.4862 149.689 52.5045 148.007C48.5229 146.326 45.1298 143.5 42.755 139.889C40.3802 136.278 39.1305 132.043 39.1642 127.721C39.1979 123.399 40.5135 119.184 42.9443 115.61C45.3751 112.037 48.8118 109.265 52.8192 107.645C58.1755 105.475 64.1744 105.518 69.4986 107.767C74.8228 110.015 79.0371 114.285 81.216 119.638Z"
        fill="currentColor" />
    <path
        d="M76.4238 121.59C77.6668 124.639 77.9773 127.989 77.316 131.215C76.6546 134.44 75.0512 137.397 72.7086 139.711C70.366 142.025 67.3896 143.592 64.156 144.214C60.9225 144.835 57.5772 144.484 54.5436 143.203C51.51 141.923 48.9244 139.771 47.1142 137.021C45.3039 134.27 44.3504 131.045 44.3742 127.752C44.398 124.459 45.3982 121.248 47.2481 118.524C49.0979 115.8 51.7144 113.686 54.7662 112.449C58.8504 110.79 63.4265 110.82 67.488 112.535C71.5495 114.249 74.7638 117.506 76.4238 121.59Z"
        fill="currentColor" />
    <path
        d="M76.4237 121.59C76.3772 121.514 76.3349 121.435 76.297 121.354L75.9456 120.64L75.6922 120.122C75.5885 119.931 75.4618 119.736 75.3293 119.517C75.0426 119.01 74.7191 118.525 74.3616 118.065C73.4174 116.775 72.2833 115.635 70.9978 114.684C69.3027 113.417 67.3807 112.487 65.3357 111.942C62.8601 111.272 60.2616 111.193 57.7498 111.712C54.095 112.489 50.801 114.456 48.384 117.305C48.1306 117.61 47.906 117.939 47.6583 118.261C47.4157 118.58 47.1945 118.915 46.9959 119.263C46.563 119.96 46.1781 120.686 45.8439 121.435C45.5269 122.206 45.2651 122.999 45.0605 123.808C44.624 125.464 44.4606 127.18 44.5767 128.888C44.7875 132.436 46.1552 135.817 48.4704 138.513C49.5805 139.819 50.8933 140.937 52.3584 141.825C53.0682 142.26 53.8072 142.645 54.5703 142.977C55.3213 143.283 56.0908 143.54 56.8743 143.749C58.4055 144.159 59.991 144.33 61.5744 144.256C64.519 144.146 67.3815 143.255 69.8688 141.675C71.8395 140.414 73.521 138.75 74.8026 136.792C76.0842 134.834 76.937 132.628 77.305 130.317C77.5705 128.74 77.5938 127.132 77.3741 125.547C77.3116 124.964 77.2057 124.387 77.0573 123.819C76.9997 123.572 76.9594 123.341 76.9018 123.14C76.8442 122.938 76.7693 122.754 76.7175 122.564C76.6138 122.247 76.5332 121.988 76.4756 121.809C76.4414 121.726 76.4163 121.639 76.4007 121.55C76.4436 121.629 76.4783 121.712 76.5044 121.798C76.5735 121.982 76.6656 122.224 76.7808 122.541L76.9824 123.088C77.0458 123.295 77.0976 123.526 77.161 123.773C77.3203 124.34 77.4358 124.917 77.5066 125.501C77.7558 127.097 77.7558 128.721 77.5066 130.317C77.149 132.666 76.2966 134.912 75.0057 136.907C73.7148 138.902 72.0149 140.6 70.0186 141.889C67.5105 143.513 64.6167 144.443 61.632 144.584C60.8328 144.615 60.0324 144.594 59.2359 144.521C58.4263 144.427 57.6238 144.279 56.834 144.077C56.0247 143.869 55.2301 143.607 54.4551 143.294C53.6772 142.962 52.9229 142.577 52.1972 142.142C50.7006 141.234 49.3589 140.093 48.2228 138.761C45.8575 136.009 44.4612 132.557 44.2484 128.934C44.1338 127.191 44.3011 125.441 44.7437 123.75C45.1469 122.118 45.8122 120.562 46.7136 119.142C46.9125 118.783 47.1398 118.44 47.3933 118.117C47.641 117.795 47.8714 117.46 48.1306 117.149C48.6469 116.536 49.205 115.958 49.801 115.421C52.0389 113.422 54.7684 112.054 57.7095 111.459C60.0387 110.995 62.44 111.032 64.7538 111.567C67.0676 112.103 69.2412 113.124 71.1303 114.563C72.4224 115.534 73.5554 116.7 74.4884 118.019C74.8449 118.486 75.1627 118.981 75.4388 119.499C75.5655 119.724 75.6922 119.92 75.7901 120.116C75.888 120.312 75.9572 120.484 76.0263 120.646C76.1588 120.951 76.2682 121.222 76.3431 121.371C76.3752 121.442 76.4022 121.516 76.4237 121.59Z"
        fill="#263238" />
    <g opacity="0.3">
        <path
            d="M76.3717 121.798C76.2796 121.838 75.9397 121.187 75.2197 120.11C74.2113 118.584 72.9715 117.223 71.5449 116.078C70.5667 115.302 69.5062 114.636 68.3826 114.091C67.1015 113.477 65.7462 113.032 64.3506 112.766C63.591 112.615 62.8206 112.524 62.0466 112.495C61.2494 112.456 60.4503 112.477 59.6562 112.559C58.836 112.646 58.0235 112.794 57.2255 113.002C56.4079 113.226 55.6072 113.507 54.8293 113.843C54.0532 114.192 53.3042 114.598 52.5887 115.059C51.8962 115.506 51.2394 116.007 50.6245 116.556C50.0298 117.089 49.4771 117.666 48.9714 118.284C48.4789 118.873 48.0322 119.499 47.6351 120.156C46.8947 121.371 46.3139 122.675 45.9071 124.038C45.5538 125.236 45.3317 126.468 45.2447 127.713C45.1319 129.535 45.2989 131.363 45.7401 133.133C46.0511 134.395 46.3161 135.086 46.2124 135.126C46.1087 135.167 45.7401 134.55 45.2677 133.277C44.6248 131.482 44.3145 129.585 44.3519 127.679C44.3908 126.353 44.5841 125.037 44.9279 123.756C45.3109 122.281 45.8922 120.865 46.6559 119.546C47.0673 118.833 47.5334 118.153 48.0498 117.512C49.1477 116.145 50.4539 114.959 51.9205 113.999C52.6884 113.5 53.4933 113.061 54.3282 112.685C55.1687 112.322 56.0351 112.022 56.9202 111.787C58.6111 111.348 60.3606 111.179 62.1042 111.286C62.9257 111.334 63.7423 111.445 64.5465 111.62C66.0365 111.935 67.4764 112.452 68.8261 113.158C69.9981 113.773 71.0942 114.523 72.0921 115.393C73.5333 116.645 74.7287 118.155 75.6172 119.845C76.2508 121.049 76.4351 121.769 76.3717 121.798Z"
            fill="black" />
    </g>
    <g opacity="0.3">
        <path
            d="M66.4704 136.33L67.6224 139.003L65.2378 140.011L64.1146 137.402C61.6954 138.26 59.1206 138.473 57.3754 137.978L57.456 134.522C59.2301 134.9 61.0721 134.811 62.8013 134.262L61.1194 130.282C58.199 130.755 54.8698 131.117 53.4298 127.707C52.3642 125.179 53.2858 122.235 56.8858 120.219L55.7683 117.57L58.153 116.562L59.2531 119.165C61.0001 118.544 62.8696 118.347 64.7078 118.589L64.7539 122.045C63.3577 121.868 61.9402 121.97 60.5837 122.345L62.3117 126.377C65.1917 125.876 68.4979 125.536 69.9206 128.894C70.9286 131.388 70.0243 134.297 66.4704 136.33ZM59.639 126.797L58.2106 123.411C57.0586 124.228 56.857 125.139 57.191 125.922C57.5251 126.705 58.4467 126.907 59.639 126.797ZM66.1651 130.829C65.8138 129.994 64.9325 129.833 63.7517 129.908L65.1456 133.203C66.24 132.419 66.4877 131.578 66.1651 130.812V130.829Z"
            fill="black" />
    </g>
    <path
        d="M132.728 75.7696C133.446 80.0296 132.884 84.4069 131.114 88.3477C129.343 92.2884 126.444 95.6154 122.782 97.9078C119.12 100.2 114.861 101.355 110.543 101.226C106.224 101.097 102.042 99.6895 98.5233 97.1825C95.0051 94.6754 92.3095 91.1811 90.7778 87.1416C89.246 83.1021 88.9469 78.6991 89.9183 74.4896C90.8896 70.2801 93.0878 66.4533 96.2347 63.4934C99.3816 60.5336 103.336 58.5737 107.597 57.8617C110.423 57.3865 113.315 57.4728 116.108 58.1156C118.9 58.7585 121.539 59.9454 123.873 61.6085C126.207 63.2715 128.19 65.3781 129.709 67.808C131.229 70.2378 132.254 72.9432 132.728 75.7696Z"
        fill="currentColor" />
    <path
        d="M127.607 76.6105C128.156 79.857 127.729 83.1932 126.381 86.197C125.033 89.2009 122.824 91.7373 120.034 93.4853C117.244 95.2334 113.998 96.1144 110.707 96.017C107.416 95.9196 104.228 94.8482 101.546 92.9382C98.8639 91.0282 96.8089 88.3656 95.6408 85.2873C94.4727 82.209 94.2441 78.8534 94.9837 75.6451C95.7234 72.4368 97.3983 69.5201 99.7962 67.264C102.194 65.0078 105.208 63.5138 108.455 62.9708C112.803 62.2408 117.264 63.2675 120.855 65.8253C124.447 68.3831 126.875 72.2625 127.607 76.6105Z"
        fill="currentColor" />
    <path
        d="M127.607 76.6105C127.572 76.5268 127.545 76.44 127.526 76.3513C127.48 76.1613 127.423 75.9078 127.342 75.5795C127.302 75.4125 127.256 75.2224 127.21 75.0035C127.164 74.7846 127.066 74.5773 126.991 74.3353C126.816 73.7787 126.604 73.2341 126.357 72.7053C125.716 71.2396 124.856 69.88 123.806 68.6733C122.279 66.9027 120.397 65.4744 118.28 64.4818C116.164 63.4892 113.862 62.9547 111.525 62.9133C108.579 62.8624 105.673 63.596 103.104 65.0387C102.423 65.4229 101.769 65.852 101.146 66.3232C100.829 66.5651 100.541 66.8358 100.23 67.095C99.9223 67.3525 99.6336 67.6316 99.3658 67.9302C98.7967 68.5182 98.2675 69.1436 97.7818 69.8022C97.3102 70.4884 96.8831 71.2041 96.5031 71.9449C95.719 73.468 95.1861 75.1076 94.9249 76.8006C94.3641 80.3115 94.9712 83.9094 96.6529 87.0419C97.4515 88.5582 98.4902 89.9354 99.7287 91.12C100.905 92.2952 102.267 93.2682 103.761 94C104.472 94.3683 105.209 94.684 105.967 94.9446C106.711 95.1885 107.471 95.381 108.242 95.5206C112.011 96.2146 115.904 95.5793 119.257 93.7232C122.61 91.8671 125.215 88.9052 126.628 85.3427C127.223 83.8701 127.596 82.3171 127.734 80.7347C127.795 80.1608 127.816 79.5835 127.797 79.0067C127.797 78.7533 127.797 78.5171 127.797 78.304C127.797 78.0909 127.757 77.9008 127.74 77.728C127.705 77.3997 127.682 77.152 127.665 76.9446C127.654 76.8547 127.654 76.7638 127.665 76.6739C127.685 76.7612 127.701 76.8497 127.711 76.9389C127.711 77.1289 127.774 77.3939 127.82 77.7222C127.82 77.895 127.866 78.0909 127.895 78.2982C127.924 78.5056 127.895 78.7475 127.895 79.0009C127.925 79.5885 127.914 80.1775 127.861 80.7635C127.752 82.3737 127.394 83.9573 126.801 85.4579C125.949 87.673 124.635 89.6812 122.947 91.3487C121.259 93.0163 119.234 94.305 117.009 95.1289C113.422 96.424 109.506 96.4848 105.88 95.3017C105.109 95.0349 104.356 94.7154 103.628 94.3456C102.884 93.9682 102.166 93.541 101.48 93.0669C100.792 92.5646 100.14 92.0161 99.5271 91.4253C98.2656 90.2131 97.2059 88.8072 96.3879 87.2608C94.6873 84.0576 94.0805 80.3864 94.6599 76.8064C94.9303 75.0772 95.4768 73.4028 96.2785 71.847C96.6668 71.0919 97.1036 70.3627 97.586 69.664C98.0543 68.976 98.5701 68.3216 99.1297 67.7056C99.4052 67.4012 99.7016 67.1163 100.017 66.8531C100.334 66.5881 100.627 66.3117 100.95 66.0697C101.587 65.5888 102.257 65.152 102.954 64.7622C105.572 63.2983 108.532 62.5587 111.531 62.6195C113.905 62.6734 116.241 63.2318 118.383 64.2577C120.525 65.2835 122.425 66.7534 123.955 68.5696C125.005 69.7981 125.858 71.1815 126.484 72.6707C126.715 73.2072 126.908 73.7596 127.06 74.3238C127.135 74.5657 127.21 74.7904 127.267 74.9977C127.325 75.2051 127.348 75.4009 127.382 75.5737C127.446 75.9021 127.498 76.1497 127.538 76.3513C127.566 76.4363 127.589 76.5228 127.607 76.6105Z"
        fill="#263238" />
    <g opacity="0.3">
        <path
            d="M127.503 76.8006C127.405 76.8006 127.215 76.1152 126.743 74.8998C126.089 73.1962 125.173 71.6047 124.03 70.1824C123.245 69.2127 122.357 68.332 121.38 67.5558C120.259 66.6862 119.032 65.9623 117.729 65.4016C117.028 65.0916 116.304 64.8373 115.563 64.6413C114.794 64.4294 114.01 64.2773 113.218 64.1862C112.398 64.0926 111.572 64.0598 110.747 64.0883C109.9 64.1287 109.057 64.2288 108.225 64.3878C107.392 64.5582 106.574 64.7912 105.777 65.0848C105.002 65.3705 104.25 65.7172 103.53 66.1216C102.835 66.5094 102.17 66.9504 101.543 67.4406C100.929 67.9066 100.351 68.4188 99.815 68.9728C97.9504 70.8997 96.5841 73.2526 95.8348 75.8272C95.3251 77.5814 95.09 79.4039 95.1378 81.2301C95.1666 82.5318 95.2588 83.2576 95.1378 83.2749C95.0169 83.2921 94.8038 82.5952 94.6194 81.2646C94.3807 79.3693 94.4919 77.4462 94.9478 75.591C95.627 72.8091 97.0162 70.2509 98.9798 68.1664C99.5376 67.5498 100.147 66.9814 100.8 66.4672C101.471 65.9285 102.184 65.4432 102.931 65.0157C103.701 64.566 104.506 64.1807 105.339 63.8637C107.056 63.2107 108.871 62.8486 110.707 62.7923C113.285 62.7093 115.847 63.2218 118.195 64.2899C120.798 65.4744 123.051 67.3094 124.738 69.6179C125.868 71.1559 126.708 72.8873 127.215 74.727C127.555 76.0461 127.578 76.7891 127.503 76.8006Z"
            fill="black" />
    </g>
    <g opacity="0.3">
        <path
            d="M117.619 83.344L120.419 85.7113C118.8 87.9059 116.254 89.1673 113.08 89.3229C108.472 89.5475 104.705 87.1168 103.317 83.2461L100.38 83.3843L100.276 81.2013L102.822 81.0745C102.787 80.8441 102.776 80.608 102.764 80.3776C102.75 80.1416 102.75 79.905 102.764 79.6691L100.224 79.8016L100.12 77.6128L103.058 77.4745C104.072 73.4829 107.591 70.7065 112.193 70.4877C115.373 70.3379 118.028 71.3574 119.843 73.3677L117.285 75.9942C116.689 75.3484 115.957 74.8422 115.143 74.5116C114.329 74.1811 113.451 74.0343 112.573 74.0819C111.524 74.0929 110.499 74.397 109.614 74.9598C108.728 75.5227 108.018 76.3219 107.562 77.2672L114.146 76.9561L114.25 79.1392L107.015 79.4848C107.015 79.7209 107.015 79.9571 107.015 80.1875C107.02 80.4227 107.039 80.6574 107.073 80.8902L114.307 80.5446L114.411 82.7334L107.827 83.0445C108.37 83.9428 109.154 84.6713 110.089 85.1476C111.025 85.624 112.075 85.8292 113.121 85.7401C114.002 85.7025 114.864 85.4677 115.642 85.0531C116.421 84.6384 117.096 84.0543 117.619 83.344Z"
            fill="black" />
    </g>
    <path
        d="M203.132 86.5523C201.825 90.6704 199.326 94.3083 195.951 97.0055C192.576 99.7027 188.476 101.338 184.171 101.705C179.866 102.071 175.549 101.152 171.767 99.0646C167.984 96.9768 164.906 93.8138 162.922 89.9759C160.938 86.138 160.136 81.7977 160.62 77.5043C161.103 73.211 162.849 69.1575 165.637 65.8568C168.425 62.5562 172.129 60.1567 176.282 58.9622C180.434 57.7677 184.847 57.8317 188.962 59.1462C191.693 60.0144 194.226 61.4121 196.416 63.2595C198.606 65.1069 200.41 67.3678 201.726 69.913C203.042 72.4582 203.844 75.2377 204.085 78.0928C204.326 80.9478 204.002 83.8224 203.132 86.5523Z"
        fill="currentColor" />
    <path
        d="M198.184 84.9856C197.19 88.1263 195.286 90.9014 192.714 92.9594C190.141 95.0175 187.016 96.266 183.734 96.5469C180.451 96.8278 177.159 96.1284 174.275 94.5373C171.39 92.9462 169.042 90.535 167.529 87.6088C166.015 84.6827 165.404 81.3733 165.772 78.0996C166.141 74.8259 167.472 71.7351 169.598 69.2185C171.724 66.7019 174.549 64.8728 177.715 63.9626C180.881 63.0524 184.247 63.1022 187.384 64.1056C191.584 65.4438 195.081 68.3948 197.106 72.3101C199.131 76.2254 199.519 80.7845 198.184 84.9856Z"
        fill="currentColor" />
    <path
        d="M198.184 84.9856C198.194 84.8959 198.211 84.8072 198.236 84.7206C198.282 84.5305 198.34 84.2771 198.42 83.9545C198.461 83.7817 198.507 83.5974 198.559 83.3785C198.61 83.1596 198.628 82.935 198.668 82.6816C198.772 82.1108 198.833 81.5333 198.852 80.9536C198.953 79.3571 198.81 77.7546 198.426 76.2016C197.542 72.4713 195.389 69.1642 192.336 66.8462C189.282 64.5283 185.518 63.3436 181.688 63.495C180.905 63.5217 180.126 63.6025 179.355 63.7369C178.969 63.8118 178.583 63.9213 178.203 64.0077C177.811 64.0967 177.426 64.2141 177.051 64.359C176.276 64.6208 175.52 64.9345 174.787 65.2979C174.053 65.6915 173.345 66.1321 172.667 66.6169C171.275 67.6156 170.052 68.831 169.044 70.2169C168.016 71.6482 167.21 73.2271 166.654 74.8998C166.142 76.5801 165.882 78.3271 165.882 80.0838C165.897 81.798 166.191 83.4983 166.752 85.118C167.02 85.9063 167.339 86.6759 167.708 87.422C168.095 88.1435 168.53 88.8382 169.01 89.5014C169.476 90.1499 169.986 90.7657 170.536 91.3446C173.494 94.3807 177.503 96.1669 181.738 96.3352C185.973 96.5034 190.111 95.0409 193.3 92.2489C194.512 91.2072 195.559 89.9875 196.404 88.6316C196.727 88.144 197.013 87.6339 197.263 87.1052C197.372 86.8806 197.487 86.6732 197.574 86.4774C197.66 86.2816 197.723 86.103 197.787 85.936C197.914 85.6307 198.011 85.36 198.081 85.2045C198.111 85.1185 198.15 85.0355 198.196 84.9568C198.177 85.0454 198.15 85.1322 198.115 85.216L197.856 85.9648L197.654 86.512C197.574 86.7136 197.464 86.9209 197.355 87.1513C197.116 87.6881 196.837 88.206 196.52 88.7008C195.685 90.0837 194.644 91.3307 193.432 92.3987C191.657 93.9747 189.567 95.1558 187.301 95.8638C185.035 96.5718 182.645 96.7905 180.288 96.5056C177.31 96.1378 174.484 94.9804 172.103 93.1532C171.468 92.6697 170.867 92.1424 170.306 91.575C169.744 90.9847 169.223 90.3573 168.745 89.6972C168.255 89.0207 167.811 88.3126 167.414 87.5776C167.034 86.8158 166.707 86.0287 166.435 85.2217C165.861 83.5689 165.559 81.8335 165.542 80.0838C165.489 76.4636 166.622 72.9255 168.768 70.0096C169.799 68.5946 171.051 67.3555 172.477 66.3404C173.831 65.3334 175.341 64.5551 176.947 64.0364C177.332 63.8914 177.726 63.774 178.128 63.6851C178.525 63.5929 178.917 63.4835 179.314 63.4086C180.101 63.2745 180.896 63.1937 181.693 63.1667C184.691 63.0595 187.664 63.7534 190.305 65.1769C192.391 66.3121 194.212 67.8772 195.648 69.7688C197.083 71.6604 198.101 73.8354 198.634 76.1497C199.003 77.7225 199.129 79.3426 199.008 80.9536C198.979 81.5343 198.906 82.1119 198.789 82.6816C198.743 82.935 198.708 83.1712 198.662 83.3785L198.507 83.9545C198.415 84.2771 198.34 84.5305 198.288 84.7148C198.264 84.8088 198.229 84.8996 198.184 84.9856Z"
        fill="#263238" />
    <g opacity="0.3">
        <path
            d="M198.006 85.095C197.908 85.095 198.063 84.352 198.202 83.056C198.394 81.2409 198.306 79.4071 197.942 77.6185C197.687 76.3996 197.301 75.2119 196.79 74.0761C195.88 72.0803 194.577 70.2879 192.96 68.8057C191.76 67.7096 190.401 66.8025 188.928 66.1158C188.156 65.7593 187.359 65.4609 186.543 65.223C185.725 64.9953 184.892 64.8278 184.049 64.7219C182.435 64.5356 180.803 64.5899 179.205 64.8832C178.453 65.0194 177.711 65.212 176.988 65.4592C175.639 65.9156 174.355 66.5448 173.169 67.3312C172.123 68.0231 171.157 68.8286 170.289 69.7331C169.035 71.0588 167.993 72.5705 167.201 74.2144C166.625 75.3664 166.383 76.0806 166.285 76.0518C166.188 76.023 166.285 75.2915 166.746 74.0243C167.396 72.2287 168.373 70.5687 169.626 69.1283C170.493 68.127 171.475 67.2318 172.552 66.4614C173.796 65.5809 175.152 64.87 176.584 64.3475C177.363 64.0626 178.162 63.8373 178.975 63.6736C180.693 63.3238 182.457 63.248 184.199 63.4489C185.108 63.5608 186.007 63.7398 186.889 63.9846C187.769 64.2388 188.628 64.5624 189.458 64.9523C190.26 65.3311 191.031 65.7742 191.762 66.2771C192.474 66.76 193.144 67.3014 193.766 67.8957C194.368 68.4562 194.924 69.0629 195.431 69.7101C197.206 71.9527 198.372 74.615 198.818 77.44C199.12 79.3236 199.073 81.2469 198.68 83.1136C198.397 84.4441 198.075 85.1181 198.006 85.095Z"
            fill="black" />
    </g>
    <g opacity="0.3">
        <path
            d="M187.016 85.7401L184.913 87.4681C184.539 87.5948 184.234 87.4681 182.771 86.3852C182.413 86.126 182.022 85.8093 181.584 85.5385C182.007 84.5748 182.333 83.5715 182.557 82.5433C182.603 82.2962 182.628 82.0458 182.632 81.7945L185.161 82.4742L186.129 78.8857L181.59 77.6646C181.446 77.214 181.344 76.7513 181.285 76.2822C181.258 75.7407 181.347 75.1998 181.546 74.6953C181.744 74.1908 182.048 73.7343 182.437 73.3561C183.157 72.7398 184.193 72.6073 185.507 72.9644C185.914 73.0438 186.302 73.2059 186.644 73.4406C186.987 73.6754 187.278 73.978 187.5 74.3296C188.266 75.6601 187.793 77.5321 187.788 77.5552L187.661 78.0217L191.238 79.0182L191.37 78.5401C191.405 78.4076 192.28 75.2108 190.737 72.5037C190.277 71.7189 189.662 71.0366 188.929 70.4986C188.196 69.9607 187.361 69.5787 186.474 69.376C183.277 68.5177 181.204 69.5257 180.029 70.528C179.187 71.2878 178.528 72.2279 178.1 73.2781C177.672 74.3283 177.487 75.4615 177.558 76.5932L176.193 76.2246L175.248 79.8016L178.704 80.7289C178.843 81.0832 178.915 81.4601 178.917 81.8406C178.762 82.5417 178.54 83.2263 178.255 83.8854C177.211 83.6631 176.123 83.7742 175.145 84.2031C174.168 84.632 173.349 85.357 172.806 86.2758L172.558 86.6963L175.755 88.574L176.008 88.1593C176.348 87.5833 177.022 87.111 178.312 87.854C179.096 88.3188 179.852 88.8284 180.576 89.3804C181.473 90.1355 182.499 90.7211 183.606 91.1084C184.239 91.2849 184.907 91.3037 185.549 91.1631C186.192 91.0226 186.79 90.7269 187.292 90.302L189.4 88.6028L187.016 85.7401Z"
            fill="black" />
    </g>
    <path
        d="M240.192 126.4C241.824 130.402 242.231 134.798 241.363 139.032C240.495 143.266 238.391 147.148 235.316 150.185C232.241 153.222 228.334 155.279 224.09 156.095C219.846 156.911 215.455 156.45 211.473 154.769C207.491 153.088 204.097 150.264 201.721 146.654C199.345 143.043 198.094 138.809 198.125 134.487C198.157 130.165 199.469 125.95 201.898 122.375C204.326 118.799 207.76 116.025 211.766 114.402C214.421 113.323 217.261 112.777 220.126 112.796C222.992 112.815 225.825 113.398 228.465 114.512C231.104 115.626 233.499 117.25 235.511 119.29C237.523 121.329 239.114 123.745 240.192 126.4Z"
        fill="currentColor" />
    <path
        d="M235.371 128.347C236.612 131.396 236.922 134.744 236.26 137.969C235.598 141.193 233.995 144.149 231.653 146.462C229.311 148.775 226.335 150.342 223.103 150.964C219.87 151.586 216.526 151.235 213.493 149.956C210.459 148.676 207.874 146.526 206.063 143.778C204.252 141.029 203.297 137.804 203.319 134.513C203.34 131.221 204.338 128.01 206.185 125.285C208.032 122.56 210.646 120.445 213.696 119.206C215.719 118.382 217.885 117.965 220.07 117.979C222.254 117.993 224.414 118.437 226.427 119.286C228.44 120.134 230.266 121.372 231.801 122.926C233.335 124.481 234.548 126.323 235.371 128.347Z"
        fill="currentColor" />
    <path
        d="M235.371 128.347C235.317 128.274 235.273 128.195 235.238 128.111L234.887 127.402L234.639 126.878C234.536 126.694 234.403 126.492 234.277 126.302C233.989 125.794 233.666 125.307 233.309 124.845C232.359 123.559 231.224 122.421 229.939 121.469C226.874 119.166 223.103 118 219.273 118.171C215.443 118.343 211.791 119.841 208.944 122.408C208.363 122.933 207.817 123.495 207.308 124.09C207.055 124.395 206.83 124.724 206.588 125.041C206.34 125.358 206.119 125.695 205.926 126.049C205.494 126.746 205.109 127.472 204.774 128.22C204.461 128.991 204.199 129.782 203.99 130.587C203.56 132.246 203.397 133.963 203.507 135.674C203.717 139.221 205.087 142.6 207.406 145.293C208.514 146.6 209.825 147.72 211.288 148.611C212 149.042 212.739 149.427 213.5 149.763C214.26 150.07 215.039 150.325 215.833 150.529C216.607 150.73 217.394 150.878 218.189 150.972C218.968 151.045 219.751 151.066 220.533 151.035C224.362 150.892 228.023 149.424 230.892 146.884C233.76 144.343 235.659 140.886 236.264 137.102C236.526 135.525 236.55 133.917 236.333 132.333C236.268 131.75 236.162 131.173 236.016 130.605C235.958 130.357 235.912 130.127 235.855 129.919C235.797 129.712 235.728 129.533 235.67 129.343C235.573 129.027 235.492 128.767 235.429 128.595C235.397 128.509 235.374 128.42 235.359 128.33C235.399 128.41 235.434 128.492 235.463 128.577L235.74 129.32C235.797 129.487 235.866 129.672 235.941 129.896C236.016 130.121 236.051 130.328 236.114 130.576C236.275 131.142 236.393 131.72 236.465 132.304C236.711 133.9 236.711 135.524 236.465 137.119C236.153 139.241 235.429 141.282 234.334 143.127C232.505 146.265 229.699 148.717 226.344 150.11C222.99 151.503 219.272 151.759 215.758 150.84C214.95 150.635 214.157 150.376 213.385 150.062C212.605 149.72 211.848 149.326 211.121 148.881C209.623 147.978 208.282 146.836 207.153 145.5C204.783 142.751 203.384 139.297 203.173 135.674C203.057 133.93 203.226 132.179 203.674 130.49C203.883 129.665 204.151 128.857 204.474 128.07C204.809 127.308 205.194 126.569 205.626 125.859C205.829 125.502 206.056 125.159 206.306 124.833C206.554 124.505 206.79 124.171 207.043 123.866C207.561 123.252 208.122 122.674 208.719 122.138C210.954 120.136 213.682 118.768 216.622 118.175C218.953 117.708 221.356 117.742 223.672 118.277C225.988 118.811 228.164 119.833 230.054 121.274C231.347 122.246 232.482 123.411 233.418 124.73C233.77 125.201 234.086 125.697 234.363 126.216C234.49 126.435 234.616 126.636 234.714 126.826L234.95 127.362C235.089 127.667 235.192 127.909 235.273 128.088C235.313 128.171 235.345 128.258 235.371 128.347Z"
        fill="#263238" />
    <g opacity="0.3">
        <path
            d="M235.313 128.56C235.221 128.6 234.881 127.949 234.161 126.867C233.147 125.343 231.906 123.983 230.481 122.835C229.503 122.062 228.445 121.397 227.324 120.853C226.042 120.24 224.687 119.793 223.292 119.523C222.532 119.378 221.762 119.287 220.988 119.252C220.193 119.215 219.396 119.238 218.604 119.321C217.783 119.404 216.97 119.553 216.173 119.764C214.528 120.197 212.963 120.889 211.536 121.815C210.173 122.701 208.951 123.789 207.913 125.041C207.422 125.628 206.978 126.252 206.582 126.907C205.844 128.122 205.263 129.427 204.854 130.789C204.504 131.987 204.284 133.219 204.198 134.464C204.081 136.285 204.248 138.114 204.693 139.884C205.004 141.151 205.269 141.843 205.165 141.877C205.062 141.912 204.687 141.301 204.221 140.028C203.571 138.233 203.26 136.332 203.305 134.424C203.332 133.1 203.514 131.783 203.846 130.501C204.229 129.03 204.811 127.617 205.574 126.302C205.985 125.587 206.453 124.907 206.974 124.269C207.506 123.595 208.094 122.967 208.731 122.391C209.388 121.79 210.093 121.243 210.839 120.755C211.608 120.256 212.415 119.816 213.253 119.442C214.092 119.075 214.959 118.772 215.845 118.538C216.707 118.316 217.585 118.164 218.471 118.083C219.325 117.997 220.184 117.984 221.04 118.042C221.864 118.096 222.682 118.214 223.488 118.394C226.286 118.977 228.884 120.277 231.028 122.166C232.467 123.42 233.664 124.927 234.559 126.613C235.198 127.811 235.382 128.531 235.313 128.56Z"
            fill="black" />
    </g>
    <g opacity="0.3">
        <path
            d="M228.206 125.536H224.369L220.574 132.771H219.606L215.574 125.536L211.674 125.53L215.706 132.771H212.538V136.175H217.607L218.062 136.998H212.492V140.408H218.414V147.533H221.823V140.408H227.653V136.998H222.146L222.584 136.175H227.699V132.771H224.381L228.206 125.536Z"
            fill="black" />
    </g>
    <path
        d="M58.4352 265.919C58.4352 265.919 47.1398 252.918 42.8832 239.918C38.6265 226.918 40.6483 228.398 40.6483 228.398C40.6483 228.398 46.4083 241.03 50.7686 247.13C55.1289 253.229 62.9164 262.18 62.9164 262.18L58.4352 265.919Z"
        fill="#455A64" />
    <path
        d="M60.6873 230.431C60.6097 230.3 60.4893 230.2 60.3464 230.148C60.2036 230.095 60.047 230.093 59.903 230.143C59.759 230.192 59.6364 230.29 59.5558 230.419C59.4752 230.548 59.4415 230.701 59.4605 230.852C60.1517 235.419 61.6435 246.133 61.5801 253.085C61.5053 262.117 61.5801 265.608 61.5801 265.608H66.2803C66.2803 265.608 65.4451 246.939 64.3853 241.249C63.6422 237.257 62.064 232.827 60.6873 230.431Z"
        fill="#455A64" />
    <path
        d="M63.2505 264.087C65.2224 259.623 66.5266 254.893 67.1212 250.05C67.5071 246.726 66.8159 242.234 65.7907 236.226C65.4006 234.034 65.2078 231.811 65.2147 229.585C65.2142 229.335 65.297 229.093 65.45 228.896C65.603 228.7 65.8173 228.56 66.059 228.499C66.3006 228.438 66.5557 228.46 66.7837 228.56C67.0116 228.661 67.1994 228.835 67.3171 229.055C67.8931 230.068 69.5289 233.53 69.9436 235.696C71.0956 241.617 72.3743 244.578 71.3894 250.188C70.4044 255.798 66.7814 264.456 66.7814 264.456L63.2505 264.087Z"
        fill="#455A64" />
    <path
        d="M67.4841 264.467C67.4841 264.467 79.8912 237.816 80.7321 233.858C81.5731 229.901 84.5165 220.795 84.8563 221.307C85.1961 221.82 85.7203 226.635 83.4854 232.142C81.2505 237.649 71.7235 265.274 71.7235 265.274H67.4841"
        fill="#455A64" />
    <path
        d="M61.8912 263.275C61.7707 263.204 61.6553 263.125 61.5456 263.039C61.3267 262.872 60.9696 262.635 60.5836 262.301C59.4243 261.378 58.313 260.395 57.2544 259.358C53.7592 255.921 50.7321 252.038 48.2515 247.809C45.7782 243.584 43.7217 239.127 42.1113 234.504C41.4893 232.735 41.0342 231.284 40.7347 230.282C40.5849 229.78 40.4813 229.383 40.4064 229.13C40.3626 228.996 40.3317 228.86 40.3142 228.721C40.3719 228.847 40.4201 228.978 40.4582 229.112C40.5504 229.4 40.6771 229.78 40.8384 230.264C41.1609 231.261 41.6448 232.701 42.2899 234.458C43.9459 239.053 46.0185 243.487 48.4819 247.706C50.9573 251.901 53.9468 255.771 57.3811 259.226C58.7117 260.545 59.8464 261.53 60.6528 262.221C61.0445 262.566 61.367 262.797 61.5801 262.993C61.6922 263.077 61.7963 263.171 61.8912 263.275Z"
        fill="#263238" />
    <path
        d="M63.2506 250.488C63.191 250.23 63.1544 249.968 63.1411 249.704C63.0778 249.128 63.0029 248.437 62.9107 247.567C62.7149 245.764 62.4096 243.282 61.9718 240.546C61.5341 237.81 61.0387 235.362 60.6643 233.582C60.48 232.73 60.3245 232.027 60.2093 231.485C60.143 231.23 60.0968 230.97 60.071 230.708C60.1739 230.949 60.253 231.2 60.3072 231.457C60.4512 231.946 60.6298 232.66 60.8429 233.542C61.2691 235.31 61.7875 237.764 62.231 240.506C62.6746 243.247 62.951 245.741 63.095 247.55C63.1699 248.454 63.2218 249.192 63.2448 249.698C63.2668 249.961 63.2687 250.225 63.2506 250.488Z"
        fill="#263238" />
    <path
        d="M66.1536 228.859C66.2164 228.966 66.2667 229.08 66.3034 229.199C66.3955 229.452 66.5223 229.775 66.672 230.189C66.8218 230.604 67.0291 231.146 67.2077 231.773C67.3863 232.401 67.6282 233.11 67.7837 233.91L68.0947 235.166C68.1984 235.598 68.2733 236.059 68.3655 236.537C68.5671 237.482 68.6938 238.507 68.8435 239.584C69.1089 241.928 69.209 244.288 69.1431 246.646C69.0399 249.004 68.7724 251.352 68.3424 253.673C68.112 254.738 67.9162 255.752 67.6455 256.68C67.513 257.146 67.4093 257.601 67.2711 258.033C67.1328 258.465 67.0061 258.868 66.8794 259.26C66.6432 260.049 66.3495 260.735 66.1248 261.345C65.9002 261.956 65.6755 262.497 65.4797 262.889C65.2839 263.281 65.1514 263.609 65.0362 263.851C64.9876 263.964 64.9318 264.073 64.8691 264.179C64.8962 264.058 64.9368 263.94 64.9901 263.828L65.3818 262.849C65.5661 262.428 65.7735 261.91 65.9578 261.293C66.1421 260.677 66.4474 259.992 66.672 259.202C66.793 258.811 66.9197 258.402 67.0464 257.976C67.1731 257.549 67.2768 257.094 67.4035 256.628C67.6627 255.7 67.8528 254.687 68.0717 253.627C68.4876 251.318 68.7474 248.984 68.8493 246.64C68.9168 244.294 68.8244 241.946 68.5728 239.613C68.4288 238.541 68.3136 237.516 68.1235 236.577C68.0314 236.105 67.9623 235.644 67.8643 235.206C67.7664 234.769 67.6685 234.354 67.5763 233.956C67.4093 233.15 67.1847 232.447 67.0003 231.819C66.816 231.192 66.6605 230.667 66.5107 230.224C66.361 229.78 66.2688 229.469 66.1882 229.216C66.1689 229.098 66.1574 228.978 66.1536 228.859Z"
        fill="#263238" />
    <path
        d="M84.7354 221.843C84.7379 221.883 84.7379 221.924 84.7354 221.964L84.6778 222.31C84.6259 222.615 84.5568 223.064 84.4358 223.634C84.1939 224.786 83.7965 226.434 83.1744 228.433C82.5523 230.431 81.7114 232.787 80.7091 235.345C79.7069 237.902 78.5434 240.736 77.4432 243.731C76.343 246.726 75.4618 249.635 74.6554 252.285C73.849 254.934 73.0886 257.307 72.3514 259.272C71.7828 260.825 71.129 262.346 70.393 263.828C70.1395 264.358 69.9091 264.749 69.7594 265.02L69.5866 265.325C69.5696 265.361 69.5483 265.393 69.5232 265.423C69.5232 265.423 69.5232 265.383 69.5635 265.314L69.7133 264.997C69.8458 264.715 70.0589 264.317 70.2893 263.782C70.7846 262.728 71.4413 261.172 72.1613 259.202C72.8813 257.233 73.6128 254.865 74.4019 252.21C75.191 249.554 76.055 246.634 77.1782 243.639C78.3014 240.644 79.4477 237.833 80.4614 235.258C81.4752 232.683 82.3392 230.351 82.9786 228.346C83.6179 226.342 84.0499 224.717 84.3149 223.577C84.4531 223.001 84.5395 222.563 84.6086 222.264C84.6432 222.131 84.672 222.016 84.6893 221.924C84.7019 221.895 84.7173 221.868 84.7354 221.843Z"
        fill="#263238" />
    <path
        d="M46.489 215.956C46.3163 215.805 46.0994 215.714 45.8706 215.696C45.6419 215.678 45.4134 215.734 45.2193 215.857C45.0251 215.979 44.8756 216.161 44.7931 216.375C44.7105 216.589 44.6992 216.824 44.761 217.045C45.185 218.424 45.7046 219.771 46.3162 221.077C48.0442 224.7 53.0323 237.7 55.3766 244.843C57.721 251.985 61.0215 265.302 61.0215 265.302L66.0326 264.49C66.0326 264.49 61.4247 242.602 56.9722 234.717C53.3491 228.358 49.7549 219.194 46.489 215.956Z"
        fill="#455A64" />
    <path
        d="M56.7188 249.284C56.8214 249.467 56.9062 249.66 56.9722 249.86C57.122 250.251 57.3236 250.827 57.5482 251.542C58.009 252.97 58.5735 254.963 59.1379 257.181C59.7024 259.398 60.1805 261.414 60.5088 262.877C60.6586 263.569 60.7853 264.15 60.8832 264.605C60.9421 264.816 60.9769 265.032 60.9869 265.25C60.8995 265.05 60.832 264.842 60.7853 264.628C60.6643 264.173 60.5088 263.597 60.3245 262.9C59.9444 261.391 59.4432 259.444 58.8845 257.221C58.3258 254.998 57.7786 253.01 57.3696 251.57C57.168 250.897 57.001 250.326 56.8685 249.842C56.802 249.661 56.7519 249.474 56.7188 249.284Z"
        fill="#263238" />
    <path
        d="M63.5098 264.876C63.4954 264.831 63.4858 264.785 63.481 264.738L63.4234 264.346C63.3716 264.001 63.3255 263.488 63.2218 262.831C63.0375 261.512 62.7092 259.617 62.1678 257.307C61.53 254.601 60.7494 251.931 59.8292 249.307C58.7982 246.34 57.5252 243.138 56.0506 239.82C53.1073 233.196 50.1639 227.315 48.2286 222.972C47.2551 220.801 46.5006 219.032 45.9994 217.788C45.746 217.178 45.5617 216.694 45.4234 216.365C45.3658 216.216 45.3198 216.089 45.2852 215.991C45.2659 215.949 45.2523 215.904 45.2449 215.858C45.2725 215.895 45.2939 215.936 45.3082 215.979C45.3543 216.077 45.4061 216.198 45.4753 216.342L46.0513 217.748C46.5812 218.969 47.3645 220.726 48.3553 222.88C50.3309 227.206 53.2974 233.064 56.2465 239.699C57.7095 243.023 58.994 246.237 60.0135 249.215C60.9311 251.858 61.7003 254.55 62.3175 257.279C62.7358 259.11 63.0588 260.961 63.2852 262.826C63.3774 263.488 63.4062 263.978 63.4407 264.352C63.4407 264.513 63.4407 264.646 63.4753 264.749C63.4929 264.79 63.5046 264.832 63.5098 264.876Z"
        fill="#263238" />
    <path
        d="M66.0038 264.467C65.9201 264.193 65.8623 263.911 65.831 263.626C65.7331 263.05 65.6006 262.261 65.4451 261.322C65.0995 259.387 64.5695 256.714 63.815 253.805C63.0604 250.897 62.2195 248.305 61.5686 246.444L60.7852 244.244C60.6768 243.98 60.5882 243.709 60.5203 243.432C60.6611 243.681 60.7824 243.941 60.8831 244.209C61.0963 244.716 61.4015 245.459 61.7471 246.381C62.646 248.79 63.4151 251.245 64.0511 253.736C64.6976 256.228 65.2185 258.75 65.6121 261.293C65.7503 262.273 65.8598 263.062 65.9174 263.597C65.9668 263.885 65.9956 264.176 66.0038 264.467Z"
        fill="#263238" />
    <path d="M76.2795 263.747H56.7358V287.559H76.2795V263.747Z" fill="currentColor" />
    <g opacity="0.3">
        <path d="M76.2795 263.747H56.7358V287.559H76.2795V263.747Z" fill="black" />
    </g>
    <path d="M70.0415 263.747H52.7039V287.559H70.0415V263.747Z" fill="currentColor" />
    <path
        d="M169.799 185.44L176.602 216.544L196.324 237.24L182.465 269.202L187.972 278.09C187.972 278.09 217.647 245.039 216.829 236.888C215.424 222.69 185.328 192.917 178.56 187.324C176.285 185.44 169.799 185.44 169.799 185.44Z"
        fill="#FFBE9D" />
    <path
        d="M206.68 232.591C206.68 232.666 205.983 232.591 204.901 232.684C202.045 232.929 199.394 234.266 197.499 236.416C196.779 237.234 196.433 237.833 196.347 237.793C196.52 237.207 196.819 236.667 197.222 236.209C198.129 235.037 199.286 234.083 200.608 233.416C201.931 232.748 203.385 232.384 204.866 232.349C205.481 232.295 206.101 232.377 206.68 232.591Z"
        fill="#EB996E" />
    <path
        d="M170.594 190.255C170.594 190.255 176.458 207.587 176.625 217.327C176.705 221.889 174.666 248.08 174.666 261.846L184.378 287.565H103.807L112.631 258.736L105.408 206.62L116.018 194.155L170.594 190.255Z"
        fill="#455A64" />
    <path
        d="M130.925 117.996C127.74 114.926 120.447 115.9 118.829 118.163C117.491 117.637 116.002 117.645 114.67 118.187C113.338 118.728 112.266 119.761 111.675 121.072L103.997 123.29C102.684 123.67 101.313 124.079 100.351 125.046C99.3889 126.014 99.0203 127.713 99.9361 128.727C97.2347 129.62 96.4283 133.779 98.594 135.639C98.3513 135.961 98.1768 136.329 98.0813 136.721C97.9859 137.112 97.9714 137.519 98.0388 137.917C98.1062 138.314 98.2541 138.694 98.4734 139.032C98.6927 139.37 98.9787 139.66 99.314 139.884C97.328 142.612 95.8223 145.658 94.8615 148.893C94.4641 150.241 94.1703 151.738 94.7463 153.023C95.3223 154.307 97.1137 155.102 98.2023 154.175C97.8555 154.741 97.6791 155.395 97.6945 156.059C97.7098 156.723 97.9161 157.369 98.2887 157.919C96.9697 158.04 96.7105 160.102 97.6782 161C98.6459 161.899 100.126 161.905 101.445 161.789C102.764 161.674 104.181 161.507 105.316 162.187C105.315 162.349 105.282 162.509 105.217 162.657C105.153 162.806 105.059 162.94 104.942 163.051C102.799 165.044 102.361 168.235 104.216 170.539C104.389 170.752 104.55 170.942 104.688 171.115C105.523 172.146 107.476 173.016 108.691 173.551C111.779 174.911 113.53 174.496 116.894 174.761C116.127 176.967 121.841 181.362 127.717 176.287C140.279 178.793 149.253 179.467 162.035 178.661C163.861 178.545 166.032 178.154 166.735 176.466C168.238 176.765 169.788 175.971 170.813 174.83C171.769 173.622 172.51 172.258 173.002 170.798C174.548 170.239 175.882 169.214 176.822 167.865C177.762 166.515 178.26 164.908 178.249 163.264C179.262 162.351 180.074 161.238 180.633 159.994C181.193 158.751 181.487 157.404 181.498 156.041C184.504 154.889 185.933 150.811 184.286 148.046C183.379 144.319 181.858 140.768 179.787 137.54C181.849 136.964 182.454 134.084 181.463 132.177C180.472 130.271 178.491 129.142 176.613 128.111C178.203 128.422 179.436 126.383 178.958 124.822C178.479 123.261 176.999 122.282 175.553 121.539C173.439 120.453 171.201 119.627 168.889 119.079C167.962 116.372 164.241 113.475 161.585 112.421C150.872 108.187 143.51 107.421 130.908 117.99"
        fill="#263238" />
    <path
        d="M161.389 156.243C161.76 155.762 162.243 155.378 162.795 155.125H162.68C162.781 155.088 162.885 155.059 162.991 155.039C163.176 154.969 163.373 154.937 163.571 154.944C163.768 154.951 163.963 154.997 164.143 155.079C164.814 155.255 165.396 155.677 165.773 156.26C166.071 156.781 166.221 157.373 166.207 157.973C166.193 158.573 166.015 159.158 165.692 159.664C165.465 160.118 165.106 160.492 164.662 160.738C164.218 160.984 163.71 161.089 163.205 161.041C162.7 160.992 162.221 160.792 161.833 160.466C161.444 160.14 161.163 159.704 161.026 159.215C160.831 158.729 160.762 158.202 160.825 157.682C160.889 157.162 161.083 156.667 161.389 156.243Z"
        fill="#455A64" />
    <path
        d="M161.159 135.898C159.857 128.802 154.08 120.588 147.041 122.184L125.453 130.444C124.422 130.679 123.516 131.292 122.914 132.162C122.313 133.032 122.06 134.096 122.204 135.144L128.604 182.739C129.009 185.746 130.441 188.521 132.656 190.595C134.872 192.669 137.735 193.914 140.763 194.12C142.644 194.247 144.529 193.969 146.293 193.305C148.057 192.64 149.658 191.605 150.988 190.269C152.317 188.933 153.344 187.327 154 185.56C154.656 183.793 154.925 181.906 154.789 180.026C154.547 176.742 154.368 174.266 154.368 174.266C154.368 174.266 163.331 171.668 163.809 159.52C164.051 153.472 162.599 143.789 161.159 135.898Z"
        fill="#FFBE9D" />
    <path
        d="M156.505 145.466C156.558 145.865 156.453 146.269 156.212 146.592C155.971 146.915 155.613 147.131 155.215 147.194C155.023 147.23 154.826 147.228 154.635 147.188C154.443 147.148 154.262 147.07 154.101 146.959C153.941 146.848 153.804 146.706 153.698 146.542C153.593 146.377 153.521 146.194 153.487 146.001C153.431 145.601 153.535 145.195 153.776 144.872C154.018 144.548 154.378 144.333 154.777 144.273C154.969 144.236 155.166 144.237 155.358 144.277C155.549 144.317 155.731 144.395 155.892 144.506C156.053 144.617 156.19 144.759 156.295 144.924C156.4 145.089 156.472 145.273 156.505 145.466Z"
        fill="#263238" />
    <path
        d="M158.607 140.858C158.446 141.077 157.185 140.357 155.537 140.558C153.89 140.76 152.784 141.71 152.582 141.543C152.484 141.462 152.634 141.077 153.118 140.633C153.77 140.055 154.585 139.695 155.451 139.602C156.307 139.494 157.175 139.664 157.928 140.086C158.481 140.391 158.694 140.731 158.607 140.858Z"
        fill="#263238" />
    <path
        d="M140.544 146.934C140.598 147.335 140.493 147.741 140.25 148.064C140.008 148.388 139.648 148.603 139.248 148.662C139.056 148.701 138.859 148.7 138.668 148.661C138.476 148.622 138.295 148.544 138.134 148.434C137.972 148.323 137.835 148.181 137.73 148.017C137.624 147.852 137.553 147.668 137.52 147.476C137.465 147.077 137.569 146.673 137.809 146.35C138.049 146.027 138.407 145.81 138.804 145.748C138.997 145.71 139.194 145.711 139.386 145.751C139.578 145.79 139.76 145.868 139.922 145.978C140.084 146.088 140.222 146.23 140.329 146.394C140.435 146.558 140.509 146.742 140.544 146.934Z"
        fill="#263238" />
    <path
        d="M143.009 142.822C142.842 143.046 141.581 142.326 139.939 142.522C138.297 142.718 137.186 143.674 136.984 143.507C136.886 143.427 137.036 143.046 137.52 142.603C138.17 142.022 138.986 141.659 139.853 141.566C140.709 141.462 141.577 141.634 142.329 142.056C142.877 142.384 143.096 142.724 143.009 142.822Z"
        fill="#263238" />
    <path
        d="M150.912 154.924C150.912 154.831 151.891 154.538 153.527 154.129C153.942 154.031 154.328 153.904 154.362 153.61C154.349 153.171 154.2 152.746 153.936 152.395L152.317 149.342C150.048 144.993 148.36 141.393 148.533 141.307C148.706 141.221 150.687 144.671 152.951 149.02C153.527 150.097 154.028 151.116 154.524 152.095C154.849 152.571 154.996 153.146 154.938 153.72C154.895 153.875 154.817 154.019 154.711 154.139C154.604 154.26 154.471 154.355 154.322 154.417C154.097 154.509 153.861 154.571 153.619 154.601C151.978 154.889 150.947 155.016 150.912 154.924Z"
        fill="#263238" />
    <path
        d="M154.368 174.266C148.765 175.016 143.064 174.197 137.9 171.898C137.9 171.898 142.744 179.628 154.541 177.082L154.368 174.266Z"
        fill="#EB996E" />
    <path
        d="M151.148 158.869C150.713 158.37 150.163 157.985 149.546 157.745C148.929 157.505 148.263 157.419 147.606 157.493C147.176 157.548 146.767 157.708 146.414 157.958C146.061 158.208 145.774 158.541 145.578 158.927C145.365 159.372 145.291 159.872 145.368 160.36C145.445 160.848 145.669 161.301 146.01 161.66C146.35 162.018 146.792 162.264 147.275 162.365C147.759 162.466 148.262 162.418 148.717 162.227C149.598 161.821 150.369 161.208 150.964 160.442C151.16 160.251 151.311 160.018 151.407 159.762C151.456 159.623 151.467 159.473 151.439 159.328C151.41 159.183 151.344 159.049 151.246 158.938"
        fill="#EB996E" />
    <path
        d="M146.217 156.634C146.482 156.588 146.701 158.362 148.377 159.462C150.054 160.563 151.937 160.125 151.977 160.373C152.018 160.482 151.597 160.77 150.797 160.891C149.751 161.029 148.691 160.794 147.801 160.229C146.948 159.685 146.34 158.829 146.108 157.844C145.947 157.107 146.097 156.64 146.217 156.634Z"
        fill="#263238" />
    <path
        d="M143.424 136.572C143.314 137.039 141.644 137.021 139.743 137.482C137.842 137.943 136.339 138.634 136.04 138.283C135.901 138.104 136.12 137.649 136.702 137.131C137.479 136.5 138.39 136.054 139.365 135.829C140.34 135.603 141.354 135.603 142.33 135.829C143.078 136.042 143.482 136.348 143.424 136.572Z"
        fill="#263238" />
    <path
        d="M158.4 135.616C158.152 136.019 156.971 135.766 155.606 135.91C154.241 136.054 153.118 136.486 152.807 136.1C152.669 135.927 152.807 135.524 153.268 135.115C153.892 134.603 154.658 134.295 155.462 134.234C156.263 134.153 157.068 134.324 157.766 134.723C158.302 135.052 158.504 135.414 158.4 135.616Z"
        fill="#263238" />
    <path
        d="M166.954 141.255C166.771 139.363 165.936 137.594 164.592 136.25C163.837 135.547 162.904 135.04 162.219 134.268C160.744 132.598 160.75 130.127 160.024 128.024C159.54 126.667 158.74 125.445 157.689 124.459C156.638 123.474 155.367 122.753 153.982 122.357C151.678 121.717 149.138 122.011 146.949 121.049C145.336 120.335 144.069 118.993 142.387 118.376C139.161 117.178 135.659 119.045 132.837 121.014C132.422 123.399 134.058 125.317 135.625 127.16C136.421 128.074 137.406 128.805 138.512 129.302C139.618 129.799 140.818 130.051 142.03 130.04C143.908 130.04 146.062 129.43 147.467 130.668C148.873 131.907 148.619 134.481 149.852 136.008C151.643 138.185 155.278 137.039 157.812 138.283C159.765 139.245 160.692 141.428 161.81 143.317C162.927 145.206 164.69 147.13 166.844 146.865C167.094 145.006 167.131 143.123 166.954 141.255Z"
        fill="#263238" />
    <path
        d="M137.814 124.937C132.33 125.261 126.962 126.642 122.002 129.004C120.528 129.706 119.019 130.576 118.253 132.022C117.585 133.289 117.602 134.798 117.723 136.232C118.103 140.708 120.315 146.059 122.331 150.056L128.177 152.994C132.411 151.658 129.905 144.354 129.404 140.65C130.852 139.854 132.049 138.668 132.857 137.226C133.666 135.785 134.054 134.145 133.977 132.494C135.142 131.602 136.091 130.46 136.755 129.152C137.419 127.844 137.781 126.404 137.814 124.937Z"
        fill="#263238" />
    <path
        d="M127.976 151.416C127.613 148.864 124.433 148.599 122.325 150.079C121.173 150.892 120.367 152.383 120.724 155.102C121.669 162.331 128.73 159.889 128.713 159.676C128.696 159.462 128.39 154.399 127.976 151.416Z"
        fill="#FFBE9D" />
    <path
        d="M126.144 157.228C126.11 157.228 126.029 157.337 125.827 157.458C125.546 157.628 125.208 157.68 124.888 157.602C124.088 157.423 123.287 156.294 123.08 154.998C122.982 154.381 123.021 153.75 123.195 153.149C123.233 152.915 123.328 152.692 123.471 152.503C123.615 152.313 123.803 152.161 124.019 152.061C124.158 152.003 124.312 151.997 124.455 152.042C124.599 152.087 124.721 152.182 124.802 152.309C124.929 152.493 124.9 152.648 124.94 152.654C124.981 152.66 125.079 152.51 124.981 152.222C124.918 152.049 124.798 151.903 124.641 151.807C124.422 151.683 124.164 151.65 123.921 151.715C123.634 151.814 123.378 151.984 123.176 152.21C122.975 152.436 122.834 152.71 122.769 153.005C122.544 153.672 122.484 154.384 122.596 155.079C122.832 156.531 123.748 157.792 124.842 157.959C125.048 157.992 125.259 157.979 125.458 157.919C125.658 157.859 125.841 157.754 125.994 157.613C126.144 157.406 126.173 157.239 126.144 157.228Z"
        fill="#EB996E" />
    <path
        d="M122.21 159.151C122.582 158.672 123.064 158.288 123.615 158.034H123.5C123.602 157.997 123.706 157.968 123.811 157.948C124.001 157.874 124.203 157.839 124.406 157.846C124.609 157.853 124.808 157.901 124.992 157.988C125.664 158.164 126.245 158.585 126.622 159.169C126.921 159.689 127.071 160.282 127.057 160.882C127.042 161.482 126.864 162.067 126.542 162.573C126.315 163.027 125.956 163.401 125.512 163.647C125.068 163.893 124.56 163.998 124.054 163.95C123.549 163.901 123.071 163.7 122.682 163.374C122.293 163.049 122.012 162.612 121.876 162.124C121.678 161.64 121.605 161.114 121.663 160.595C121.721 160.075 121.91 159.579 122.21 159.151Z"
        fill="#455A64" />
    <path
        d="M125.568 160.338V160.436C125.559 160.535 125.533 160.633 125.493 160.724C125.329 161.076 125.051 161.362 124.704 161.536C124.156 161.825 123.554 161.997 122.936 162.043C122.553 162.08 122.167 162.08 121.784 162.043C121.339 162.014 120.901 161.915 120.488 161.749L120.568 161.703C120.513 162.325 120.298 162.922 119.944 163.436C119.59 163.95 119.109 164.363 118.548 164.637C117.987 164.91 117.364 165.033 116.741 164.994C116.118 164.956 115.516 164.756 114.993 164.416L115.114 164.387C114.917 164.732 114.592 164.985 114.209 165.09C113.824 165.205 113.414 165.205 113.028 165.09C112.626 164.975 112.274 164.73 112.026 164.393C111.779 164.053 111.621 163.657 111.565 163.241C111.472 162.369 111.691 161.491 112.182 160.764C112.689 160.026 113.285 159.353 113.956 158.76V158.927C113.641 158.758 113.364 158.525 113.144 158.244C112.924 157.962 112.765 157.638 112.677 157.291C112.484 156.583 112.502 155.834 112.729 155.137C112.988 154.434 113.379 153.787 113.881 153.23C114.385 152.671 114.924 152.144 115.494 151.652V151.802C115.213 151.539 114.991 151.22 114.841 150.866C114.691 150.511 114.617 150.13 114.624 149.745C114.618 148.957 114.849 148.184 115.286 147.528C116.133 146.272 117.441 145.512 118.644 144.797L118.593 144.93C118.349 144.188 118.289 143.397 118.417 142.626C118.546 141.856 118.86 141.128 119.331 140.505C119.803 139.882 120.419 139.382 121.126 139.05C121.833 138.717 122.61 138.561 123.391 138.594L123.287 138.726C123.124 138.111 123.105 137.467 123.23 136.843C123.354 136.219 123.62 135.632 124.007 135.126C124.346 134.643 124.786 134.238 125.296 133.939C125.806 133.641 126.374 133.457 126.962 133.398L126.881 133.496C126.851 132.878 126.963 132.261 127.207 131.692C127.452 131.123 127.823 130.617 128.292 130.213C128.691 129.845 129.159 129.56 129.67 129.377C130.181 129.194 130.723 129.116 131.265 129.148L131.19 129.228C131.18 128.565 131.335 127.911 131.639 127.322C131.892 126.799 132.231 126.322 132.641 125.91C133.28 125.237 134.125 124.795 135.043 124.655L135.32 124.614H135.573C135.728 124.605 135.884 124.605 136.04 124.614C136.277 124.644 136.512 124.692 136.742 124.758L137.163 124.902L137.301 124.954C137.252 124.951 137.203 124.939 137.157 124.92L136.737 124.799C136.506 124.74 136.271 124.698 136.034 124.672C135.88 124.663 135.727 124.663 135.573 124.672H135.325L135.055 124.712C134.17 124.869 133.361 125.31 132.751 125.968C132.353 126.376 132.026 126.847 131.783 127.362C131.495 127.931 131.349 128.562 131.357 129.199V129.28H131.276C130.755 129.251 130.233 129.328 129.743 129.508C129.253 129.687 128.804 129.964 128.425 130.323C127.978 130.712 127.626 131.196 127.393 131.741C127.161 132.286 127.055 132.876 127.083 133.468V133.56H126.996C126.436 133.619 125.895 133.798 125.409 134.085C124.924 134.373 124.507 134.761 124.186 135.224C123.813 135.709 123.557 136.273 123.438 136.872C123.319 137.472 123.341 138.09 123.5 138.68L123.54 138.819H123.396C122.647 138.78 121.9 138.925 121.219 139.241C120.539 139.557 119.946 140.034 119.492 140.631C119.038 141.228 118.736 141.927 118.614 142.667C118.491 143.408 118.551 144.166 118.788 144.878L118.817 144.959L118.742 145.005C117.539 145.719 116.266 146.468 115.459 147.672C115.046 148.291 114.828 149.019 114.831 149.763C114.824 150.116 114.89 150.466 115.027 150.792C115.164 151.118 115.368 151.411 115.626 151.652L115.724 151.733L115.626 151.813C114.515 152.81 113.391 153.852 112.936 155.206C112.723 155.863 112.707 156.568 112.89 157.233C112.966 157.551 113.108 157.85 113.306 158.11C113.505 158.37 113.755 158.585 114.042 158.742L114.175 158.806L114.071 158.909C113.417 159.489 112.837 160.147 112.343 160.868C111.88 161.559 111.676 162.391 111.767 163.218C111.792 163.605 111.931 163.975 112.167 164.283C112.403 164.591 112.725 164.821 113.092 164.946C113.425 165.075 113.792 165.088 114.133 164.983C114.475 164.879 114.771 164.663 114.975 164.37L115.016 164.289L115.096 164.335C115.643 164.687 116.276 164.881 116.925 164.895C117.575 164.91 118.216 164.744 118.777 164.416C119.243 164.131 119.637 163.743 119.93 163.281C120.222 162.82 120.405 162.298 120.465 161.755V161.674L120.539 161.703C120.942 161.867 121.367 161.967 121.801 161.997C122.184 162.034 122.57 162.034 122.953 161.997C123.554 161.958 124.142 161.799 124.681 161.53C125.022 161.365 125.299 161.091 125.47 160.753C125.568 160.476 125.568 160.338 125.568 160.338Z"
        fill="#455A64" />
    <path
        d="M97.344 154.595C97.2275 154.466 97.1252 154.325 97.0387 154.175C96.7825 153.744 96.616 153.266 96.5491 152.769C96.4347 151.975 96.5845 151.166 96.9754 150.465C97.2398 149.997 97.5994 149.589 98.0309 149.267C98.4624 148.946 98.9563 148.718 99.481 148.599L99.4291 148.691C99.096 147.476 99.2359 146.179 99.8208 145.062C100.136 144.435 100.584 143.885 101.134 143.45C101.735 143.027 102.375 142.665 103.046 142.367C103.379 142.201 103.685 141.987 103.956 141.733C104.218 141.466 104.415 141.143 104.532 140.789C104.803 140.074 104.844 139.239 105.201 138.485C105.578 137.689 106.186 137.024 106.944 136.577C107.703 136.129 108.578 135.919 109.457 135.973L109.342 136.1C109.154 135.227 109.168 134.323 109.383 133.457C109.599 132.591 110.011 131.785 110.587 131.103C111.163 130.421 111.887 129.88 112.705 129.522C113.523 129.164 114.412 128.999 115.304 129.038L115.188 129.171C115.013 128.21 115.116 127.219 115.486 126.315C115.855 125.411 116.476 124.631 117.274 124.068C118.072 123.505 119.014 123.182 119.99 123.137C120.965 123.092 121.934 123.327 122.78 123.814H122.665C123.337 123.07 124.163 122.48 125.084 122.086C125.901 121.714 126.763 121.448 127.647 121.297C129.078 121.04 130.543 121.04 131.973 121.297C132.892 121.444 133.781 121.739 134.605 122.172C134.822 122.285 135.03 122.414 135.228 122.558C135.366 122.65 135.429 122.702 135.429 122.702C135.429 122.702 135.141 122.512 134.577 122.218C133.748 121.812 132.862 121.536 131.95 121.4C130.532 121.172 129.086 121.195 127.676 121.469C126.806 121.624 125.96 121.891 125.159 122.264C124.258 122.663 123.454 123.252 122.803 123.992L122.751 124.05L122.688 124.01C121.874 123.545 120.944 123.323 120.008 123.368C119.072 123.414 118.168 123.726 117.403 124.267C116.638 124.808 116.043 125.557 115.689 126.424C115.334 127.292 115.235 128.243 115.402 129.165V129.297H115.263C114.403 129.256 113.545 129.413 112.755 129.756C111.965 130.099 111.265 130.619 110.708 131.276C110.151 131.933 109.753 132.709 109.544 133.545C109.335 134.38 109.321 135.252 109.503 136.094L109.538 136.238H109.388C108.556 136.192 107.728 136.395 107.011 136.819C106.293 137.243 105.717 137.871 105.356 138.623C105.016 139.354 104.97 140.178 104.682 140.927C104.548 141.308 104.327 141.653 104.037 141.935C103.752 142.202 103.43 142.427 103.081 142.603C102.416 142.891 101.782 143.244 101.186 143.657C100.656 144.073 100.223 144.6 99.9187 145.201C99.346 146.279 99.2 147.533 99.5098 148.714V148.789H99.4349C98.9262 148.899 98.4462 149.114 98.0256 149.421C97.605 149.727 97.2531 150.118 96.9926 150.569C96.603 151.251 96.4454 152.042 96.5434 152.821C96.6028 153.312 96.7552 153.787 96.9926 154.221C97.2461 154.451 97.344 154.589 97.344 154.595Z"
        fill="#455A64" />
    <path
        d="M166.907 151.502C166.855 151.417 166.822 151.321 166.809 151.222C166.796 151.123 166.804 151.022 166.833 150.926C166.903 150.686 167.034 150.468 167.213 150.293C167.463 150.065 167.757 149.891 168.077 149.78C168.469 149.642 168.84 149.448 169.177 149.204C169.546 148.886 169.803 148.458 169.908 147.983C170.035 147.433 170.056 146.864 169.972 146.307C169.903 145.731 169.759 145.08 169.713 144.4C169.597 143.029 170.081 141.589 170.323 140.045C170.456 139.25 170.431 138.435 170.248 137.649C170.158 137.239 169.98 136.853 169.726 136.518C169.473 136.183 169.15 135.907 168.779 135.708C167.943 135.374 167.069 135.146 166.176 135.029C165.701 134.936 165.245 134.763 164.828 134.516C164.408 134.247 164.064 133.877 163.826 133.439C163.406 132.542 163.082 131.604 162.858 130.639C162.723 130.165 162.519 129.713 162.253 129.297C161.976 128.89 161.571 128.588 161.101 128.439C160.434 128.31 159.753 128.266 159.074 128.307C158.721 128.307 158.37 128.247 158.037 128.128C157.704 128.001 157.41 127.788 157.185 127.512C156.804 126.955 156.503 126.349 156.292 125.709C156.063 125.117 155.712 124.581 155.261 124.136C154.833 123.709 154.321 123.375 153.758 123.155C153.195 122.935 152.593 122.834 151.989 122.858C150.857 122.913 149.788 123.392 148.994 124.2L148.902 124.292L148.838 124.177C148.358 123.313 147.698 122.562 146.904 121.975C146.109 121.387 145.197 120.978 144.23 120.773C143.426 120.603 142.597 120.591 141.788 120.738C141.1 120.853 140.439 121.091 139.835 121.441C138.76 122.077 137.944 123.072 137.531 124.252C137.503 124.312 137.478 124.373 137.457 124.436L137.428 124.499C137.428 124.499 137.428 124.499 137.428 124.43C137.428 124.361 137.468 124.321 137.491 124.24C137.566 123.991 137.661 123.749 137.773 123.514C138.205 122.612 138.892 121.857 139.749 121.343C140.362 120.979 141.035 120.73 141.736 120.605C142.56 120.444 143.407 120.444 144.23 120.605C145.217 120.813 146.148 121.229 146.962 121.824C147.775 122.42 148.452 123.183 148.948 124.061H148.798C149.624 123.212 150.742 122.708 151.926 122.65C152.558 122.625 153.188 122.73 153.778 122.959C154.367 123.188 154.903 123.536 155.353 123.981C155.825 124.446 156.194 125.005 156.436 125.622C156.64 126.237 156.931 126.818 157.3 127.35C157.514 127.594 157.781 127.786 158.08 127.911C158.38 128.036 158.704 128.09 159.028 128.07C159.726 128.026 160.427 128.072 161.113 128.209C161.625 128.374 162.067 128.707 162.369 129.153C162.649 129.585 162.863 130.057 163.002 130.553C163.223 131.503 163.542 132.428 163.953 133.312C164.171 133.721 164.49 134.068 164.88 134.32C165.276 134.551 165.708 134.715 166.159 134.804C167.07 134.926 167.962 135.162 168.814 135.507C169.221 135.715 169.571 136.019 169.833 136.394C170.083 136.755 170.264 137.159 170.369 137.586C170.561 138.396 170.585 139.237 170.438 140.057C170.185 141.624 169.701 143.041 169.805 144.377C169.845 145.039 169.983 145.667 170.047 146.272C170.132 146.848 170.105 147.435 169.966 148C169.848 148.497 169.573 148.944 169.183 149.273C168.829 149.521 168.441 149.715 168.031 149.849C167.715 149.947 167.424 150.112 167.178 150.333C167.005 150.49 166.874 150.688 166.798 150.909C166.76 151.113 166.799 151.324 166.907 151.502Z"
        fill="#455A64" />
    <path
        d="M180.173 139.233L180.092 139.107L179.862 138.715L178.998 137.194C178.618 136.538 178.191 135.708 177.592 134.815C176.965 133.776 176.056 132.936 174.971 132.39C174.361 132.114 173.67 131.953 172.967 131.699C172.601 131.575 172.253 131.405 171.93 131.192C171.593 130.964 171.316 130.658 171.124 130.3C170.726 129.568 170.651 128.716 170.317 127.961C170.165 127.575 169.897 127.245 169.551 127.016C169.176 126.799 168.767 126.646 168.342 126.561C167.89 126.471 167.449 126.338 167.023 126.164C166.575 125.966 166.202 125.632 165.957 125.208C165.456 124.361 165.381 123.365 165.133 122.443C165.03 121.975 164.834 121.532 164.557 121.141C164.257 120.768 163.823 120.527 163.348 120.467C162.38 120.341 161.378 120.749 160.306 120.657C159.767 120.604 159.258 120.38 158.855 120.018C158.478 119.675 158.144 119.288 157.858 118.866C157.587 118.451 157.29 118.053 156.971 117.674C156.668 117.298 156.27 117.01 155.819 116.838C154.927 116.504 153.959 116.787 153.083 117.063C152.212 117.404 151.276 117.553 150.342 117.501C149.467 117.348 148.628 117.038 147.865 116.585C147.16 116.169 146.415 115.823 145.642 115.554C144.218 115.187 142.717 115.247 141.327 115.727C140.176 116.113 139.126 116.755 138.257 117.605C137.61 118.256 137.066 119.001 136.644 119.816C136.389 120.338 136.175 120.879 136.005 121.435L135.867 121.867C135.857 121.917 135.839 121.966 135.815 122.011C135.819 121.96 135.83 121.909 135.85 121.861C135.85 121.752 135.913 121.602 135.965 121.418C136.115 120.853 136.318 120.303 136.57 119.776C136.98 118.945 137.518 118.183 138.165 117.518C139.042 116.645 140.105 115.984 141.275 115.583C142.695 115.08 144.232 115.008 145.693 115.375C146.48 115.647 147.238 115.994 147.957 116.412C148.701 116.848 149.516 117.148 150.365 117.299C151.272 117.348 152.178 117.197 153.02 116.856C153.475 116.706 153.941 116.591 154.414 116.51C154.91 116.426 155.42 116.469 155.894 116.637C156.372 116.826 156.794 117.133 157.121 117.53C157.455 117.91 157.732 118.33 158.026 118.739C158.298 119.16 158.619 119.546 158.982 119.891C159.353 120.219 159.819 120.421 160.312 120.467C161.309 120.559 162.311 120.15 163.365 120.283C163.895 120.349 164.379 120.62 164.713 121.037C165.011 121.449 165.22 121.918 165.329 122.414C165.577 123.365 165.663 124.344 166.124 125.133C166.351 125.516 166.691 125.82 167.098 126.003C167.512 126.175 167.942 126.306 168.382 126.394C168.827 126.483 169.253 126.647 169.643 126.878C170.023 127.128 170.316 127.487 170.484 127.909C170.83 128.71 170.899 129.557 171.274 130.242C171.662 130.885 172.279 131.359 173.002 131.567C173.687 131.82 174.39 131.987 175.018 132.275C176.12 132.842 177.041 133.709 177.673 134.775C178.249 135.685 178.681 136.503 179.05 137.183L179.879 138.721L180.086 139.124C180.119 139.157 180.148 139.194 180.173 139.233Z"
        fill="#455A64" />
    <path
        d="M171.896 132.218L172.028 132.189C172.161 132.173 172.297 132.193 172.42 132.246C172.647 132.369 172.841 132.545 172.983 132.76C173.126 132.975 173.213 133.222 173.238 133.479C173.263 133.846 173.236 134.214 173.157 134.573C173.064 134.991 173.033 135.42 173.065 135.846C173.15 136.326 173.358 136.774 173.67 137.148C173.987 137.563 174.378 137.966 174.701 138.467C174.89 138.725 175.017 139.022 175.072 139.337C175.127 139.652 175.109 139.975 175.018 140.282C174.833 140.915 174.442 141.468 174.246 142.113C174.104 142.794 174.228 143.503 174.591 144.095C174.92 144.734 175.375 145.35 175.703 146.065C175.88 146.425 175.987 146.816 176.02 147.217C176.045 147.632 175.982 148.048 175.835 148.438C175.49 149.197 175.078 149.924 174.603 150.609C174.121 151.294 173.915 152.135 174.027 152.965C174.282 153.799 174.636 154.6 175.081 155.35C175.284 155.761 175.409 156.206 175.45 156.663C175.467 157.119 175.382 157.574 175.202 157.994C174.816 158.768 174.34 159.495 173.785 160.159C173.269 160.791 172.889 161.523 172.667 162.308C172.527 163.088 172.335 163.858 172.091 164.612C171.945 164.981 171.716 165.312 171.423 165.58C171.13 165.829 170.794 166.024 170.433 166.156C170.099 166.282 169.772 166.427 169.453 166.588C169.159 166.762 168.89 166.975 168.653 167.221C168.225 167.719 167.865 168.271 167.581 168.863C167.288 169.439 167.005 169.98 166.7 170.481C166.147 171.405 165.308 172.122 164.31 172.526C163.564 172.835 162.759 172.973 161.954 172.929C161.449 172.9 160.952 172.793 160.479 172.613C160.314 172.548 160.154 172.471 160.001 172.382C160.621 172.651 161.285 172.807 161.96 172.843C162.75 172.873 163.537 172.725 164.264 172.411C165.228 172.007 166.036 171.302 166.568 170.401C166.873 169.905 167.144 169.352 167.426 168.782C167.715 168.174 168.083 167.606 168.52 167.094C168.768 166.833 169.051 166.608 169.361 166.426C169.683 166.254 170.016 166.104 170.358 165.977C170.697 165.854 171.013 165.672 171.291 165.441C171.561 165.191 171.77 164.881 171.901 164.537C172.145 163.783 172.338 163.013 172.477 162.233C172.701 161.419 173.094 160.662 173.629 160.01C174.173 159.357 174.639 158.644 175.018 157.884C175.187 157.496 175.264 157.074 175.242 156.652C175.206 156.223 175.089 155.804 174.897 155.419C174.441 154.654 174.081 153.836 173.825 152.982C173.745 152.539 173.772 152.082 173.906 151.652C174.042 151.247 174.225 150.861 174.453 150.5C174.921 149.825 175.328 149.11 175.668 148.363C175.813 147.997 175.874 147.603 175.847 147.211C175.819 146.831 175.719 146.46 175.553 146.117C175.236 145.425 174.787 144.809 174.453 144.147C174.067 143.512 173.941 142.752 174.102 142.027C174.298 141.341 174.712 140.794 174.891 140.201C174.976 139.918 174.995 139.619 174.946 139.327C174.897 139.035 174.782 138.759 174.609 138.519C174.298 138.035 173.912 137.626 173.595 137.2C173.272 136.802 173.058 136.328 172.973 135.823C172.95 135.386 172.989 134.948 173.088 134.522C173.172 134.173 173.205 133.814 173.186 133.456C173.167 133.21 173.089 132.972 172.958 132.763C172.828 132.553 172.649 132.378 172.437 132.252C172.264 132.189 172.076 132.177 171.896 132.218Z"
        fill="#455A64" />
    <path
        d="M97.5109 154.342C97.3195 154.363 97.1263 154.363 96.9349 154.342C96.3758 154.274 95.8377 154.088 95.3567 153.795C94.5754 153.338 93.9784 152.623 93.669 151.773C93.469 151.207 93.3957 150.604 93.4545 150.007C93.5132 149.41 93.7025 148.833 94.0088 148.317C94.3996 147.742 94.8473 147.207 95.3452 146.721C95.8897 146.214 96.3113 145.59 96.5778 144.895C96.774 144.119 96.6734 143.297 96.2956 142.591C95.9615 141.831 95.4776 141.105 95.1436 140.287C94.7812 139.361 94.6163 138.37 94.6596 137.376C94.7028 136.383 94.9532 135.41 95.3946 134.518C95.8361 133.627 96.4589 132.839 97.223 132.202C97.9872 131.566 98.8759 131.096 99.8322 130.824L99.7746 131.002C99.4075 130.554 99.1527 130.025 99.0316 129.459C98.9199 128.888 98.9199 128.301 99.0316 127.731C99.1371 127.15 99.3437 126.592 99.6421 126.083C99.9556 125.571 100.344 125.109 100.794 124.712C102.133 123.601 103.71 122.813 105.402 122.408C106.989 121.985 108.628 121.791 110.269 121.832L110.16 121.942C110.132 121.253 110.243 120.565 110.486 119.919C110.729 119.274 111.099 118.684 111.575 118.184C112.05 117.685 112.621 117.286 113.254 117.011C113.886 116.736 114.568 116.591 115.257 116.585C116.085 116.616 116.904 116.767 117.688 117.034C118.064 117.139 118.45 117.199 118.84 117.213C119.211 117.213 119.578 117.145 119.923 117.011C120.583 116.73 121.206 116.368 121.778 115.934C122.324 115.536 122.918 115.209 123.546 114.961C124.131 114.745 124.744 114.617 125.366 114.581C126.424 114.505 127.483 114.704 128.442 115.157C129.15 115.504 129.787 115.981 130.32 116.562C130.653 116.923 130.941 117.324 131.178 117.754C131.259 117.901 131.33 118.053 131.391 118.209C131.391 118.209 131.311 118.06 131.144 117.772C130.895 117.357 130.601 116.97 130.268 116.62C129.731 116.059 129.097 115.6 128.396 115.266C127.454 114.817 126.413 114.619 125.372 114.69C124.765 114.732 124.168 114.862 123.598 115.076C122.983 115.323 122.402 115.648 121.87 116.044C121.289 116.487 120.657 116.859 119.986 117.149C119.62 117.297 119.229 117.369 118.834 117.363C118.435 117.354 118.039 117.296 117.654 117.19C116.886 116.929 116.085 116.781 115.275 116.752C114.426 116.767 113.594 116.995 112.856 117.414C112.073 117.869 111.43 118.527 110.995 119.32C110.559 120.113 110.348 121.009 110.385 121.913V122.028H110.269C108.649 121.989 107.031 122.183 105.465 122.604C103.8 122.991 102.246 123.758 100.927 124.845C100.499 125.226 100.13 125.669 99.8322 126.158C99.5488 126.646 99.3538 127.18 99.2562 127.736C99.1525 128.281 99.1525 128.839 99.2562 129.384C99.3693 129.915 99.6084 130.41 99.9532 130.829L100.063 130.962L99.9013 131.008C98.9709 131.269 98.1055 131.722 97.361 132.338C96.6165 132.954 96.0094 133.719 95.579 134.585C95.1486 135.45 94.9044 136.396 94.8621 137.361C94.8198 138.326 94.9805 139.29 95.3336 140.189C95.6447 141.007 96.1228 141.739 96.4856 142.493C96.8728 143.23 96.9733 144.083 96.7679 144.89C96.4918 145.607 96.0543 146.252 95.4892 146.773C94.9928 147.248 94.5469 147.773 94.1586 148.34C93.8569 148.839 93.6685 149.399 93.6068 149.979C93.5451 150.559 93.6116 151.146 93.8015 151.698C94.0972 152.531 94.6708 153.237 95.4258 153.697C95.8957 153.992 96.4211 154.188 96.9695 154.273C97.3439 154.342 97.5167 154.33 97.5109 154.342Z"
        fill="#263238" />
    <path
        d="M174.085 127.034C174.067 126.99 174.057 126.943 174.056 126.895L173.987 126.486C173.923 126.118 173.837 125.599 173.722 124.931C173.606 124.263 173.445 123.434 173.192 122.501C172.914 121.437 172.514 120.408 171.999 119.436C171.375 118.264 170.507 117.239 169.453 116.429C168.863 115.989 168.206 115.647 167.507 115.416C166.748 115.214 165.979 115.052 165.203 114.932C164.367 114.805 163.564 114.519 162.835 114.091C162.104 113.599 161.437 113.019 160.848 112.363C160.237 111.724 159.65 111.05 158.976 110.445C158.304 109.825 157.522 109.335 156.672 108.999C154.965 108.391 153.151 108.142 151.344 108.268C149.656 108.333 147.975 108.526 146.316 108.844C143.487 109.351 140.762 110.324 138.252 111.724C136.572 112.678 135.056 113.893 133.759 115.324C133.534 115.583 133.327 115.802 133.183 116.009C133.039 116.216 132.895 116.395 132.78 116.539L132.532 116.867L132.44 116.971C132.46 116.929 132.483 116.889 132.509 116.85L132.745 116.516L133.131 115.969C133.292 115.756 133.494 115.531 133.707 115.266C134.993 113.804 136.509 112.561 138.194 111.585C140.698 110.156 143.424 109.155 146.258 108.625C147.928 108.304 149.621 108.111 151.321 108.049C153.157 107.913 155.002 108.164 156.735 108.786C157.61 109.133 158.412 109.639 159.103 110.278C159.788 110.888 160.376 111.574 160.986 112.207C161.558 112.843 162.209 113.405 162.922 113.878C163.628 114.301 164.411 114.583 165.226 114.707C166.003 114.826 166.772 114.992 167.53 115.203C168.247 115.443 168.922 115.797 169.528 116.251C170.597 117.083 171.475 118.133 172.103 119.333C172.607 120.319 172.994 121.361 173.255 122.437C173.497 123.382 173.641 124.211 173.75 124.891C173.86 125.571 173.929 126.095 173.969 126.452C173.969 126.625 174.004 126.757 174.015 126.861C174.048 126.914 174.072 126.972 174.085 127.034Z"
        fill="#263238" />
    <path
        d="M175.68 191.5C175.68 191.5 173.952 184.985 173.376 184.985L155.151 180.377C155.151 180.377 148.913 187.249 141.558 186.477C134.202 185.705 128.218 179.686 128.218 179.686L107.902 184.536C106.433 184.829 103.743 185.763 101.18 189.432C98.3001 193.521 83.2319 214.828 83.2319 214.828L106.623 226.031L176.648 214.949L175.68 191.5Z"
        fill="#455A64" />
    <path
        d="M173.376 184.985C173.376 184.985 179.585 185.619 187.2 193.677C191.151 197.882 202.118 209.402 202.118 209.402L181.382 228.796L173.376 216.446L173.543 195.215L173.376 184.985Z"
        fill="#455A64" />
    <path
        d="M82.7366 191.327C82.3219 190.993 84.142 184.346 84.142 184.346C84.142 184.346 79.3209 176.886 79.1942 174.479C79.0675 172.071 81.095 167.141 81.095 167.141L94.919 163.771C94.919 163.771 99.3599 171.587 100.241 174.358C101.122 177.128 98.7206 186.511 98.7206 186.511L96.382 191.327C96.382 191.327 89.3203 196.62 82.7366 191.327Z"
        fill="#FFBE9D" />
    <path
        d="M79.223 175.919C78.6819 174.976 78.1954 174.003 77.7658 173.004C76.896 171.034 75.8189 169.105 77.7658 168.005C78.0736 167.813 78.4173 167.686 78.7758 167.632C79.1342 167.577 79.5 167.596 79.8509 167.688C79.8509 167.688 79.5514 166.035 80.5939 165.413C80.9007 165.231 81.2444 165.122 81.5994 165.092C81.9545 165.062 82.3117 165.112 82.6445 165.24C82.6445 165.24 82.3104 162.901 83.7965 161.91C84.3681 161.557 85.0231 161.361 85.6948 161.343C86.3666 161.325 87.0312 161.485 87.6211 161.807C87.6211 161.807 86.4346 151.571 86.3309 151.03C85.9507 149.043 86.7283 147.28 88.8134 147.77C89.5795 147.948 90.0058 148.714 90.8986 152.049C91.7914 155.384 93.2371 161.069 93.2371 161.069C93.2371 161.069 95.6621 165.101 96.8083 167.244C97.9546 169.387 100.218 174.358 100.408 175.665C100.898 179.052 98.807 183.533 98.807 183.533L84.1248 184.346C84.1248 184.346 79.7818 176.886 79.223 175.919Z"
        fill="#FFBE9D" />
    <path
        d="M80.1389 168.131C80.5623 168.603 80.9475 169.108 81.2909 169.64L82.4429 171.317C82.6842 171.647 82.8962 171.998 83.0765 172.365C83.2821 172.776 83.343 173.245 83.2493 173.695C83.2003 173.934 83.0886 174.156 82.9256 174.337C82.7626 174.518 82.5542 174.653 82.3219 174.726C81.8778 174.834 81.4098 174.779 81.0029 174.571C80.6586 174.411 80.3306 174.218 80.0237 173.995C79.7357 173.799 79.4477 173.609 79.2345 173.419C78.7565 173.068 78.3878 172.768 78.1344 172.549C77.8809 172.33 77.76 172.204 77.7715 172.186C77.783 172.169 78.3821 172.595 79.3613 173.258C79.9103 173.651 80.4879 174.004 81.0893 174.312C81.434 174.481 81.8269 174.526 82.2009 174.438C82.3834 174.379 82.5463 174.271 82.6721 174.125C82.7979 173.98 82.8819 173.804 82.9152 173.615C82.9955 173.225 82.9428 172.819 82.7654 172.463C82.6016 172.11 82.409 171.77 82.1894 171.449L81.0835 169.721C80.7256 169.218 80.4097 168.686 80.1389 168.131Z"
        fill="#EB996E" />
    <path
        d="M92.16 169.347C92.0302 168.615 92.0836 167.863 92.3156 167.158C92.4504 166.421 92.765 165.728 93.2314 165.142C93.312 165.176 92.9031 166.069 92.6151 167.227C92.3271 168.385 92.2752 169.347 92.16 169.347Z"
        fill="#EB996E" />
    <path
        d="M98.0063 172.342C96.6314 171.082 94.928 170.237 93.0931 169.905C91.2484 169.567 89.3643 169.5 87.5001 169.704C86.0025 169.83 84.2975 170.199 83.6179 171.466C82.9382 172.733 83.7619 174.456 85.0867 175.21C86.4115 175.965 88.0473 175.988 89.5852 175.855C91.1231 175.723 92.6783 175.452 94.1932 175.677"
        fill="#FFBE9D" />
    <path
        d="M94.1991 175.677C94.1991 175.677 93.7843 175.642 93.0471 175.648C92.3098 175.654 91.2327 175.775 89.9021 175.93C89.1703 176.018 88.4327 176.049 87.696 176.022C86.8397 176.002 85.9967 175.806 85.2192 175.446C84.3689 175.032 83.7109 174.306 83.3818 173.419C83.2115 172.954 83.1756 172.451 83.2781 171.967C83.405 171.462 83.6894 171.01 84.0903 170.677C84.9159 170.074 85.8932 169.713 86.9127 169.635C87.8383 169.53 88.769 169.478 89.7005 169.479C91.2833 169.452 92.8603 169.677 94.3719 170.147C95.3796 170.467 96.3274 170.952 97.177 171.581C97.4013 171.761 97.6148 171.953 97.8163 172.157C97.9546 172.296 98.0179 172.371 98.0122 172.382C98.0064 172.394 97.7069 172.111 97.1021 171.697C96.2409 171.115 95.2973 170.667 94.3027 170.366C92.8056 169.938 91.2513 169.743 89.6947 169.79C88.7744 169.795 87.8552 169.853 86.9415 169.963C85.9832 170.035 85.0639 170.372 84.2861 170.936C83.93 171.234 83.6778 171.638 83.5661 172.088C83.475 172.52 83.507 172.969 83.6583 173.384C83.9576 174.206 84.562 174.881 85.3459 175.268C86.0842 175.617 86.8856 175.813 87.7018 175.844C88.424 175.877 89.1477 175.86 89.8675 175.792C90.9183 175.66 91.9765 175.595 93.0355 175.596C93.3248 175.604 93.6133 175.629 93.8995 175.671C93.9991 175.657 94.1001 175.659 94.1991 175.677Z"
        fill="#EB996E" />
    <path
        d="M80.2483 168.293C81.7692 170.567 83.1745 172.916 84.4588 175.331C84.7766 176.06 85.2863 176.689 85.9334 177.151C86.5094 177.48 87.8745 176.886 88.4908 176.685L84.2457 167.521"
        fill="#FFBE9D" />
    <path
        d="M84.2457 167.521C84.3971 167.735 84.5246 167.964 84.6259 168.206C84.8678 168.701 85.2019 169.358 85.5648 170.124C86.3481 171.754 87.431 174.041 88.6291 176.627L88.6982 176.771L88.5427 176.823C88.0819 176.979 87.5923 177.174 87.0624 177.301C86.8488 177.352 86.6309 177.383 86.4115 177.393C86.2952 177.399 86.1787 177.388 86.0659 177.359C85.9502 177.329 85.8409 177.278 85.7433 177.209C85.405 176.978 85.1154 176.682 84.8908 176.339C84.4531 175.688 84.1478 175.037 83.8022 174.433C83.134 173.212 82.5235 172.129 81.9936 171.213C81.4637 170.297 81.0201 169.583 80.7091 169.082C80.5323 168.833 80.3781 168.569 80.2483 168.293C80.461 168.517 80.6537 168.76 80.8243 169.018C81.1641 169.502 81.6422 170.216 82.1952 171.115C82.7481 172.013 83.3817 173.096 84.0614 174.306C84.4128 174.882 84.7353 175.573 85.15 176.184C85.3579 176.491 85.6216 176.757 85.9276 176.967C86.0933 177.048 86.2737 177.095 86.458 177.104C86.6422 177.113 86.8263 177.084 86.999 177.019C87.5001 176.898 87.9782 176.708 88.4505 176.547L88.3641 176.742C87.1718 174.156 86.1235 171.858 85.392 170.199C85.0406 169.41 84.7584 168.753 84.5337 168.246C84.4151 168.014 84.3187 167.771 84.2457 167.521Z"
        fill="#EB996E" />
    <path
        d="M83.1052 164.796C84.4723 168.045 85.8355 171.292 87.1948 174.536C87.4451 175.246 87.8174 175.907 88.295 176.489C88.546 176.785 88.864 177.017 89.2227 177.165C89.5814 177.313 89.9703 177.374 90.3571 177.341C90.8702 177.23 91.3299 176.946 91.6598 176.538C91.9898 176.129 92.1703 175.62 92.1715 175.095C92.1395 174.065 91.8778 173.056 91.4054 172.14C90.1843 169.187 89.2038 166.139 88.4735 163.028"
        fill="#FFBE9D" />
    <path
        d="M88.4737 163.028C88.5228 163.12 88.5577 163.219 88.5774 163.322L88.8193 164.186C89.0324 164.929 89.3377 166.012 89.7697 167.331C90.2017 168.65 90.7604 170.211 91.4631 171.939C91.8986 172.815 92.1884 173.757 92.3214 174.726C92.3631 175.26 92.2554 175.794 92.0103 176.27C91.7613 176.795 91.323 177.207 90.7834 177.422C90.5014 177.518 90.2029 177.555 89.9059 177.533C89.6089 177.51 89.3196 177.427 89.0554 177.29C88.5674 177.039 88.1527 176.666 87.8516 176.207C87.3612 175.364 86.9467 174.479 86.6132 173.563C85.9162 171.835 85.2826 170.332 84.747 169.03C84.2113 167.728 83.8196 166.726 83.5143 165.971L83.1918 165.13C83.1471 165.035 83.116 164.934 83.0996 164.831C83.1619 164.916 83.2123 165.009 83.2494 165.107L83.6238 165.925L84.9486 168.955C85.5246 170.251 86.1524 171.777 86.8782 173.459C87.223 174.338 87.6411 175.185 88.1281 175.994C88.4021 176.409 88.7792 176.746 89.2225 176.973C89.4452 177.092 89.6902 177.164 89.942 177.183C90.1937 177.203 90.4469 177.171 90.6855 177.088C91.1536 176.9 91.5353 176.545 91.7569 176.092C91.9783 175.658 92.076 175.172 92.0391 174.686C91.908 173.748 91.6301 172.836 91.2154 171.985C90.5242 170.257 89.9886 168.701 89.5796 167.377C89.1706 166.052 88.8942 164.957 88.7214 164.197C88.635 163.817 88.5716 163.523 88.5313 163.322C88.5 163.226 88.4807 163.128 88.4737 163.028Z"
        fill="#EB996E" />
    <path
        d="M83.4335 187.635C83.4335 187.635 74.062 213.854 73.6934 215.162L92.5113 221.319L98.8473 185.901L83.4335 187.635Z"
        fill="#FFBE9D" />
    <path
        d="M92.5575 183.562C92.2592 183.593 91.9578 183.556 91.6762 183.453C90.9873 183.253 90.3503 182.905 89.8099 182.433C89.2798 181.974 88.8603 181.401 88.583 180.757C88.4457 180.505 88.38 180.22 88.393 179.933C88.7837 180.797 89.3349 181.579 90.0173 182.237C90.7795 182.825 91.6394 183.274 92.5575 183.562Z"
        fill="#EB996E" />
    <path
        d="M73.6934 215.162C73.6934 215.162 70.6176 222.805 70.8134 227.978C71.0093 233.15 73.6934 242.954 81.2505 242.896C86.6995 242.867 92.1542 240.707 97.9891 234.026C101.226 230.316 105.316 225.461 105.316 225.461L88.0358 217.201L73.6934 215.162Z"
        fill="#FFBE9D" />
    <path
        d="M88.5889 235.391C88.6227 235.255 88.673 235.123 88.7386 234.999L89.2167 233.899C89.4356 233.432 89.6084 232.816 89.8618 232.125C90.1153 231.434 90.3399 230.621 90.6049 229.729C91.6417 226.157 92.7649 221.135 93.8305 215.559C94.8961 209.983 95.7197 204.903 96.313 201.228C96.601 199.414 96.8372 197.933 97.01 196.874C97.0906 196.384 97.154 195.992 97.2058 195.693C97.2209 195.552 97.2499 195.413 97.2922 195.278C97.3027 195.418 97.3027 195.559 97.2922 195.699L97.154 196.891C97.0215 197.922 96.8199 199.42 96.578 201.263C96.0365 204.943 95.2359 210.029 94.1761 215.617C93.1162 221.204 91.9469 226.221 90.8641 229.786C90.5818 230.679 90.3514 231.514 90.0749 232.177C89.7985 232.839 89.6141 233.478 89.378 233.945L88.8423 235.022C88.7675 235.151 88.6828 235.275 88.5889 235.391Z"
        fill="#EB996E" />
    <path
        d="M103.807 201.591C103.868 201.728 103.916 201.871 103.951 202.017C104.037 202.328 104.158 202.743 104.302 203.256C104.59 204.344 104.976 205.917 105.408 207.864C106.278 211.775 107.326 217.206 108.357 223.237C109.388 229.268 110.166 234.757 110.632 238.726C110.863 240.713 111.018 242.326 111.105 243.443C111.139 243.985 111.162 244.411 111.179 244.733C111.19 244.883 111.19 245.033 111.179 245.183C111.142 245.038 111.119 244.889 111.11 244.739C111.076 244.417 111.035 243.99 110.978 243.455C110.857 242.343 110.667 240.736 110.402 238.749C109.883 234.78 109.054 229.314 108.04 223.283C107.026 217.253 106.001 211.827 105.16 207.904C104.751 205.946 104.4 204.367 104.146 203.296C104.026 202.778 103.928 202.357 103.853 202.046C103.829 201.895 103.813 201.744 103.807 201.591Z"
        fill="#263238" />
    <path
        d="M175.634 231.906C175.621 231.795 175.621 231.683 175.634 231.572C175.634 231.318 175.68 230.996 175.709 230.616C175.784 229.746 175.887 228.554 176.008 227.096C176.36 223.236 176.5 219.36 176.429 215.484C176.362 213.353 176.181 211.226 175.887 209.114C175.726 208.146 175.593 207.219 175.398 206.366C175.3 205.94 175.225 205.525 175.127 205.133C175.029 204.742 174.925 204.367 174.833 203.981C174.66 203.256 174.436 202.622 174.257 202.058C174.079 201.493 173.912 201.015 173.762 200.623C173.612 200.232 173.52 199.961 173.439 199.725C173.392 199.622 173.36 199.514 173.341 199.402C173.406 199.494 173.457 199.595 173.491 199.702L173.871 200.583C174.038 200.969 174.228 201.441 174.413 202.006C174.597 202.57 174.845 203.198 175.029 203.924C175.133 204.287 175.236 204.661 175.346 205.076C175.455 205.491 175.536 205.888 175.634 206.314C175.847 207.173 175.985 208.1 176.158 209.073C176.47 211.194 176.662 213.33 176.734 215.473C176.812 219.362 176.643 223.252 176.227 227.119C176.077 228.6 175.939 229.798 175.83 230.627C175.778 231.013 175.732 231.33 175.697 231.578C175.693 231.69 175.672 231.8 175.634 231.906Z"
        fill="#263238" />
    <path
        d="M167.27 261.547C167.27 261.547 166.308 259.013 168.422 258.811C169.572 258.729 170.726 258.706 171.878 258.742C172.793 258.758 173.68 259.06 174.414 259.605C175.148 260.151 175.694 260.912 175.974 261.783L176.832 264.525L179.741 267.434H182.949L187.966 278.107C187.966 278.107 183.652 281.747 181.14 280.561C178.629 279.374 178.26 279.57 178.26 279.57C178.26 279.57 168.33 285.388 167.627 285.088C166.925 284.789 165.727 283.717 167.627 282.076C169.528 280.434 176.152 275.861 176.152 275.861L163.515 280.561C163.515 280.561 161.412 280.071 162.616 278.464C163.82 276.857 174.447 271.909 174.447 271.909L173.647 271.045C173.647 271.045 163.417 274.858 162.703 274.357C161.988 273.856 160.358 272.848 162.23 271.546C164.102 270.245 173.336 266.535 173.336 266.535L171.93 263.223L170.496 262.52C170.496 262.52 167.564 262.463 167.27 261.547Z"
        fill="#FFBE9D" />
    <path
        d="M186.157 271.31C186.019 271.345 185.731 270.112 184.712 269.006C183.692 267.9 182.506 267.509 182.552 267.37C182.598 267.232 183.957 267.439 185.074 268.672C186.192 269.905 186.29 271.322 186.157 271.31Z"
        fill="#EB996E" />
    <path
        d="M177.898 268.28C177.782 268.367 177.062 267.353 175.709 266.881C174.355 266.408 173.157 266.742 173.128 266.598C173.099 266.454 173.382 266.368 173.883 266.264C174.548 266.139 175.234 266.191 175.872 266.415C176.51 266.64 177.078 267.029 177.517 267.543C177.846 267.941 177.949 268.246 177.898 268.28Z"
        fill="#EB996E" />
    <path
        d="M178.036 272.116C177.955 272.232 177.154 271.759 176.072 271.811C174.989 271.863 174.217 272.387 174.13 272.255C174.044 272.122 174.776 271.356 176.054 271.316C177.333 271.276 178.139 272.03 178.036 272.116Z"
        fill="#EB996E" />
    <path
        d="M179.816 275.682C179.775 275.82 178.819 275.607 177.661 275.78C176.504 275.953 175.645 276.402 175.565 276.281C175.484 276.16 176.308 275.469 177.592 275.29C178.877 275.112 179.867 275.567 179.816 275.682Z"
        fill="#EB996E" />
    <path
        d="M153.636 218.18C153.595 218.29 153.543 218.396 153.481 218.497L152.997 219.378C152.571 220.144 151.914 221.233 151.073 222.557C150.232 223.882 149.184 225.437 147.963 227.102C146.742 228.767 145.325 230.558 143.764 232.378C142.203 234.198 140.63 235.834 139.156 237.315C137.681 238.795 136.31 240.045 135.124 241.064C133.937 242.084 132.958 242.902 132.244 243.437L131.443 244.048C131.354 244.125 131.255 244.191 131.149 244.244C131.225 244.154 131.31 244.073 131.403 244.002L132.169 243.345C132.837 242.769 133.799 241.951 134.957 240.909C141.043 235.46 146.405 229.254 150.912 222.442C151.77 221.135 152.45 220.069 152.905 219.32L153.441 218.468C153.493 218.364 153.559 218.267 153.636 218.18Z"
        fill="#263238" />
    <path
        d="M149.702 223.646C149.622 223.655 149.541 223.655 149.46 223.646C149.225 223.65 148.99 223.633 148.758 223.594C147.859 223.422 147.023 223.014 146.333 222.413C145.233 221.47 144.446 220.214 144.075 218.813C143.642 216.959 143.566 215.04 143.85 213.157C143.914 212.633 143.977 212.103 144.046 211.556C144.104 210.992 144.206 210.433 144.351 209.885C144.507 209.298 144.815 208.761 145.244 208.33C145.466 208.099 145.735 207.919 146.034 207.802C146.332 207.686 146.652 207.636 146.972 207.656C147.304 207.704 147.619 207.829 147.893 208.021C148.168 208.213 148.393 208.467 148.55 208.762C148.875 209.344 149.082 209.984 149.161 210.646C149.27 212.009 149.198 213.38 148.948 214.724C148.415 217.615 147.159 220.324 145.296 222.598C144.313 223.796 143.17 224.852 141.898 225.737C141.252 226.207 140.549 226.594 139.807 226.889C139.045 227.203 138.219 227.326 137.399 227.246C136.567 227.139 135.798 226.744 135.227 226.129C134.687 225.529 134.273 224.825 134.012 224.061C133.751 223.322 133.558 222.56 133.436 221.786C133.307 221.023 133.219 220.254 133.171 219.482C133.077 217.993 133.137 216.499 133.35 215.023C133.459 214.298 133.597 213.589 133.77 212.892C133.949 212.191 134.267 211.533 134.703 210.957C134.925 210.666 135.208 210.428 135.533 210.26C135.864 210.093 136.237 210.029 136.604 210.076C136.954 210.144 137.282 210.295 137.563 210.515C137.843 210.736 138.067 211.019 138.217 211.343C138.49 211.957 138.605 212.631 138.551 213.301C138.506 213.931 138.427 214.558 138.315 215.179C137.886 217.446 137.053 219.618 135.855 221.59C134.125 224.452 131.687 226.82 128.776 228.467C128.326 228.729 127.86 228.963 127.382 229.17C127.038 229.337 126.684 229.484 126.322 229.608L125.66 229.838C125.586 229.869 125.509 229.892 125.43 229.907C125.499 229.868 125.573 229.835 125.649 229.809L126.299 229.55C126.656 229.418 127.004 229.264 127.342 229.089C127.813 228.874 128.273 228.633 128.719 228.369C131.582 226.689 133.974 224.311 135.671 221.457C136.843 219.506 137.654 217.36 138.067 215.121C138.176 214.509 138.253 213.892 138.298 213.272C138.344 212.645 138.235 212.016 137.981 211.441C137.85 211.157 137.654 210.908 137.409 210.715C137.163 210.522 136.876 210.39 136.57 210.329C136.25 210.299 135.928 210.357 135.638 210.494C135.348 210.632 135.101 210.846 134.922 211.112C134.075 212.178 133.862 213.635 133.638 215.046C133.426 216.503 133.368 217.978 133.465 219.447C133.514 220.202 133.602 220.954 133.73 221.699C133.853 222.455 134.046 223.197 134.306 223.917C134.552 224.643 134.944 225.311 135.458 225.881C135.978 226.447 136.682 226.81 137.445 226.906C138.216 226.98 138.992 226.866 139.709 226.572C140.429 226.288 141.11 225.915 141.736 225.461C142.99 224.597 144.115 223.559 145.077 222.379C146.914 220.146 148.156 217.485 148.689 214.643C148.938 213.328 149.011 211.986 148.907 210.652C148.835 210.024 148.64 209.417 148.331 208.866C148.196 208.603 148 208.377 147.759 208.205C147.519 208.032 147.241 207.919 146.949 207.875C146.665 207.854 146.381 207.895 146.114 207.994C145.848 208.094 145.606 208.249 145.405 208.451C144.993 208.874 144.706 209.402 144.576 209.978C144.431 210.514 144.327 211.061 144.265 211.613C144.196 212.155 144.127 212.691 144.063 213.209C143.772 215.066 143.831 216.961 144.236 218.796C144.589 220.173 145.345 221.412 146.408 222.356C147.078 222.954 147.892 223.371 148.769 223.565C149.374 223.658 149.702 223.623 149.702 223.646Z"
        fill="white" />
    <path
        d="M161.51 225.472C161.5 225.62 161.467 225.766 161.412 225.904C161.265 226.304 161.02 226.661 160.698 226.941C160.186 227.39 159.545 227.667 158.866 227.73C157.961 227.79 157.066 227.506 156.361 226.935C155.501 226.261 154.871 225.338 154.558 224.291C154.217 223.106 154.084 221.87 154.166 220.639C154.253 217.818 154.944 215.049 156.194 212.518C156.387 212.17 156.669 211.88 157.012 211.677C157.192 211.577 157.394 211.521 157.6 211.513C157.806 211.505 158.011 211.546 158.198 211.631C158.545 211.818 158.822 212.113 158.987 212.472C159.153 212.802 159.262 213.159 159.31 213.526C159.414 214.906 159.177 216.291 158.619 217.558C157.683 219.67 156.199 221.494 154.322 222.84C153.071 223.747 151.736 224.532 150.336 225.184C149.846 225.426 149.466 225.599 149.184 225.714C149.053 225.779 148.916 225.831 148.775 225.869C148.896 225.789 149.023 225.718 149.155 225.656L150.267 225.08C151.644 224.385 152.958 223.572 154.195 222.65C156.018 221.302 157.455 219.501 158.365 217.425C158.89 216.21 159.115 214.887 159.022 213.566C158.974 213.232 158.873 212.907 158.722 212.604C158.587 212.306 158.359 212.059 158.072 211.901C157.926 211.837 157.768 211.807 157.609 211.814C157.45 211.821 157.295 211.864 157.156 211.942C156.862 212.121 156.62 212.373 156.453 212.673C155.805 213.953 155.315 215.307 154.996 216.705C154.676 218.003 154.483 219.328 154.42 220.662C154.329 221.864 154.448 223.073 154.771 224.234C155.063 225.236 155.654 226.126 156.465 226.785C157.127 227.336 157.971 227.62 158.832 227.58C159.479 227.53 160.095 227.281 160.594 226.866C160.914 226.607 161.167 226.275 161.332 225.898C161.47 225.622 161.487 225.466 161.51 225.472Z"
        fill="white" />
    <g opacity="0.3">
        <path
            d="M152.571 219.983C150.108 227.087 145.347 233.168 139.041 237.263C139.041 237.263 147.07 229.504 152.571 219.983Z"
            fill="black" />
    </g>
    <g opacity="0.3">
        <path
            d="M173.768 200.439V200.675C176.36 206.522 176.469 215.334 176.498 221.935C177.838 218.398 178.616 214.672 178.802 210.893C178.831 207.455 176.694 202.242 173.768 200.439Z"
            fill="black" />
    </g>
</svg>