<svg width="288" height="288" viewBox="0 0 288 288" fill="none" xmlns="http://www.w3.org/2000/svg">
    <path
        d="M253.613 59.0515C240.008 38.759 216.922 24.3302 192.499 23.9558C168.077 23.5814 143.378 38.7072 135.153 61.7127C131.121 72.9216 131.011 85.1098 128.655 96.7795C126.3 108.449 120.839 120.597 110.16 125.868C95.691 132.998 78.5377 124.848 62.4327 125.62C44.2023 126.49 27.6481 139.818 21.243 156.897C14.8379 173.975 17.9425 193.905 27.723 209.313C37.5035 224.721 53.4011 235.728 70.7444 241.413C88.0878 247.098 128.961 250.404 147.047 247.974C155.578 247.623 164.034 246.226 172.224 243.815C197.096 236.425 217.342 224.006 234.173 206.548C254.235 185.725 266.746 157.893 269.551 129.116C271.872 104.797 267.212 79.344 253.613 59.0515Z"
        fill="var(--bubbleColor)" />
    <path
        d="M53.3608 252.173C53.9368 250.053 52.514 247.928 50.9588 246.413C49.4036 244.898 47.5432 243.504 46.731 241.471C45.4177 238.176 47.1803 233.914 44.9454 231.166C43.6264 229.553 41.2648 229.012 40.0955 227.284C39.5549 226.331 39.1973 225.286 39.0414 224.202C37.7985 218.73 35.1068 213.693 31.2481 209.618C30.988 214.492 32.0445 219.347 34.3067 223.672C35.211 225.4 36.3284 227.082 36.6107 229.012C37.1003 232.14 35.3492 235.348 36.1211 238.435C37.0024 241.949 40.948 244.305 41.1323 247.922C41.2936 250.98 38.6267 253.682 38.8283 256.723C38.9898 258.026 39.4619 259.27 40.2049 260.352C42.5665 264.286 46.0456 266.993 51.3102 266.907L57.7614 267.132L53.3608 252.173Z"
        fill="currentColor" />
    <g opacity="0.3">
        <path
            d="M53.3608 252.173C53.9368 250.053 52.514 247.928 50.9588 246.413C49.4036 244.898 47.5432 243.504 46.731 241.471C45.4177 238.176 47.1803 233.914 44.9454 231.166C43.6264 229.553 41.2648 229.012 40.0955 227.284C39.5549 226.331 39.1973 225.286 39.0414 224.202C37.7985 218.73 35.1068 213.693 31.2481 209.618C30.988 214.492 32.0445 219.347 34.3067 223.672C35.211 225.4 36.3284 227.082 36.6107 229.012C37.1003 232.14 35.3492 235.348 36.1211 238.435C37.0024 241.949 40.948 244.305 41.1323 247.922C41.2936 250.98 38.6267 253.682 38.8283 256.723C38.9898 258.026 39.4619 259.27 40.2049 260.352C42.5665 264.286 46.0456 266.993 51.3102 266.907L57.7614 267.132L53.3608 252.173Z"
            fill="black" />
    </g>
    <path
        d="M59.0632 267.264C59.654 267.355 60.2562 267.344 60.843 267.229C61.5555 267.121 62.2558 266.944 62.9339 266.7C63.8704 266.374 64.7463 265.895 65.5259 265.283C65.995 264.905 66.3615 264.416 66.5915 263.86C66.7842 263.236 66.8851 262.588 66.891 261.936C66.904 261.239 66.9559 260.542 67.0466 259.851C67.1679 259.115 67.4342 258.41 67.8299 257.777C68.5902 256.441 69.8574 255.174 70.2606 253.359C70.6638 251.545 70.3874 249.644 70.0878 247.709C69.7883 245.773 69.5118 243.677 70.2376 241.649C70.9634 239.622 72.3458 237.807 73.0542 235.538C73.7627 233.268 73.4286 230.769 73.5784 228.332C73.6226 227.095 73.9083 225.877 74.4194 224.749C74.9378 223.597 75.6635 222.532 76.228 221.334C77.38 218.903 77.5758 216.15 77.8869 213.448C78.0424 212.089 78.1922 210.712 78.3477 209.33C78.4457 207.932 78.687 206.548 79.0677 205.2C79.5047 203.841 80.0201 202.508 80.6114 201.208C80.9158 200.536 81.1662 199.841 81.3602 199.129C81.4687 198.392 81.5379 197.65 81.5675 196.906C81.6362 195.415 81.5784 193.922 81.3947 192.442C81.2219 190.956 80.9512 189.481 80.7899 187.989C80.7899 187.897 80.7899 187.811 80.7899 187.73L80.7554 187.436L80.4962 187.563C79.1343 188.262 77.9517 189.265 77.0402 190.495C76.1462 191.699 75.4267 193.023 74.9032 194.429C73.8261 197.199 73.4402 200.102 72.8987 202.873C72.3573 205.644 71.6661 208.368 70.2491 210.672C69.5406 211.824 68.6824 212.872 67.9451 213.99C67.1445 215.08 66.5975 216.336 66.3438 217.665C65.9579 220.395 67.4613 222.791 67.1502 225.21C67.0099 226.395 66.6171 227.536 65.9982 228.557C65.4222 229.588 64.7253 230.544 64.0686 231.5C63.4031 232.438 62.8247 233.435 62.3406 234.478C61.885 235.499 61.6158 236.594 61.5458 237.709C61.3902 239.887 61.6955 241.949 61.5458 243.896C61.3659 245.751 60.8238 247.554 59.9502 249.201C59.1726 250.785 58.3029 252.219 57.5771 253.613C57.2142 254.304 56.8744 254.984 56.5979 255.669C56.3363 256.327 56.1433 257.01 56.0219 257.708C55.8291 258.926 55.8136 260.166 55.9758 261.389C56.1451 263.094 56.783 264.719 57.819 266.083C57.9774 266.289 58.1528 266.482 58.3432 266.659C58.4704 266.793 58.6113 266.912 58.7637 267.016C59.0056 267.195 59.1323 267.276 59.1323 267.276C58.6719 266.912 58.2527 266.498 57.8824 266.043C56.8935 264.673 56.2961 263.061 56.1544 261.377C56.0077 260.17 56.0349 258.948 56.235 257.748C56.3563 257.068 56.5494 256.401 56.811 255.761C57.1029 255.068 57.4317 254.392 57.796 253.734C58.5275 252.351 59.403 250.923 60.1979 249.327C61.0976 247.655 61.6575 245.82 61.8453 243.93C62.0181 241.943 61.7186 239.869 61.8798 237.75C61.954 236.67 62.2172 235.611 62.6574 234.622C63.1445 233.6 63.7228 232.625 64.3854 231.708C65.0421 230.751 65.739 229.795 66.3381 228.741C66.9955 227.682 67.416 226.493 67.5707 225.256C67.8818 222.682 66.3899 220.274 66.7758 217.734C67.0283 216.463 67.5573 215.264 68.3253 214.22C69.0568 213.12 69.9208 212.072 70.6293 210.891C72.0981 208.524 72.8066 205.747 73.3422 202.965C73.8779 200.183 74.2754 197.303 75.3352 194.584C75.8449 193.218 76.545 191.93 77.4146 190.76C78.2914 189.58 79.4288 188.618 80.7381 187.949L80.4443 187.782C80.4443 187.868 80.4443 187.955 80.4731 188.047C80.6344 189.556 80.9051 191.03 81.0491 192.505C81.231 193.962 81.2869 195.433 81.2162 196.9C81.187 197.621 81.1217 198.34 81.0203 199.054C80.8342 199.743 80.5914 200.415 80.2946 201.064C79.7002 202.378 79.1809 203.724 78.7394 205.096C78.3555 206.466 78.1123 207.871 78.0136 209.29C77.8638 210.678 77.7083 212.054 77.5586 213.414C77.2475 216.127 77.0459 218.834 75.9458 221.178C75.3698 222.33 74.6786 223.43 74.1429 224.605C73.6157 225.776 73.3222 227.038 73.2789 228.321C73.1349 230.809 73.4574 233.245 72.7835 235.446C72.1096 237.646 70.7099 239.478 70.0014 241.557C69.293 243.636 69.5522 245.837 69.8632 247.766C70.1742 249.696 70.4853 251.597 70.0706 253.308C69.6558 255.018 68.4693 256.297 67.6974 257.668C67.2905 258.328 67.0184 259.062 66.8968 259.828C66.8098 260.527 66.7636 261.231 66.7586 261.936C66.7595 262.572 66.6663 263.205 66.4821 263.814C66.2687 264.341 65.926 264.807 65.4856 265.167C64.7269 265.779 63.8726 266.262 62.957 266.596C62.2878 266.854 61.5953 267.047 60.8891 267.172C60.4575 267.25 60.0202 267.293 59.5816 267.299C59.2187 267.264 59.0632 267.264 59.0632 267.264Z"
        fill="#263238" />
    <path
        d="M79.4423 191.29C79.4115 191.351 79.3901 191.417 79.3789 191.485L79.2407 192.061C79.1139 192.574 78.9584 193.34 78.7165 194.296C78.4746 195.252 77.8813 196.335 77.3802 197.666C76.7933 199.164 76.2819 200.69 75.848 202.239C75.3527 203.967 74.9207 205.868 74.4599 207.919C74.0683 210.103 73.3742 212.222 72.3978 214.214C71.8679 215.263 71.2458 216.323 70.8023 217.486C70.3372 218.674 70.0255 219.917 69.8749 221.184C69.5473 223.808 69.082 226.413 68.481 228.989C67.1907 234.271 65.9581 239.305 64.8349 243.89C63.7117 248.475 62.6519 252.576 61.7763 256.044C60.9008 259.511 60.2384 262.276 59.7546 264.252C59.5299 265.196 59.3514 265.939 59.2247 266.486C59.1728 266.723 59.1267 266.913 59.0922 267.062C59.0858 267.129 59.0858 267.197 59.0922 267.264C59.1256 267.204 59.1508 267.14 59.1671 267.074C59.2074 266.918 59.265 266.734 59.3341 266.498C59.4781 265.962 59.6797 265.219 59.9389 264.28C60.4573 262.322 61.1888 259.54 62.0931 256.113C62.9975 252.685 64.0515 248.538 65.2323 243.982C66.4131 239.426 67.6112 234.357 68.913 229.069C69.5102 226.487 69.964 223.874 70.2723 221.242C70.4195 220.005 70.7214 218.792 71.1709 217.63C71.6259 216.478 72.2077 215.447 72.7376 214.387C73.8896 212.285 74.3447 210.027 74.7997 207.994C75.2547 205.96 75.6579 204.036 76.1303 202.32C76.6026 200.604 77.0979 199.071 77.5933 197.747C78.0887 196.422 78.6359 195.327 78.872 194.337C79.1082 193.346 79.2176 192.609 79.3213 192.079C79.3597 191.841 79.3943 191.649 79.425 191.503C79.4423 191.359 79.4538 191.29 79.4423 191.29Z"
        fill="#263238" />
    <path
        d="M60.2037 267.293C64.4142 264.787 65.6238 257.184 63.867 252.611C62.1102 248.037 59.0344 243.855 58.5621 238.977C58.1934 235.227 59.4261 231.379 58.5621 227.716C57.3813 222.768 52.5544 218.938 52.612 213.852C52.6408 211 54.2651 208.316 54.1326 205.465C53.9771 201.974 51.293 199.198 49.6341 196.122C47.0882 191.405 46.9211 185.835 46.0514 180.57C45.1816 175.306 43.1714 169.626 38.4827 167.028C37.7915 171.516 36.6107 174.591 36.9794 180.668C37.1176 182.851 39.652 187.004 39.9976 191.814C40.205 194.694 40.3432 197.539 40.5218 200.396C40.7003 203.253 40.8731 206.018 41.8696 208.621C42.6357 210.62 43.8626 212.435 44.4328 214.497C45.4984 218.373 44.093 222.561 44.957 226.5C45.6885 229.83 47.9925 232.692 48.4648 236.068C49.1214 240.808 46.0571 245.739 47.6238 250.26C48.4072 252.507 50.2504 254.292 50.7746 256.625C51.1835 258.422 50.74 260.329 51.1086 262.132C51.6846 265.046 57.2488 267.316 60.2152 267.126"
        fill="currentColor" />
    <path
        d="M39.6348 171.458C39.6269 171.542 39.6269 171.627 39.6348 171.711C39.6348 171.901 39.6924 172.143 39.727 172.449C39.8249 173.1 39.9343 174.05 40.1532 175.283C40.3721 176.515 41.0287 177.909 41.5356 179.591C42.0425 181.273 42.607 183.197 43.0793 185.351C43.5516 187.505 43.9663 189.907 44.3868 192.482C44.8073 195.057 45.2681 197.862 46.5468 200.546C47.1228 201.888 47.8025 203.236 48.2748 204.676C48.7588 206.15 49.0567 207.678 49.1618 209.226C49.3973 212.51 49.8107 215.779 50.4002 219.018C51.6905 225.665 52.9174 231.996 54.0348 237.761C55.1522 243.527 56.2754 248.671 57.174 253.025C58.0726 257.38 58.8098 260.859 59.3225 263.313L59.8985 266.106C59.9676 266.406 60.0194 266.642 60.0655 266.826C60.0811 266.911 60.1042 266.994 60.1346 267.074C60.1448 266.99 60.1448 266.905 60.1346 266.82C60.1001 266.63 60.0598 266.394 60.0079 266.089C59.8812 265.421 59.7026 264.476 59.478 263.278C58.9942 260.819 58.326 257.305 57.4562 252.968C56.5865 248.63 55.5554 243.429 54.4092 237.686C53.263 231.944 52.1052 225.59 50.8092 218.949C50.2193 215.71 49.804 212.441 49.565 209.157C49.4554 207.577 49.1477 206.018 48.6492 204.515C48.1366 203.052 47.4626 201.698 46.8694 200.362C45.6022 197.718 45.1414 194.959 44.7036 192.396C44.2658 189.832 43.8454 187.425 43.3442 185.259C42.8431 183.093 42.2959 181.158 41.7314 179.499C41.167 177.84 40.5391 176.435 40.2857 175.231C40.0322 174.027 39.9113 173.059 39.7903 172.42C39.7327 172.12 39.6866 171.878 39.6521 171.688C39.6509 171.611 39.6451 171.534 39.6348 171.458Z"
        fill="#263238" />
    <path
        d="M242.767 51.1315H240.463C240.464 51.3928 240.413 51.6518 240.313 51.8931C240.213 52.1344 240.065 52.3531 239.879 52.5363C239.692 52.7195 239.471 52.8634 239.228 52.9594C238.985 53.0555 238.725 53.1019 238.464 53.0957C238.078 53.1095 237.698 53.0026 237.375 52.7899C237.053 52.5772 236.806 52.2693 236.667 51.9091C236.545 51.6092 236.497 51.2848 236.525 50.9624C236.553 50.6401 236.657 50.3289 236.828 50.0544C237.22 49.4093 238.072 48.8275 239.616 49.0982V43.9142H237.352V46.944C236.423 47.2175 235.61 47.7882 235.036 48.5685C234.463 49.3489 234.162 50.2958 234.178 51.264C234.178 54.6163 237.185 55.3939 238.475 55.3939C239.46 55.417 242.813 55.1808 242.767 51.1315Z"
        fill="currentColor" />
    <path d="M237.335 42.8659H239.633V40.7174H237.335V42.8659Z" fill="currentColor" />
    <path
        d="M255.329 48.0672C255.337 47.9694 255.337 47.8712 255.329 47.7734C255.329 47.5661 255.329 47.2838 255.329 46.921C255.329 46.7366 255.329 46.5235 255.3 46.2931C255.272 46.0627 255.237 45.8093 255.197 45.5443C255.156 45.2794 255.116 44.9683 255.07 44.663L254.828 43.6838C254.4 41.9975 253.7 40.3924 252.755 38.9318C251.382 36.7688 249.532 34.9494 247.346 33.6133C245.16 32.2773 242.697 31.4602 240.146 31.225C239.38 31.1573 238.61 31.1419 237.842 31.1789C237.456 31.1789 237.059 31.1789 236.69 31.2538L235.503 31.4323C233.875 31.7349 232.3 32.2724 230.826 33.0278C229.288 33.8419 227.874 34.8718 226.627 36.0864C225.351 37.38 224.284 38.8647 223.465 40.487C222.584 42.1596 222.006 43.9753 221.76 45.8496C221.688 46.3245 221.648 46.8036 221.639 47.2838C221.601 47.7648 221.591 48.2475 221.61 48.7296C221.735 51.8195 222.701 54.8167 224.404 57.3984V57.2198C223.603 59.2186 222.814 61.1827 222.042 63.095L221.904 63.4464L222.267 63.3427L228.545 61.6147L228.395 61.5802C230.51 63.1809 232.973 64.2586 235.584 64.7251C236.795 64.9509 238.029 65.0263 239.259 64.9498C239.852 64.9409 240.443 64.8851 241.027 64.7827L241.885 64.6502C242.168 64.5984 242.461 64.512 242.715 64.4486C246.584 63.4682 249.977 61.1425 252.288 57.888C253.15 56.6891 253.842 55.3768 254.344 53.9885C254.454 53.6832 254.557 53.4125 254.655 53.113C254.753 52.8134 254.805 52.537 254.868 52.2778C254.932 52.0186 255.001 51.7536 255.059 51.5117C255.116 51.2698 255.133 51.0336 255.168 50.809C255.22 50.3654 255.3 49.9738 255.318 49.657C255.335 49.3402 255.318 49.0349 255.318 48.793C255.318 48.551 255.318 48.4013 255.318 48.2688C255.318 48.1363 255.318 48.0902 255.318 48.0902C255.309 48.1494 255.309 48.2096 255.318 48.2688C255.318 48.4013 255.318 48.5741 255.277 48.793C255.237 49.0118 255.243 49.3171 255.22 49.6512C255.197 49.9853 255.11 50.377 255.041 50.8032C254.492 53.9911 253.029 56.951 250.829 59.3232C248.63 61.6954 245.789 63.3779 242.651 64.1664C242.381 64.2298 242.11 64.3104 241.834 64.3622L240.987 64.489C240.416 64.5843 239.838 64.6363 239.259 64.6445C238.052 64.7081 236.842 64.6288 235.653 64.4083C233.103 63.9391 230.699 62.8798 228.632 61.3152L228.563 61.2576H228.476L222.192 62.9856L222.411 63.2333L224.778 57.3638L224.813 57.2717L224.761 57.1853C223.627 55.4692 222.822 53.557 222.388 51.5462C222.189 50.6134 222.069 49.6654 222.031 48.7123C222.011 48.2418 222.021 47.7705 222.059 47.3011C222.063 46.8324 222.102 46.3645 222.175 45.9014C222.396 44.071 222.94 42.2944 223.782 40.6541C224.582 39.0686 225.622 37.6155 226.863 36.3456C228.083 35.1533 229.468 34.1426 230.976 33.3446C232.417 32.5953 233.959 32.0616 235.555 31.7606L236.707 31.5821C237.093 31.5245 237.479 31.5302 237.859 31.5014C238.61 31.4657 239.362 31.4792 240.111 31.5418C242.62 31.7614 245.046 32.5499 247.205 33.8474C249.364 35.1448 251.199 36.9172 252.57 39.0298C253.521 40.4648 254.233 42.0443 254.678 43.7069L254.938 44.6746C254.989 44.9798 255.035 45.2506 255.082 45.5386C255.128 45.8266 255.162 46.057 255.203 46.2874C255.243 46.5178 255.231 46.7251 255.249 46.9094C255.249 47.2666 255.295 47.5488 255.312 47.7562C255.301 47.8601 255.307 47.9651 255.329 48.0672Z"
        fill="#263238" />
    <path
        d="M83.5601 115.995H116.824C116.824 115.995 116.824 88.0646 145.849 87.5693C160.923 87.3043 168.739 97.1827 171.918 104.746C175.605 113.53 174.487 123.54 169.545 131.691C163.906 140.993 151.753 150.342 129.335 146.39L129.122 220.504H162.017V176.567C162.017 176.567 208.149 164.644 208.149 113.783C208.149 65.1398 168.814 54.6336 147.669 53.9539C135.907 53.5795 131.645 53.0726 117.095 55.1405C98.5533 57.7901 83.1684 79.321 83.5601 115.995Z"
        fill="currentColor" />
    <path d="M162.415 235.953H129.03V267.132H162.415V235.953Z" fill="currentColor" />
    <path opacity="0.1" d="M162.415 235.953H129.03V267.132H162.415V235.953Z" fill="black" />
    <path opacity="0.1"
        d="M83.5601 115.995H116.824C116.824 115.995 116.824 88.0646 145.849 87.5693C160.923 87.3043 168.739 97.1827 171.918 104.746C175.605 113.53 174.487 123.54 169.545 131.691C163.906 140.993 151.753 150.342 129.335 146.39L129.122 220.504H162.017V176.567C162.017 176.567 208.149 164.644 208.149 113.783C208.149 65.1398 168.814 54.6336 147.669 53.9539C135.907 53.5795 131.645 53.0726 117.095 55.1405C98.5533 57.7901 83.1684 79.321 83.5601 115.995Z"
        fill="black" />
    <path
        d="M69.7765 115.995H103.046C103.046 115.995 103.046 88.0646 132.071 87.5693C147.145 87.3043 154.961 97.1827 158.135 104.746C161.827 113.53 160.71 123.54 155.768 131.691C150.129 140.993 137.762 149.449 115.344 145.515V220.504H148.239V176.567C148.239 176.567 194.371 164.644 194.371 113.783C194.371 65.1398 150.745 53.8445 132.077 53.8445C117.798 53.8618 69.1487 57.312 69.7765 115.995Z"
        fill="currentColor" />
    <path opacity="0.3"
        d="M69.7765 115.995H103.046C103.046 115.995 103.046 88.0646 132.071 87.5693C147.145 87.3043 154.961 97.1827 158.135 104.746C161.827 113.53 160.71 123.54 155.768 131.691C150.129 140.993 137.762 149.449 115.344 145.515V220.504H148.239V176.567C148.239 176.567 194.371 164.644 194.371 113.783C194.371 65.1398 150.745 53.8445 132.077 53.8445C117.798 53.8618 69.1487 57.312 69.7765 115.995Z"
        fill="black" />
    <path d="M148.637 235.953H115.252V267.132H148.637V235.953Z" fill="currentColor" />
    <path opacity="0.3" d="M148.637 235.953H115.252V267.132H148.637V235.953Z" fill="black" />
    <path
        d="M135.826 87.719C135.661 87.7333 135.496 87.7333 135.331 87.719C135.003 87.719 134.53 87.6096 133.914 87.6038C132.171 87.5182 130.425 87.5915 128.695 87.8227C126.131 88.1474 123.608 88.74 121.167 89.591C119.728 90.094 118.327 90.6984 116.974 91.3997C115.511 92.1306 114.134 93.0211 112.867 94.055C111.609 95.0983 110.481 96.2896 109.509 97.6032C108.587 98.8177 107.746 100.091 106.992 101.416C105.732 103.673 104.733 106.065 104.014 108.547C103.526 110.222 103.191 111.938 103.012 113.674C102.942 114.284 102.925 114.768 102.908 115.091C102.908 115.257 102.893 115.423 102.862 115.586C102.847 115.421 102.847 115.255 102.862 115.091C102.862 114.762 102.862 114.278 102.914 113.662C103.046 111.908 103.353 110.171 103.829 108.478C104.522 105.967 105.508 103.547 106.767 101.267C107.523 99.9272 108.368 98.6398 109.296 97.4131C110.276 96.0781 111.418 94.8689 112.694 93.8131C113.976 92.765 115.371 91.8628 116.853 91.1232C118.214 90.409 119.625 89.793 121.075 89.28C123.538 88.4322 126.085 87.8529 128.672 87.552C130.413 87.3381 132.171 87.2976 133.92 87.431C134.395 87.4614 134.868 87.5191 135.337 87.6038C135.502 87.6307 135.666 87.6692 135.826 87.719Z"
        fill="#263238" />
    <path
        d="M185.95 81.792C185.95 81.792 185.91 81.7517 185.841 81.6653C185.771 81.5789 185.668 81.4291 185.553 81.2621L184.452 79.7069C184.216 79.3728 183.963 78.9869 183.663 78.5894L182.627 77.328L181.44 75.8707C181.008 75.3638 180.501 74.8742 179.994 74.3386C179.487 73.8029 178.969 73.2326 178.381 72.6854C177.794 72.1382 177.166 71.5795 176.521 71.0035C176.198 70.7155 175.882 70.4275 175.536 70.1222L174.465 69.2755C173.733 68.6995 173.007 68.1235 172.218 67.5475C168.779 65.0866 165.13 62.9319 161.315 61.1078L158.279 59.737L155.267 58.585C154.282 58.176 153.279 57.888 152.312 57.5654C151.344 57.2429 150.399 56.9146 149.432 56.6899L146.678 55.9699C145.786 55.7338 144.899 55.5898 144.052 55.3939C143.205 55.1981 142.387 55.0253 141.587 54.9274L139.283 54.5933C137.825 54.3456 136.489 54.2938 135.325 54.1786C134.749 54.1325 134.173 54.0691 133.695 54.0461L132.324 54.0115L130.424 53.9482H129.928H129.761C129.817 53.9395 129.873 53.9395 129.928 53.9482H130.424H132.324H133.701C134.202 53.9482 134.749 54.0173 135.337 54.0576C136.489 54.1555 137.848 54.1958 139.306 54.432L141.61 54.743C142.41 54.8352 143.228 55.0426 144.081 55.1981C144.933 55.3536 145.809 55.5149 146.724 55.7741L149.489 56.4883C150.445 56.7072 151.39 57.0643 152.369 57.3581C153.348 57.6518 154.345 57.9341 155.33 58.3718L158.36 59.5238L161.412 60.9005C165.248 62.7286 168.911 64.8994 172.356 67.3862C173.151 67.9622 173.877 68.5786 174.609 69.1488L175.68 69.9264C176.026 70.2144 176.342 70.5024 176.665 70.8134L178.52 72.5414C179.096 73.1174 179.614 73.6934 180.127 74.2176C180.639 74.7418 181.129 75.2544 181.561 75.767L182.713 77.2358L183.738 78.5146C184.032 78.9178 184.28 79.3094 184.51 79.6666C184.959 80.3405 185.311 80.8704 185.558 81.2506L185.829 81.671C185.874 81.706 185.915 81.7466 185.95 81.792Z"
        fill="#263238" />
    <path
        d="M182.483 153.216C182.414 153.341 182.331 153.457 182.235 153.562L181.44 154.5C181.112 154.921 180.697 155.422 180.184 155.981C179.672 156.54 179.125 157.196 178.456 157.876C177.788 158.556 177.074 159.316 176.262 160.082C175.45 160.848 174.568 161.654 173.629 162.495C169.511 166.09 164.997 169.203 160.174 171.775C159.057 172.351 158.003 172.927 156.983 173.37C155.964 173.814 155.013 174.269 154.138 174.637C153.262 175.006 152.456 175.311 151.753 175.582C151.05 175.853 150.434 176.072 149.927 176.233L148.775 176.607C148.641 176.66 148.502 176.699 148.36 176.723C148.485 176.651 148.616 176.594 148.752 176.55L149.904 176.124C150.405 175.945 151.01 175.715 151.707 175.427C152.404 175.139 153.21 174.851 154.074 174.442C154.938 174.033 155.894 173.647 156.891 173.146C157.887 172.644 158.953 172.115 160.065 171.533C162.259 170.323 164.627 168.906 167.017 167.27C169.407 165.635 171.556 163.912 173.468 162.288C174.407 161.459 175.306 160.681 176.106 159.898C176.907 159.114 177.656 158.406 178.318 157.726C178.98 157.046 179.562 156.419 180.081 155.866C180.599 155.313 181.025 154.829 181.371 154.426L182.177 153.51C182.271 153.404 182.373 153.306 182.483 153.216Z"
        fill="#263238" />
    <path
        d="M147.657 217.889C147.571 217.889 147.502 208.639 147.502 197.228C147.502 185.818 147.571 176.561 147.657 176.561C147.744 176.561 147.807 185.812 147.807 197.228C147.807 208.644 147.738 217.889 147.657 217.889Z"
        fill="#263238" />
    <path
        d="M148.925 265.018C148.838 265.018 148.775 258.526 148.775 250.52C148.775 242.513 148.838 236.016 148.925 236.016C149.011 236.016 149.074 242.508 149.074 250.52C149.074 258.532 149.005 265.018 148.925 265.018Z"
        fill="#263238" />
    <path
        d="M181.67 111.577C181.094 112.729 183.243 113.674 184.481 114.048C185.745 114.358 187.052 114.448 188.346 114.313C190.074 114.221 191.843 114.06 193.334 113.207C194.641 112.398 195.685 111.227 196.341 109.837C196.988 108.452 197.499 107.007 197.867 105.523C197.867 105.523 184.257 106.41 181.67 111.577Z"
        fill="currentColor" />
    <g opacity="0.4">
        <path
            d="M181.67 111.577C181.094 112.729 183.243 113.674 184.481 114.048C185.745 114.358 187.052 114.448 188.346 114.313C190.074 114.221 191.843 114.06 193.334 113.207C194.641 112.398 195.685 111.227 196.341 109.837C196.988 108.452 197.499 107.007 197.867 105.523C197.867 105.523 184.257 106.41 181.67 111.577Z"
            fill="black" />
    </g>
    <path
        d="M220.113 107.891C222.357 109.482 225.046 110.325 227.796 110.298C229.115 110.372 230.415 109.962 231.454 109.146C231.898 108.737 232.232 108.219 232.687 107.827C232.998 107.562 233.361 107.361 233.654 107.078C233.809 106.945 233.929 106.775 234.002 106.584C234.076 106.393 234.101 106.187 234.075 105.984C233.961 105.484 233.681 105.037 233.28 104.717C231.719 103.83 229.853 103.864 228.056 103.905C226.257 103.982 224.481 104.33 222.785 104.936C221.391 105.408 219.934 106.088 219.226 107.355"
        fill="currentColor" />
    <g opacity="0.4">
        <path
            d="M234.075 105.984C233.871 105.498 233.513 105.093 233.055 104.832C231.494 103.945 229.853 103.864 228.056 103.905C226.257 103.982 224.481 104.33 222.785 104.936C221.391 105.408 219.934 106.088 219.226 107.355L220.113 107.891C222.357 109.482 225.046 110.325 227.796 110.298C229.115 110.372 230.415 109.962 231.454 109.146C231.898 108.737 232.232 108.219 232.687 107.827C232.998 107.562 233.361 107.361 233.654 107.078C233.809 106.945 233.929 106.775 234.002 106.584C234.076 106.393 234.101 106.187 234.075 105.984Z"
            fill="black" />
    </g>
    <path
        d="M193.536 128.563L222.25 128.943C222.308 128.943 222.366 128.929 222.418 128.903C222.47 128.877 222.515 128.838 222.55 128.791C222.585 128.744 222.608 128.69 222.618 128.632C222.628 128.575 222.624 128.515 222.607 128.46L219.237 117.953C219.237 117.953 219.733 112.7 220.418 106.387C221.461 96.7968 222.849 84.7411 222.866 84.7757C220.902 79.2691 209.313 78.336 209.313 78.336L196.105 79.1194L195.644 78.3418L191.843 80.1101C191.013 80.4958 190.216 80.9465 189.458 81.4579C186.947 83.1341 180.899 86.9875 179.793 91.2787C177.241 101.215 181.561 112.303 181.561 112.303L184.337 110.131C185.037 109.592 185.772 109.102 186.538 108.662L192.102 123.575C191.771 123.784 191.49 124.064 191.281 124.395C191.072 124.725 190.939 125.099 190.892 125.487C190.846 126.697 191.468 128.148 193.536 128.563Z"
        fill="currentColor" />
    <g opacity="0.3">
        <path
            d="M205.856 110.984C206.767 106.088 206.288 101.053 205.799 96.0998C204.209 100.132 204.267 104.74 202.579 108.737C202.372 109.159 202.221 109.607 202.13 110.068C202.086 110.299 202.097 110.538 202.163 110.764C202.229 110.991 202.348 111.198 202.51 111.37C202.971 111.79 203.662 111.56 204.272 111.491C204.819 111.386 205.351 111.216 205.856 110.984Z"
            fill="black" />
    </g>
    <g opacity="0.4">
        <path
            d="M195.264 122.319C197.568 123.12 200.022 121.628 202.458 121.363C204.071 121.19 205.684 121.559 207.285 121.818C210.523 122.342 213.817 122.423 217.077 122.06C217.578 122.033 218.067 121.905 218.517 121.686C218.75 121.527 218.94 121.314 219.072 121.065C219.203 120.816 219.272 120.539 219.272 120.257C213.846 119.681 208.426 119.37 203 118.812C201.649 118.581 200.266 118.626 198.933 118.944C197.298 119.451 196.053 120.735 194.901 122.008"
            fill="black" />
    </g>
    <path
        d="M233.246 104.095C230.901 98.8128 222.636 84.2054 222.636 84.2054L216.236 92.2291L217.728 107.983C217.728 107.983 221.109 104.21 230.561 104.135C231.248 104.163 231.92 104.343 232.528 104.664C233.136 104.985 233.665 105.438 234.075 105.99L233.246 104.095Z"
        fill="currentColor" />
    <path
        d="M194.82 101.301C194.364 100.181 194.002 99.0252 193.737 97.8451C193.38 96.6956 193.118 95.5185 192.954 94.3258C193.404 95.4475 193.764 96.6031 194.031 97.7818C194.389 98.9316 194.653 100.109 194.82 101.301Z"
        fill="#263238" />
    <path
        d="M215.752 91.1635C215.961 91.3108 216.154 91.4787 216.328 91.6646C216.837 92.1561 217.314 92.6794 217.757 93.2314C219.246 95.052 220.293 97.1932 220.815 99.4867C221.086 100.755 221.147 102.058 220.994 103.346C220.85 104.527 220.625 105.564 220.476 106.439C220.326 107.315 220.234 108.029 220.188 108.524C220.186 108.782 220.159 109.038 220.107 109.29C220.066 109.033 220.055 108.772 220.072 108.513C220.098 107.807 220.163 107.103 220.268 106.404C220.389 105.523 220.591 104.475 220.723 103.317C220.856 102.059 220.788 100.787 220.522 99.5501C220.006 97.2994 219.005 95.1882 217.59 93.3638C216.536 91.9469 215.706 91.2096 215.752 91.1635Z"
        fill="#263238" />
    <path
        d="M209.889 127.296C209.689 127.385 209.478 127.447 209.261 127.48C209.015 127.545 208.765 127.593 208.512 127.624C208.218 127.665 207.884 127.728 207.51 127.745C206.632 127.826 205.749 127.826 204.872 127.745C203.798 127.635 202.737 127.423 201.704 127.112C200.676 126.781 199.681 126.355 198.732 125.839C197.963 125.409 197.232 124.914 196.549 124.358C196.249 124.128 196.007 123.886 195.788 123.684C195.6 123.514 195.421 123.334 195.253 123.143C195.093 122.995 194.955 122.824 194.844 122.636C194.884 122.596 195.5 123.287 196.681 124.191C197.371 124.716 198.101 125.186 198.864 125.597C199.802 126.09 200.781 126.5 201.79 126.824C202.806 127.13 203.847 127.346 204.901 127.469C205.761 127.561 206.628 127.588 207.493 127.549C208.973 127.469 209.877 127.25 209.889 127.296Z"
        fill="#263238" />
    <path
        d="M218.753 124.024C218.889 124.285 218.965 124.572 218.978 124.865C219.07 125.567 219.017 126.281 218.822 126.962C218.624 127.658 218.223 128.28 217.67 128.748C217.25 129.099 216.927 129.208 216.91 129.18C216.893 129.151 217.163 128.961 217.526 128.604C217.992 128.118 218.331 127.524 218.511 126.876C218.972 125.355 218.644 124.03 218.753 124.024Z"
        fill="#263238" />
    <path
        d="M217.192 126.052C217.317 126.644 217.267 127.26 217.049 127.825C216.83 128.389 216.451 128.878 215.96 129.231C215.896 129.168 216.432 128.598 216.766 127.716C217.1 126.835 217.106 126.058 217.192 126.052Z"
        fill="#263238" />
    <path
        d="M212.054 107.101C211.749 107.617 211.406 108.11 211.029 108.576C210.731 109.096 210.394 109.593 210.021 110.062C210.132 109.454 210.393 108.884 210.781 108.403C211.088 107.868 211.526 107.42 212.054 107.101Z"
        fill="#263238" />
    <path
        d="M192.344 93.1507C191.905 92.893 191.48 92.6123 191.071 92.3097C189.022 90.9639 186.698 90.0958 184.268 89.7696C183.76 89.7325 183.254 89.6652 182.753 89.568C183.264 89.4975 183.781 89.4975 184.291 89.568C186.787 89.781 189.177 90.6712 191.203 92.1427C191.628 92.4242 192.012 92.7634 192.344 93.1507Z"
        fill="#263238" />
    <path
        d="M222.635 84.0154C221.604 84.8455 220.641 85.7566 219.755 86.7398C218.939 87.7892 218.209 88.9026 217.572 90.0691C217.64 89.6768 217.775 89.2989 217.97 88.9517C218.387 88.088 218.909 87.2793 219.525 86.544C220.142 85.8102 220.851 85.1579 221.633 84.6029C221.931 84.3508 222.27 84.152 222.635 84.0154Z"
        fill="#263238" />
    <path
        d="M210.781 79.2691C210.834 79.3522 210.876 79.4411 210.908 79.5341C211.02 79.7949 211.111 80.0647 211.179 80.3405C211.422 81.3669 211.422 82.4359 211.179 83.4624C210.82 84.9947 210 86.38 208.829 87.431C207.35 88.6834 205.467 89.355 203.529 89.3203C201.591 89.327 199.701 88.7067 198.144 87.552C196.903 86.6045 195.896 85.3846 195.201 83.9866C194.732 83.0504 194.402 82.0512 194.221 81.0202C194.168 80.7424 194.134 80.4615 194.118 80.1792C194.101 80.08 194.101 79.9789 194.118 79.8797C194.118 79.8797 194.181 80.2829 194.342 80.9971C194.566 81.9991 194.921 82.9673 195.396 83.8771C196.099 85.2331 197.097 86.4141 198.317 87.3331C199.818 88.4445 201.633 89.0497 203.501 89.0611C205.368 89.0954 207.185 88.4576 208.621 87.264C209.753 86.2515 210.555 84.9235 210.925 83.4509C211.182 82.4569 211.217 81.4188 211.029 80.4096C210.92 79.6493 210.747 79.2806 210.781 79.2691Z"
        fill="#263238" />
    <g opacity="0.3">
        <path
            d="M212.797 108.121C212.797 107.833 212.751 107.493 212.498 107.349C212.417 107.309 212.329 107.287 212.239 107.287C212.149 107.287 212.06 107.309 211.979 107.349C211.818 107.436 211.676 107.554 211.559 107.695C210.882 108.399 210.358 109.237 210.021 110.154L212.843 109.907C212.826 109.325 212.815 108.714 212.797 108.121Z"
            fill="black" />
    </g>
    <g opacity="0.3">
        <path
            d="M222.169 102.182C221.885 100.567 221.177 99.0566 220.118 97.8048C221.339 101.791 220.93 104.043 220.245 106.773L220.395 106.393C221.184 104.797 222.382 103.795 222.169 102.182Z"
            fill="black" />
    </g>
    <path d="M216.53 236.079L214.807 261.913L203.575 261.78L201.807 234.922L216.53 236.079Z" fill="#FFBE9D" />
    <path
        d="M215.124 258.515V259.263C215.124 259.263 227.796 264.355 227.917 266.751L202.752 266.613L203.144 258.244C206.893 260.001 210.816 260.22 215.124 258.515Z"
        fill="currentColor" />
    <path
        d="M205.695 260.928C205.456 261 205.252 261.157 205.121 261.369C204.989 261.581 204.94 261.834 204.981 262.08C205.043 262.326 205.197 262.538 205.412 262.672C205.627 262.807 205.885 262.852 206.133 262.8C206.389 262.723 206.608 262.554 206.746 262.325C206.885 262.096 206.933 261.824 206.882 261.562C206.791 261.313 206.606 261.109 206.367 260.994C206.129 260.879 205.855 260.862 205.603 260.945"
        fill="white" />
    <path
        d="M202.752 266.613L202.844 264.603L226.944 265.478C226.944 265.478 228.061 265.974 227.929 266.757L202.752 266.613Z"
        fill="#263238" />
    <path
        d="M215.216 259.332C215.216 259.453 214.594 259.505 213.99 259.908C213.385 260.312 213.056 260.813 212.947 260.767C212.838 260.721 213.022 260.006 213.765 259.546C214.508 259.085 215.245 259.2 215.216 259.332Z"
        fill="#263238" />
    <path
        d="M217.849 260.438C217.878 260.559 217.342 260.761 216.922 261.279C216.501 261.798 216.38 262.345 216.254 262.339C216.127 262.333 216.058 261.636 216.593 261.009C217.129 260.381 217.843 260.352 217.849 260.438Z"
        fill="#263238" />
    <path
        d="M219.329 263.606C219.214 263.606 219.047 263.03 219.37 262.345C219.692 261.66 220.262 261.412 220.314 261.51C220.366 261.608 220.009 261.971 219.738 262.529C219.468 263.088 219.456 263.595 219.329 263.606Z"
        fill="#263238" />
    <path
        d="M214.48 47.1456C215.13 45.5328 214.341 43.5802 212.942 42.5376C211.466 41.5665 209.668 41.2167 207.936 41.5642C206.228 41.9223 204.574 42.5033 203.017 43.2922C202.293 42.562 201.38 42.0474 200.381 41.8059C199.382 41.5645 198.335 41.6055 197.357 41.9246C196.38 42.2437 195.51 42.8281 194.845 43.6128C194.181 44.3974 193.748 45.3513 193.594 46.368C192.971 46.2112 192.317 46.227 191.703 46.4136C191.088 46.6003 190.536 46.9507 190.106 47.4273C189.675 47.9039 189.383 48.4887 189.26 49.119C189.136 49.7492 189.187 50.4012 189.406 51.0048L197.194 53.7408L205.696 68.7168C206.952 69.7888 208.556 70.367 210.207 70.3436C211.858 70.3202 213.445 69.6968 214.671 68.5896C215.896 67.4825 216.677 65.9673 216.868 64.3267C217.058 62.6861 216.646 61.0322 215.706 59.6736C216.183 59.25 216.587 58.752 216.904 58.199C217.584 57.7973 218.177 57.2645 218.648 56.6316C219.12 55.9988 219.461 55.2785 219.652 54.5126C220.407 51.1776 217.826 47.5373 214.48 47.1456Z"
        fill="#263238" />
    <path
        d="M209.324 78.336C208.841 75.8995 208.506 74.2291 208.512 74.2464C208.518 74.2637 213.12 72.4608 212.786 66.0499C212.625 62.8589 211.409 57.8304 210.281 53.7523C209.267 50.0774 205.84 46.0282 202.217 47.1974L191.232 52.5542C190.132 52.9114 189.942 53.9482 190.201 55.0714V55.6474L194.469 73.3075L196.272 81.1987C196.656 82.8191 197.634 84.2368 199.011 85.1728C200.388 86.1088 202.066 86.4953 203.714 86.256C204.614 86.1294 205.479 85.8202 206.255 85.3474C207.031 84.8746 207.703 84.2481 208.228 83.5065C208.753 82.7648 209.122 81.9236 209.31 81.0345C209.499 80.1453 209.504 79.2271 209.324 78.336Z"
        fill="#FFBE9D" />
    <path
        d="M210.24 58.0147C210.286 58.2191 210.252 58.4334 210.145 58.6135C210.038 58.7935 209.866 58.9256 209.664 58.9824C209.562 59.0108 209.456 59.0184 209.351 59.0045C209.246 58.9907 209.145 58.9559 209.054 58.9021C208.963 58.8483 208.884 58.7766 208.822 58.6914C208.759 58.6062 208.714 58.5093 208.69 58.4064C208.644 58.2028 208.679 57.9892 208.786 57.8101C208.893 57.631 209.065 57.5 209.266 57.4445C209.368 57.4151 209.474 57.4067 209.579 57.4198C209.684 57.4329 209.785 57.4671 209.876 57.5205C209.967 57.5738 210.046 57.6452 210.109 57.7301C210.171 57.8151 210.216 57.9119 210.24 58.0147Z"
        fill="#263238" />
    <path
        d="M209.739 56.7878C209.658 56.9146 208.961 56.5978 208.109 56.7878C207.256 56.9779 206.715 57.5309 206.6 57.4445C206.485 57.3581 206.6 57.1968 206.836 56.9434C207.153 56.6085 207.565 56.3792 208.017 56.2867C208.462 56.1906 208.927 56.2411 209.342 56.4307C209.664 56.5632 209.774 56.736 209.739 56.7878Z"
        fill="#263238" />
    <path
        d="M201.877 59.904C201.923 60.1076 201.889 60.3212 201.781 60.5003C201.674 60.6794 201.502 60.8103 201.301 60.8659C201.201 60.8949 201.097 60.9038 200.994 60.8922C200.891 60.8806 200.792 60.8487 200.701 60.7984C200.61 60.748 200.531 60.6802 200.467 60.5989C200.403 60.5175 200.355 60.4243 200.327 60.3245C200.281 60.1201 200.315 59.9058 200.422 59.7257C200.529 59.5457 200.702 59.4136 200.903 59.3568C201.003 59.3279 201.108 59.3192 201.211 59.3312C201.314 59.3432 201.414 59.3756 201.505 59.4265C201.595 59.4774 201.675 59.5459 201.739 59.6278C201.803 59.7098 201.849 59.8037 201.877 59.904Z"
        fill="#263238" />
    <path
        d="M201.456 58.8211C201.381 58.9478 200.678 58.6253 199.826 58.8211C198.973 59.017 198.432 59.5584 198.317 59.4778C198.201 59.3971 198.317 59.2301 198.553 58.9709C198.871 58.639 199.283 58.412 199.734 58.32C200.179 58.2254 200.642 58.2737 201.058 58.4582C201.364 58.5965 201.496 58.752 201.456 58.8211Z"
        fill="#263238" />
    <path
        d="M205.793 64.2355C206.215 64.0025 206.664 63.8208 207.129 63.6941C207.343 63.625 207.544 63.5386 207.55 63.383C207.52 63.1539 207.421 62.9392 207.268 62.7667L206.271 61.2346C204.877 59.0515 203.817 57.2429 203.904 57.2026C203.99 57.1622 205.194 58.873 206.588 61.056L207.561 62.5997C207.753 62.8359 207.856 63.1309 207.855 63.4349C207.838 63.5177 207.803 63.5958 207.752 63.6635C207.701 63.7312 207.636 63.7869 207.561 63.8266C207.449 63.8862 207.329 63.9308 207.204 63.959C206.749 64.115 206.274 64.208 205.793 64.2355Z"
        fill="#263238" />
    <path
        d="M208.512 74.2464C205.599 74.9048 202.56 74.7413 199.734 73.7741C199.734 73.7741 202.752 77.7139 208.84 75.8304L208.512 74.2464Z"
        fill="#EB996E" />
    <path
        d="M201.6 57.6C201.542 57.8477 200.661 57.8419 199.659 58.0896C198.657 58.3373 197.862 58.7117 197.701 58.5158C197.631 58.4237 197.747 58.1818 198.052 57.9398C198.458 57.5981 198.94 57.3591 199.457 57.2429C199.971 57.1211 200.505 57.1211 201.018 57.2429C201.427 57.3178 201.64 57.4848 201.6 57.6Z"
        fill="#263238" />
    <path
        d="M209.41 54.0691C209.272 54.2995 208.535 54.2419 207.682 54.4089C206.83 54.576 206.156 54.864 205.954 54.6969C205.862 54.6105 205.954 54.3917 206.202 54.1209C206.582 53.8011 207.042 53.5901 207.533 53.5104C208.015 53.4132 208.515 53.449 208.978 53.6141C209.33 53.7754 209.468 53.9539 209.41 54.0691Z"
        fill="#263238" />
    <path
        d="M193.945 48.4301C194.072 49.054 194.336 49.6423 194.716 50.153C195.097 50.6638 195.585 51.0844 196.146 51.3852C196.708 51.686 197.328 51.8594 197.964 51.8932C198.6 51.927 199.236 51.8203 199.826 51.5808C200.736 51.2122 201.681 50.5209 202.602 50.855C203.524 51.1891 203.904 52.5024 204.785 52.992C206.081 53.7177 207.665 52.4621 209.111 52.5888C210.263 52.6867 211.133 53.568 212.026 54.3168C212.918 55.0656 214.151 55.6301 215.159 55.0886C214.928 54.1267 214.586 53.195 214.14 52.3123C213.689 51.4237 212.944 50.7192 212.031 50.3193C211.525 50.1177 210.977 50.0486 210.493 49.8009C209.451 49.271 208.984 48.0729 208.23 47.1686C207.734 46.5988 207.11 46.1552 206.409 45.8747C205.708 45.5942 204.95 45.4849 204.198 45.5558C202.954 45.6825 201.773 46.3104 200.517 46.2585C199.59 46.2182 198.703 45.8035 197.775 45.8208C195.973 45.8208 194.619 47.4336 193.617 48.9369"
        fill="#263238" />
    <path
        d="M200.016 49.7491C199.187 49.6858 197.493 49.513 196.934 48.9254C196.367 48.2906 195.642 47.816 194.834 47.5491C194.025 47.2822 193.16 47.2325 192.326 47.4048C191.499 47.6515 190.772 48.1574 190.254 48.848C189.735 49.5386 189.452 50.3774 189.446 51.241C188.439 51.4869 187.516 52.0005 186.776 52.7274C186.036 53.4543 185.506 54.3676 185.242 55.3709C184.974 56.4211 184.965 57.5208 185.215 58.5753C185.466 59.6298 185.969 60.6076 186.682 61.4246C187.028 61.8573 187.343 62.3135 187.626 62.7898C187.236 63.2743 186.892 63.7951 186.601 64.345C185.282 67.2595 188.859 68.377 188.859 68.377C188.859 70.3354 190.673 70.3238 191.831 70.3181C192.989 70.3123 193.628 73.4054 194.533 73.2845L193.617 63.7402C193.751 63.7923 193.893 63.8196 194.037 63.8208C196.22 63.8611 195.65 59.7254 194.947 58.6368C195.598 57.8271 196.147 56.9413 196.583 55.9987C196.979 54.5579 197.006 53.0409 196.664 51.5866C197.395 51.4944 200.373 49.7722 200.016 49.7491Z"
        fill="#263238" />
    <path
        d="M193.905 64.247C193.83 63.9438 193.68 63.6643 193.469 63.4346C193.257 63.205 192.991 63.0327 192.695 62.9337C192.398 62.8348 192.082 62.8125 191.775 62.8689C191.468 62.9253 191.18 63.0586 190.938 63.2563C190.362 63.7517 190.057 64.5811 190.403 65.9693C191.336 69.6787 194.867 67.9795 194.844 67.8758C194.82 67.7722 194.308 65.7792 193.905 64.247Z"
        fill="#FFBE9D" />
    <path
        d="M193.357 66.7526C193.357 66.7526 193.305 66.816 193.208 66.8909C193.071 66.9953 192.9 67.0428 192.729 67.0234C192.303 66.9773 191.814 66.4474 191.629 65.7734C191.541 65.4585 191.524 65.1282 191.577 64.8058C191.583 64.6805 191.619 64.5585 191.683 64.4502C191.746 64.3419 191.834 64.2504 191.94 64.1837C192.01 64.146 192.091 64.134 192.169 64.1498C192.247 64.1655 192.317 64.2081 192.367 64.2701C192.441 64.3565 192.436 64.4371 192.459 64.4429C192.482 64.4486 192.522 64.3565 192.459 64.2125C192.415 64.1271 192.344 64.0583 192.257 64.0166C192.135 63.9673 191.999 63.9673 191.877 64.0166C191.732 64.0853 191.607 64.1895 191.514 64.3194C191.42 64.4493 191.361 64.6007 191.341 64.7597C191.267 65.1224 191.28 65.4978 191.382 65.8541C191.446 66.1886 191.608 66.4966 191.846 66.7395C192.085 66.9823 192.39 67.1492 192.724 67.2192C192.832 67.2236 192.94 67.2036 193.04 67.1608C193.14 67.1179 193.228 67.0532 193.3 66.9715C193.375 66.8448 193.375 66.7584 193.357 66.7526Z"
        fill="#EB996E" />
    <path
        d="M213.794 59.0688C213.794 59.0688 214.134 58.8096 214.606 58.2336C215.258 57.4037 215.658 56.4041 215.758 55.3536C215.834 54.6365 215.764 53.9114 215.551 53.2224C215.305 52.4321 214.849 51.7234 214.232 51.1718C213.519 50.5496 212.656 50.1244 211.729 49.9385C210.801 49.7526 209.841 49.8124 208.944 50.112C208.771 50.1696 208.61 50.256 208.449 50.3251C208.287 50.3942 208.143 50.4979 207.994 50.5843L207.763 50.711V50.4576C207.758 50.0114 207.593 49.5819 207.297 49.248C206.993 48.9239 206.621 48.672 206.208 48.5107C205.426 48.1847 204.559 48.1201 203.737 48.3264C202.147 48.6893 200.799 49.415 199.526 49.5648C198.528 49.7383 197.501 49.5329 196.646 48.9888C196.421 48.8336 196.226 48.6384 196.07 48.4128C195.978 48.2573 195.932 48.1709 195.944 48.1651C196.152 48.4496 196.407 48.6968 196.698 48.8966C197.539 49.3821 198.527 49.5477 199.48 49.3632C200.144 49.2384 200.792 49.0454 201.416 48.7872C202.148 48.4946 202.898 48.2502 203.662 48.0557C204.088 47.9526 204.526 47.9081 204.964 47.9232C205.426 47.9476 205.88 48.0529 206.306 48.2342C206.746 48.4224 207.14 48.7057 207.458 49.0637C207.799 49.4536 207.99 49.9514 207.999 50.4691L207.769 50.3424L208.247 50.0659C208.426 49.9968 208.593 49.9046 208.777 49.8413C209.723 49.5174 210.737 49.4497 211.717 49.6449C212.698 49.8402 213.609 50.2915 214.358 50.953C215.006 51.5394 215.48 52.2926 215.729 53.1302C215.988 54.018 216.023 54.956 215.831 55.8605C215.639 56.765 215.226 57.608 214.629 58.3142C214.439 58.5307 214.225 58.7241 213.99 58.8902C213.932 58.9575 213.866 59.0174 213.794 59.0688Z"
        fill="#455A64" />
    <path
        d="M213.045 46.0454C212.667 45.8535 212.263 45.7158 211.847 45.6365C211.371 45.5714 210.886 45.6167 210.43 45.769C209.839 45.9496 209.326 46.3227 208.973 46.8288L208.829 47.0304L208.742 46.8C208.441 46.0919 207.957 45.4769 207.34 45.0182C206.722 44.5596 205.993 44.2739 205.229 44.1907C204.027 44.1455 202.844 44.4889 201.853 45.1699C201.009 45.72 200.112 46.1832 199.175 46.5523C198.529 46.7967 197.833 46.8798 197.147 46.7942C196.965 46.7605 196.785 46.7104 196.612 46.6445C196.496 46.5926 196.433 46.5638 196.439 46.5523C196.445 46.5408 196.698 46.6272 197.165 46.6733C197.827 46.7147 198.491 46.6064 199.106 46.3565C200.016 45.9593 200.89 45.4813 201.715 44.928C202.225 44.6115 202.765 44.3471 203.328 44.1389C203.946 43.9133 204.608 43.8287 205.263 43.8912C206.08 43.9804 206.858 44.2894 207.513 44.7854C208.168 45.2814 208.677 45.9458 208.984 46.7078H208.759C209.156 46.1665 209.721 45.7732 210.367 45.5904C210.857 45.4482 211.374 45.4226 211.876 45.5155C212.193 45.5759 212.498 45.6929 212.774 45.8611C212.873 45.9094 212.964 45.9714 213.045 46.0454Z"
        fill="#455A64" />
    <path
        d="M205.459 65.9405C205.325 65.828 205.168 65.7452 204.999 65.6976C204.83 65.6499 204.654 65.6385 204.48 65.664C204.277 65.7073 204.086 65.7927 203.918 65.9148C203.75 66.0368 203.61 66.1928 203.507 66.3725C203.507 66.3725 203.478 66.4013 203.472 66.4185C203.393 66.5501 203.357 66.7032 203.368 66.8563C203.393 67.0232 203.459 67.1813 203.56 67.3169C203.66 67.4525 203.792 67.5613 203.944 67.6339C204.188 67.7573 204.464 67.8025 204.734 67.7634C205.004 67.7242 205.255 67.6025 205.454 67.415C205.642 67.2161 205.747 66.9528 205.748 66.6789C205.749 66.405 205.646 66.1409 205.459 65.9405Z"
        fill="currentColor" />
    <path
        d="M205.747 67.7318C205.701 67.7318 205.649 67.559 205.494 67.3229C205.306 67.0063 205.027 66.7548 204.692 66.6023C204.357 66.4499 203.984 66.4038 203.622 66.4704C203.34 66.5107 203.167 66.5914 203.149 66.551C203.132 66.5107 203.265 66.3725 203.576 66.263C203.983 66.132 204.424 66.1567 204.814 66.3322C205.208 66.5074 205.519 66.827 205.684 67.225C205.805 67.5245 205.788 67.7261 205.747 67.7318Z"
        fill="#263238" />
    <path
        d="M193.991 68.4461C193.991 68.4461 194.158 68.7341 193.939 69.1718C193.815 69.4338 193.597 69.6394 193.329 69.7478C193.161 69.8079 192.982 69.8282 192.805 69.8072C192.628 69.7862 192.458 69.7245 192.309 69.6269C192.158 69.5347 192.029 69.4088 191.934 69.2589C191.84 69.1091 191.781 68.9393 191.762 68.7629C191.745 68.4784 191.828 68.1969 191.998 67.968C192.298 67.5878 192.632 67.5763 192.632 67.6109C192.632 67.6454 192.378 67.7434 192.177 68.089C192.06 68.2826 192.011 68.5096 192.038 68.7341C192.06 68.8655 192.11 68.9908 192.184 69.1011C192.259 69.2115 192.357 69.3044 192.47 69.3734C192.583 69.4454 192.709 69.4928 192.841 69.5126C192.973 69.5325 193.108 69.5243 193.237 69.4886C193.449 69.4125 193.633 69.2715 193.761 69.0854C193.985 68.7283 193.945 68.4461 193.991 68.4461Z"
        fill="currentColor" />
    <path
        d="M192.05 68.2214C192.079 68.2214 192.05 68.4173 191.779 68.544C191.646 68.5993 191.5 68.6153 191.359 68.5902C191.217 68.5652 191.085 68.5 190.979 68.4025C190.873 68.305 190.797 68.1792 190.76 68.0399C190.724 67.9007 190.727 67.7538 190.771 67.6166C190.828 67.4609 190.936 67.3289 191.077 67.2422C191.313 67.0982 191.491 67.1558 191.486 67.1904C191.48 67.225 191.347 67.2653 191.203 67.4093C191.133 67.4978 191.089 67.6053 191.079 67.7182C191.069 67.8312 191.093 67.9445 191.147 68.0442C191.201 68.1438 191.283 68.2253 191.384 68.2783C191.484 68.3314 191.597 68.3537 191.71 68.3424C191.906 68.3021 192.01 68.1984 192.05 68.2214Z"
        fill="currentColor" />
    <path
        d="M198.38 119.376C198.38 119.376 212.642 120.205 221.075 120.28C227.601 120.344 230.515 118.61 231.817 114.411C232.911 110.892 230.561 104.135 230.561 104.135C226.143 104.135 223.419 104.769 220.579 106.099L221.334 109.187L198.34 111.168L198.38 119.376Z"
        fill="#FFBE9D" />
    <path
        d="M226.126 112.481C225.507 111.677 224.785 110.959 223.977 110.344C223.111 109.814 222.177 109.404 221.201 109.123C221.509 109.079 221.822 109.107 222.117 109.204C222.842 109.375 223.529 109.678 224.145 110.097C224.761 110.517 225.295 111.048 225.717 111.663C226.04 112.136 226.161 112.464 226.126 112.481Z"
        fill="#EB996E" />
    <path
        d="M193.161 106.076C193.161 106.076 188.749 107.136 185.506 109.302L188.962 118.668C190.114 121.743 193.634 123.276 196.45 121.663C200.788 119.18 202.32 111.946 202.32 111.946L207.083 91.2787L199.186 86.3309L193.19 106.076"
        fill="#FFBE9D" />
    <path
        d="M199.158 86.3309L199.48 79.5341L197.712 72.6221C197.614 72.2419 197.568 71.7638 197.879 71.5334C198.033 71.4152 198.224 71.354 198.418 71.3603C198.612 71.3666 198.798 71.44 198.945 71.568C199.423 72.0634 201.727 78.1056 201.727 78.1056C201.727 78.1056 205.223 76.009 205.845 75.9053C206.467 75.8016 207.245 77.6851 207.297 77.8291C207.32 78.2512 207.32 78.6742 207.297 79.0963C207.297 79.0963 209.457 79.1597 209.652 79.4534C209.81 80.0536 209.893 80.6706 209.9 81.2909C209.9 81.2909 210.816 81.5846 210.96 82.2758C211.104 82.967 211.404 84.1075 210.96 84.361C210.516 84.6144 209.618 85.1098 209.618 85.1098C209.618 85.1098 209.255 88.6349 209.157 88.9574C209.059 89.28 207.037 91.2614 207.037 91.2614L199.158 86.3309Z"
        fill="#FFBE9D" />
    <path
        d="M191.808 121.801C191.808 121.801 192.021 121.928 192.471 122.072C193.127 122.278 193.823 122.333 194.504 122.233C195.598 122.077 196.623 121.604 197.453 120.874C198.549 119.879 199.475 118.711 200.195 117.418C200.618 116.657 200.975 115.861 201.26 115.039C201.56 114.134 201.808 113.213 202.003 112.28C202.453 110.339 202.942 108.248 203.461 106.024C204.497 101.583 205.661 96.6182 206.917 91.2672V91.2269H206.945C207.343 90.8352 207.74 90.4377 208.138 90.023C208.334 89.8157 208.529 89.6083 208.714 89.3952C208.806 89.2858 208.904 89.1763 208.979 89.0669C209.037 88.9585 209.07 88.8385 209.077 88.7155C209.232 87.5635 209.353 86.3712 209.48 85.1674V85.0925L209.549 85.0579L210.649 84.4416C210.73 84.3898 210.856 84.3322 210.908 84.2861C210.963 84.2363 211 84.1693 211.012 84.096C211.039 83.9049 211.039 83.7111 211.012 83.52C210.956 83.0976 210.87 82.6798 210.753 82.2701C210.557 81.9118 210.228 81.6449 209.837 81.527L209.739 81.4925V81.3946C209.739 81.0605 209.704 80.7149 209.664 80.375C209.648 80.2048 209.623 80.0356 209.589 79.8682C209.576 79.7944 209.553 79.7227 209.52 79.655C209.52 79.6147 209.52 79.655 209.486 79.6205C209.454 79.6041 209.421 79.5906 209.388 79.5802C208.695 79.4292 207.988 79.3501 207.279 79.344H207.13V79.1942C207.13 78.8371 207.13 78.4397 207.13 78.0422C207.106 77.9067 207.059 77.7762 206.991 77.6563C206.934 77.5181 206.865 77.3856 206.796 77.2474C206.661 76.9806 206.503 76.7261 206.323 76.487C206.242 76.3756 206.143 76.2783 206.03 76.199C205.988 76.1637 205.936 76.1416 205.882 76.1355C205.828 76.1293 205.773 76.1394 205.724 76.1645C205.446 76.2712 205.174 76.3963 204.912 76.5389C203.841 77.1149 202.792 77.6909 201.767 78.313L201.617 78.4051L201.554 78.2438C201.013 76.8787 200.471 75.5309 199.941 74.2118C199.676 73.5494 199.417 72.887 199.152 72.2362C199.111 72.0903 199.03 71.959 198.918 71.8571C198.806 71.7552 198.668 71.687 198.519 71.6602C198.381 71.6145 198.232 71.6169 198.096 71.6672C197.96 71.7174 197.845 71.8124 197.77 71.9366C197.698 72.0602 197.668 72.2035 197.683 72.3456C197.683 72.4723 197.764 72.6682 197.799 72.8237C197.891 73.1578 197.977 73.4861 198.063 73.8144C198.236 74.4768 198.403 75.1277 198.576 75.7728C198.914 77.0707 199.246 78.3379 199.573 79.5744V79.6147C199.457 81.9802 199.348 84.2458 199.244 86.4115V86.4L193.997 103.473L192.517 108.225C192.344 108.76 192.211 109.181 192.119 109.475C192.027 109.768 191.969 109.895 191.969 109.895C191.969 109.895 191.998 109.745 192.079 109.463L192.442 108.202C192.776 107.09 193.254 105.483 193.859 103.432C195.103 99.3082 196.871 93.4214 199.008 86.3251V86.3539C199.108 84.1958 199.21 81.9302 199.313 79.5571V79.5974C198.985 78.359 198.645 77.0918 198.305 75.8016L197.787 73.8432C197.701 73.5149 197.614 73.1808 197.522 72.8525C197.472 72.68 197.432 72.5051 197.401 72.3283C197.38 72.1284 197.422 71.9268 197.522 71.7523C197.629 71.5726 197.793 71.4345 197.989 71.3606C198.182 71.3041 198.386 71.2976 198.583 71.342C198.78 71.3863 198.961 71.48 199.112 71.6141C199.256 71.7497 199.363 71.9203 199.423 72.1094L200.212 74.0851C200.748 75.4099 201.283 76.7578 201.831 78.1171L201.617 78.0422C202.648 77.4317 203.685 76.8211 204.78 76.2509C205.056 76.1063 205.341 75.9774 205.632 75.865C205.723 75.8271 205.822 75.8132 205.92 75.8246C206.019 75.8389 206.113 75.8742 206.197 75.9283C206.335 76.0278 206.458 76.1483 206.559 76.2854C206.752 76.5375 206.92 76.8075 207.061 77.0918C207.135 77.2358 207.205 77.3741 207.268 77.5181C207.35 77.6706 207.405 77.8363 207.429 78.0077C207.429 78.4166 207.429 78.7968 207.429 79.1597L207.285 79.0042C208.026 79.0091 208.763 79.0941 209.486 79.2576C209.535 79.2749 209.583 79.2961 209.63 79.321C209.693 79.3554 209.745 79.4074 209.779 79.4707C209.824 79.5642 209.857 79.6629 209.877 79.7645C209.912 79.9488 209.935 80.1216 209.958 80.3002C209.992 80.6515 210.015 80.9971 210.033 81.3427L209.929 81.2045C210.165 81.2736 210.384 81.3899 210.573 81.5464C210.762 81.7028 210.917 81.8961 211.029 82.1146C211.155 82.5523 211.248 82.999 211.306 83.4509C211.346 83.6815 211.346 83.9172 211.306 84.1478C211.281 84.2875 211.207 84.4139 211.098 84.505C211.004 84.5682 210.906 84.6259 210.805 84.6778L209.71 85.248L209.785 85.1386C209.653 86.3424 209.532 87.5232 209.37 88.6925L209.336 88.9171C209.322 89.0081 209.285 89.0937 209.226 89.1648C209.142 89.2909 209.047 89.4103 208.944 89.5219C208.748 89.7408 208.552 89.9539 208.368 90.1613C207.971 90.576 207.573 90.9734 207.17 91.3651L207.21 91.296C205.943 96.6413 204.768 101.606 203.714 106.047C203.19 108.265 202.689 110.356 202.228 112.291C202.031 113.231 201.777 114.158 201.468 115.068C201.171 115.898 200.805 116.701 200.373 117.469C199.637 118.78 198.69 119.959 197.568 120.96C196.714 121.696 195.662 122.164 194.544 122.308C193.848 122.401 193.14 122.33 192.476 122.1C192.307 122.038 192.144 121.963 191.987 121.876L191.808 121.801Z"
        fill="#EB996E" />
    <path
        d="M207.303 79.1136C207.303 79.1539 207.107 79.1769 206.801 79.1885C206.414 79.1958 206.028 79.2422 205.649 79.3267C205.284 79.4165 204.947 79.5967 204.67 79.8509C204.463 80.0467 204.371 80.2137 204.325 80.1965C204.279 80.1792 204.325 79.9718 204.515 79.7069C204.783 79.3715 205.156 79.1361 205.575 79.0387C205.978 78.9393 206.397 78.9198 206.807 78.9811C207.118 79.0214 207.303 79.0733 207.303 79.1136Z"
        fill="#EB996E" />
    <path
        d="M205.632 79.177C205.557 79.1482 205.551 78.9696 205.632 78.7795C205.713 78.5894 205.828 78.4569 205.903 78.4857C205.978 78.5145 205.989 78.6931 205.903 78.8832C205.816 79.0733 205.69 79.2058 205.632 79.177Z"
        fill="#EB996E" />
    <path
        d="M209.998 81.2678C209.439 81.4408 208.855 81.5206 208.27 81.504C208.086 81.4978 207.903 81.536 207.737 81.6151C207.57 81.6943 207.425 81.8122 207.314 81.959C207.164 82.1952 207.216 82.391 207.17 82.4026C207.124 82.4141 206.986 82.2125 207.13 81.8669C207.209 81.6723 207.354 81.5114 207.539 81.4118C207.752 81.2948 207.987 81.2242 208.23 81.2045C208.818 81.1144 209.418 81.1359 209.998 81.2678Z"
        fill="#EB996E" />
    <path
        d="M209.618 83.3414C209.698 83.3414 209.745 83.7677 209.722 84.2918C209.698 84.816 209.612 85.2307 209.531 85.2307C209.451 85.2307 209.399 84.7987 209.422 84.2745C209.445 83.7504 209.531 83.3357 209.618 83.3414Z"
        fill="#EB996E" />
    <path
        d="M212.008 98.8531L212.521 97.0906C212.544 97.0099 212.588 96.9367 212.649 96.8782C212.709 96.8197 212.784 96.778 212.865 96.7571C212.946 96.7361 213.032 96.7368 213.113 96.7589C213.194 96.781 213.268 96.8238 213.327 96.8832L214.001 97.5686L214.416 95.904C214.44 95.8078 214.494 95.7215 214.569 95.6567C214.644 95.5919 214.737 95.5517 214.836 95.5416C214.935 95.5316 215.034 95.5521 215.121 95.6004C215.207 95.6488 215.277 95.7226 215.32 95.8118L216.259 97.7818L212.008 98.8531Z"
        fill="white" />
    <path
        d="M216.271 98.5363C215.627 98.8477 214.942 99.0687 214.238 99.193C213.556 99.4156 212.846 99.5397 212.129 99.5616C213.455 99.0289 214.849 98.6839 216.271 98.5363Z"
        fill="white" />
    <path
        d="M182.016 88.704C182.016 88.704 181.803 88.9229 181.503 89.3894C181.101 90.0539 180.837 90.7923 180.726 91.561C180.561 92.7054 180.527 93.8647 180.622 95.017C180.685 96.3245 180.789 97.753 180.95 99.2506C181.223 101.808 181.629 104.35 182.166 106.865C182.367 107.833 182.552 108.593 182.678 109.169C182.736 109.411 182.788 109.613 182.828 109.786C182.868 109.958 182.874 110.004 182.874 110.004C182.874 110.004 182.845 109.935 182.805 109.797C182.765 109.659 182.701 109.417 182.638 109.181C182.494 108.645 182.298 107.873 182.062 106.906C181.502 104.391 181.085 101.847 180.812 99.2851C180.651 97.7875 180.553 96.3533 180.495 95.0458C180.408 93.8926 180.45 92.7334 180.622 91.5898C180.746 90.8111 181.028 90.0661 181.451 89.401C181.607 89.1443 181.797 88.9099 182.016 88.704Z"
        fill="white" />
    <path
        d="M194.141 80.8589L194.008 80.928L193.628 81.1123C193.3 81.2678 192.822 81.4982 192.252 81.815C190.765 82.6441 189.321 83.5476 187.926 84.5222C186.279 85.6742 184.821 86.7225 183.756 87.4829L182.494 88.3757L182.143 88.6118C182.104 88.6432 182.061 88.6702 182.016 88.6925C182.049 88.6538 182.088 88.6207 182.131 88.5945L182.465 88.3411L183.704 87.4137C184.758 86.6361 186.209 85.5533 187.857 84.4243C189.255 83.4455 190.709 82.5493 192.211 81.7401C192.787 81.4349 193.271 81.216 193.611 81.072L193.997 80.9107C194.112 80.8704 194.112 80.8531 194.141 80.8589Z"
        fill="white" />
    <path
        d="M221.61 84.6086C221.574 84.5886 221.541 84.5634 221.512 84.5338L221.253 84.3091C220.932 84.0381 220.595 83.7862 220.245 83.5546C219.076 82.809 217.835 82.1819 216.541 81.6826C215.252 81.1717 213.934 80.7332 212.596 80.3693C212.077 80.2253 211.663 80.1216 211.369 80.0525L211.041 79.9661C211 79.9578 210.962 79.9442 210.925 79.9258H211.046L211.38 79.9891C211.674 80.0467 212.095 80.1389 212.613 80.2714C213.964 80.6125 215.292 81.0416 216.587 81.5558C217.889 82.0551 219.131 82.6964 220.291 83.4682C220.774 83.7951 221.217 84.1779 221.61 84.6086Z"
        fill="white" />
    <path
        d="M194.302 128.575C194.224 128.561 194.148 128.536 194.077 128.5C193.877 128.412 193.685 128.308 193.501 128.189C193.191 128.003 192.92 127.758 192.705 127.467C192.489 127.176 192.333 126.846 192.246 126.495C192.087 125.787 192.166 125.046 192.47 124.387C192.558 124.182 192.67 123.989 192.804 123.811C192.896 123.69 192.96 123.633 192.966 123.638C192.808 123.884 192.668 124.14 192.545 124.404C192.277 125.052 192.215 125.765 192.367 126.449C192.532 127.124 192.942 127.714 193.519 128.102C193.997 128.448 194.313 128.552 194.302 128.575Z"
        fill="white" />
    <path
        d="M192.47 122.337C192.593 122.565 192.684 122.809 192.741 123.062C192.831 123.305 192.885 123.559 192.902 123.817C192.771 123.594 192.678 123.35 192.626 123.097C192.531 122.854 192.479 122.597 192.47 122.337Z"
        fill="white" />
    <path
        d="M200.258 251.482L217.826 251.395L217.509 190.656L217.342 128.868L193.536 128.563L189.256 136.627C187.505 139.869 186.389 143.415 185.967 147.076C185.679 149.875 187.776 158.976 188.502 161.28L195.051 182.051L200.258 251.482Z"
        fill="#263238" />
    <path
        d="M222.497 128.943L241.805 181.572C242.949 184.963 243.329 188.565 242.918 192.12C242.506 195.675 241.314 199.095 239.426 202.136L217.008 245.912L204.405 230.141L223.16 190.973L206.629 164.16L209.411 129.024L217.198 128.897L222.497 128.943Z"
        fill="#263238" />
    <path
        d="M215.741 146.575C215.741 146.575 215.741 146.667 215.741 146.845C215.741 147.024 215.77 147.3 215.793 147.64C215.833 148.349 215.885 149.368 215.954 150.687C216.086 153.354 216.271 157.185 216.53 161.914C216.789 166.643 217.008 172.282 217.296 178.56C217.434 181.693 217.584 184.982 217.734 188.392C217.843 190.12 217.797 191.848 217.814 193.576C217.832 195.304 217.814 197.124 217.814 198.933C217.814 213.408 217.86 226.512 217.878 236.01C217.878 240.745 217.878 244.581 217.878 247.248C217.878 248.567 217.878 249.592 217.878 250.307C217.878 250.641 217.878 250.883 217.878 251.101C217.878 251.32 217.878 251.372 217.878 251.372C217.878 251.372 217.878 251.28 217.878 251.101V250.307C217.878 249.592 217.878 248.579 217.843 247.248C217.843 244.581 217.797 240.751 217.762 236.016C217.722 226.518 217.67 213.414 217.613 198.939C217.613 197.13 217.613 195.345 217.613 193.582C217.613 191.82 217.647 190.08 217.538 188.398C217.394 184.994 217.25 181.705 217.117 178.572C216.852 172.305 216.61 166.666 216.415 161.919C216.219 157.173 216.075 153.36 215.965 150.693C215.919 149.38 215.885 148.355 215.862 147.64C215.862 147.3 215.862 147.064 215.862 146.845C215.862 146.627 215.741 146.575 215.741 146.575Z"
        fill="#455A64" />
    <path
        d="M215.297 129.98C215.365 130.165 215.405 130.359 215.418 130.556C215.482 130.925 215.551 131.46 215.631 132.129C215.781 133.459 215.943 135.308 216.035 137.353C216.127 139.398 216.133 141.252 216.104 142.595C216.104 143.263 216.063 143.81 216.035 144.184C216.041 144.379 216.017 144.573 215.966 144.76C215.893 144.041 215.868 143.317 215.891 142.595C215.891 141.252 215.827 139.409 215.735 137.364C215.643 135.32 215.516 133.482 215.418 132.18C215.336 131.45 215.296 130.715 215.297 129.98Z"
        fill="#455A64" />
    <path
        d="M211.427 131.167C211.455 131.207 211.127 131.357 211.035 131.823C211.009 131.95 211.016 132.081 211.056 132.204C211.095 132.327 211.165 132.438 211.26 132.526C211.374 132.632 211.516 132.703 211.669 132.731C211.822 132.758 211.98 132.741 212.124 132.682C212.262 132.61 212.377 132.502 212.456 132.369C212.536 132.235 212.576 132.082 212.573 131.927C212.568 131.798 212.529 131.673 212.462 131.563C212.394 131.453 212.3 131.362 212.187 131.299C211.953 131.186 211.691 131.14 211.432 131.167C211.432 131.167 211.49 131.092 211.64 131.046C211.856 130.993 212.083 131.015 212.285 131.109C212.446 131.176 212.585 131.286 212.687 131.428C212.788 131.569 212.849 131.736 212.861 131.91C212.884 132.124 212.839 132.34 212.732 132.528C212.626 132.716 212.463 132.865 212.267 132.955C212.071 133.046 211.852 133.072 211.64 133.031C211.429 132.991 211.235 132.884 211.087 132.728C210.964 132.606 210.878 132.453 210.836 132.285C210.794 132.118 210.799 131.942 210.851 131.777C210.909 131.562 211.039 131.373 211.219 131.242C211.335 131.161 211.421 131.149 211.427 131.167Z"
        fill="#455A64" />
    <path
        d="M202.21 130.124C202.295 130.306 202.348 130.501 202.366 130.7C202.459 131.217 202.476 131.745 202.418 132.267C202.335 133.044 202.11 133.8 201.755 134.496C201.326 135.362 200.691 136.11 199.906 136.673C199.121 137.237 198.209 137.599 197.251 137.727C196.484 137.842 195.703 137.813 194.947 137.641C194.436 137.53 193.943 137.346 193.484 137.094C193.311 137.012 193.151 136.903 193.012 136.771C193.648 137.058 194.312 137.28 194.993 137.434C195.812 137.604 196.658 137.603 197.477 137.43C198.295 137.257 199.069 136.916 199.75 136.429C200.43 135.942 201.002 135.319 201.43 134.599C201.857 133.88 202.131 133.08 202.233 132.25C202.301 131.542 202.293 130.83 202.21 130.124Z"
        fill="#455A64" />
    <path
        d="M224.813 135.17C224.437 135.213 224.056 135.168 223.701 135.037C222.831 134.763 222.05 134.262 221.438 133.586C220.82 132.913 220.396 132.085 220.211 131.19C220.12 130.825 220.12 130.443 220.211 130.078C220.262 130.078 220.268 130.499 220.441 131.144C220.674 131.977 221.099 132.745 221.681 133.386C222.263 134.027 222.986 134.523 223.793 134.836C224.392 135.072 224.819 135.112 224.813 135.17Z"
        fill="#455A64" />
    <path
        d="M231.673 191.906C231.384 192.235 231.039 192.51 230.654 192.718C230.249 192.975 229.808 193.169 229.346 193.294C228.764 193.448 228.151 193.432 227.578 193.248C226.572 192.869 225.71 192.184 225.112 191.29C224.838 190.954 224.611 190.581 224.438 190.184C224.749 190.48 225.031 190.806 225.279 191.157C225.891 191.968 226.717 192.593 227.664 192.96C228.148 193.089 228.652 193.118 229.147 193.046C229.642 192.974 230.118 192.801 230.544 192.54C230.908 192.307 231.285 192.095 231.673 191.906Z"
        fill="#455A64" />
    <path
        d="M227.273 195.264C226.592 194.559 225.984 193.787 225.458 192.96C224.852 192.19 224.324 191.362 223.88 190.489C224.565 191.191 225.175 191.964 225.7 192.793C226.311 193.558 226.838 194.387 227.273 195.264Z"
        fill="#455A64" />
    <path
        d="M197.758 148.608C197.677 148.637 197.476 148.308 197.297 147.865C197.119 147.421 197.044 147.047 197.119 147.012C197.194 146.978 197.401 147.312 197.574 147.756C197.747 148.199 197.833 148.608 197.758 148.608Z"
        fill="#FAFAFA" />
    <path
        d="M208.91 150.209C208.823 150.209 208.76 149.927 208.76 149.576C208.76 149.224 208.823 148.936 208.91 148.936C208.996 148.936 209.059 149.224 209.059 149.576C209.059 149.927 208.99 150.209 208.91 150.209Z"
        fill="#FAFAFA" />
    <path
        d="M204.325 156.269C204.244 156.269 204.152 155.923 204.123 155.48C204.094 155.036 204.123 154.679 204.215 154.673C204.307 154.668 204.394 155.019 204.423 155.462C204.451 155.906 204.405 156.263 204.325 156.269Z"
        fill="#FAFAFA" />
    <path
        d="M195.95 160.704C195.881 160.756 195.644 160.543 195.333 160.324C195.022 160.105 194.757 159.938 194.757 159.857C194.757 159.777 195.137 159.823 195.489 160.076C195.84 160.33 196.019 160.704 195.95 160.704Z"
        fill="#FAFAFA" />
    <path
        d="M210.712 166.355C210.643 166.308 210.712 166.061 210.908 165.779C211.104 165.496 211.282 165.335 211.351 165.381C211.421 165.427 211.351 165.681 211.156 165.957C210.96 166.234 210.781 166.401 210.712 166.355Z"
        fill="#FAFAFA" />
    <path
        d="M201.6 167.95C201.519 167.95 201.45 167.472 201.45 166.89C201.45 166.308 201.519 165.825 201.6 165.825C201.681 165.825 201.75 166.303 201.75 166.89C201.75 167.478 201.663 167.95 201.6 167.95Z"
        fill="#FAFAFA" />
    <path
        d="M198.617 174.413C198.571 174.476 198.271 174.344 197.948 174.108C197.626 173.871 197.372 173.629 197.447 173.56C197.522 173.491 197.799 173.629 198.121 173.866C198.444 174.102 198.668 174.344 198.617 174.413Z"
        fill="#FAFAFA" />
    <path
        d="M207.844 176.659C207.879 176.734 207.694 176.89 207.429 177.011C207.164 177.132 206.922 177.16 206.888 177.085C206.853 177.011 207.043 176.855 207.308 176.734C207.573 176.613 207.815 176.584 207.844 176.659Z"
        fill="#FAFAFA" />
    <path
        d="M201.6 187.2C201.531 187.235 201.231 186.791 200.937 186.204C200.644 185.616 200.465 185.109 200.54 185.052C200.615 184.994 200.914 185.46 201.202 186.048C201.49 186.636 201.652 187.137 201.6 187.2Z"
        fill="#FAFAFA" />
    <path
        d="M211.778 186.221C211.703 186.18 211.835 185.795 212.066 185.351C212.296 184.908 212.555 184.585 212.642 184.625C212.728 184.666 212.584 185.052 212.348 185.495C212.112 185.939 211.847 186.261 211.778 186.221Z"
        fill="#FAFAFA" />
    <path
        d="M207.314 195.143C207.227 195.143 207.239 194.676 207.147 194.135C207.055 193.594 206.916 193.162 206.997 193.121C207.078 193.081 207.354 193.49 207.446 194.089C207.538 194.688 207.394 195.16 207.314 195.143Z"
        fill="#FAFAFA" />
    <path
        d="M202.533 200.241C202.475 200.298 202.187 200.079 201.894 199.757C201.6 199.434 201.41 199.129 201.473 199.071C201.536 199.014 201.819 199.233 202.112 199.555C202.406 199.878 202.596 200.183 202.533 200.241Z"
        fill="#FAFAFA" />
    <path
        d="M214.134 202.176C214.076 202.118 214.289 201.807 214.612 201.479C214.935 201.151 215.234 200.938 215.297 200.995C215.361 201.053 215.142 201.37 214.825 201.692C214.508 202.015 214.197 202.234 214.134 202.176Z"
        fill="#FAFAFA" />
    <path
        d="M207.464 209.808C207.383 209.808 207.383 209.353 207.464 208.823C207.544 208.293 207.671 207.878 207.758 207.89C207.844 207.901 207.838 208.339 207.758 208.869C207.677 209.399 207.544 209.82 207.464 209.808Z"
        fill="#FAFAFA" />
    <path
        d="M202.977 213.512C202.902 213.552 202.648 213.252 202.401 212.844C202.153 212.435 202.026 212.072 202.095 212.031C202.165 211.991 202.418 212.285 202.671 212.694C202.925 213.103 203.046 213.466 202.977 213.512Z"
        fill="#FAFAFA" />
    <path
        d="M213.788 218.183C213.84 218.252 213.546 218.546 213.132 218.84C212.717 219.133 212.354 219.318 212.302 219.249C212.25 219.18 212.55 218.886 212.959 218.592C213.368 218.298 213.742 218.12 213.788 218.183Z"
        fill="#FAFAFA" />
    <path
        d="M204.78 224.248C204.699 224.22 204.78 223.759 204.855 223.183C204.929 222.607 204.883 222.134 204.97 222.123C205.056 222.111 205.206 222.595 205.148 223.212C205.091 223.828 204.855 224.283 204.78 224.248Z"
        fill="#FAFAFA" />
    <path
        d="M208.379 232.957C208.31 233.009 208.068 232.813 207.832 232.52C207.596 232.226 207.464 231.944 207.527 231.892C207.59 231.84 207.832 232.036 208.068 232.33C208.305 232.623 208.443 232.906 208.379 232.957Z"
        fill="#FAFAFA" />
    <path
        d="M204.446 238.798C204.376 238.844 204.06 238.504 203.737 238.032C203.415 237.56 203.213 237.145 203.276 237.099C203.34 237.053 203.662 237.393 203.985 237.865C204.307 238.337 204.515 238.752 204.446 238.798Z"
        fill="#FAFAFA" />
    <path
        d="M215.28 231.466C215.205 231.437 215.211 231.224 215.28 230.993C215.349 230.763 215.505 230.59 215.585 230.619C215.666 230.648 215.654 230.861 215.585 231.097C215.516 231.333 215.361 231.5 215.28 231.466Z"
        fill="#FAFAFA" />
    <path
        d="M210.499 245.376C210.424 245.336 210.568 244.927 210.684 244.414C210.799 243.901 210.839 243.469 210.925 243.464C211.012 243.458 211.098 243.924 210.977 244.477C210.856 245.03 210.568 245.422 210.499 245.376Z"
        fill="#FAFAFA" />
    <path
        d="M213.61 156.361C213.535 156.396 213.35 156.165 213.201 155.843C213.051 155.52 212.987 155.232 213.062 155.197C213.137 155.163 213.321 155.393 213.471 155.716C213.621 156.038 213.696 156.326 213.61 156.361Z"
        fill="#FAFAFA" />
    <path
        d="M205.632 138.424C205.678 138.493 205.275 138.816 204.843 139.277C204.411 139.738 204.117 140.164 204.042 140.124C203.968 140.083 204.163 139.548 204.618 139.075C205.073 138.603 205.575 138.349 205.632 138.424Z"
        fill="#FAFAFA" />
    <path
        d="M212.734 138.24C212.648 138.24 212.515 137.912 212.314 137.52C212.112 137.128 211.928 136.806 211.991 136.748C212.055 136.691 212.366 136.944 212.567 137.382C212.769 137.82 212.809 138.194 212.734 138.24Z"
        fill="#FAFAFA" />
    <path
        d="M190.558 144.063C190.483 144.029 190.558 143.649 190.737 143.211C190.915 142.773 191.111 142.433 191.192 142.468C191.272 142.502 191.192 142.877 191.013 143.32C190.835 143.764 190.656 144.092 190.558 144.063Z"
        fill="#FAFAFA" />
    <path
        d="M191.278 152.761C191.221 152.824 190.892 152.64 190.541 152.346C190.19 152.052 189.965 151.77 190 151.701C190.034 151.632 190.386 151.822 190.737 152.116C191.088 152.41 191.33 152.698 191.278 152.761Z"
        fill="#FAFAFA" />
    <path
        d="M205.828 131.518C205.753 131.518 205.592 131.334 205.476 131.04C205.361 130.746 205.327 130.464 205.401 130.464C205.476 130.464 205.638 130.648 205.753 130.942C205.868 131.236 205.903 131.489 205.828 131.518Z"
        fill="#FAFAFA" />
    <path
        d="M219.761 135.769C219.681 135.769 219.687 135.406 219.761 134.997C219.836 134.588 219.986 134.266 220.067 134.283C220.147 134.3 220.142 134.652 220.067 135.06C219.992 135.469 219.842 135.786 219.761 135.769Z"
        fill="#FAFAFA" />
    <path
        d="M223.033 142.353C222.958 142.318 223.062 141.892 223.269 141.391C223.477 140.89 223.701 140.515 223.776 140.544C223.851 140.573 223.776 141.005 223.546 141.506C223.315 142.007 223.114 142.381 223.033 142.353Z"
        fill="#FAFAFA" />
    <path
        d="M220.7 147.663C220.625 147.698 220.349 147.3 220.084 146.776C219.819 146.252 219.669 145.786 219.744 145.751C219.819 145.716 220.089 146.114 220.354 146.638C220.619 147.162 220.775 147.623 220.7 147.663Z"
        fill="#FAFAFA" />
    <path
        d="M225.689 152.974C225.614 152.945 225.689 152.611 225.815 152.231C225.942 151.851 226.144 151.563 226.224 151.592C226.305 151.62 226.224 151.955 226.097 152.335C225.971 152.715 225.792 153.003 225.689 152.974Z"
        fill="#FAFAFA" />
    <path
        d="M221.23 158.175C221.161 158.221 220.982 158.066 220.838 157.836C220.694 157.605 220.625 157.375 220.7 157.329C220.775 157.283 220.942 157.438 221.092 157.674C221.241 157.91 221.299 158.135 221.23 158.175Z"
        fill="#FAFAFA" />
    <path
        d="M222.181 168.912C222.123 168.964 221.76 168.682 221.38 168.267C221 167.852 220.741 167.478 220.804 167.42C220.867 167.363 221.224 167.651 221.605 168.065C221.985 168.48 222.244 168.854 222.181 168.912Z"
        fill="#FAFAFA" />
    <path
        d="M228.027 162.743C227.963 162.795 227.647 162.507 227.324 162.092C227.002 161.677 226.794 161.309 226.858 161.257C226.921 161.205 227.238 161.499 227.56 161.908C227.883 162.317 228.096 162.697 228.027 162.743Z"
        fill="#FAFAFA" />
    <path
        d="M231.235 171.251C231.16 171.216 231.293 170.784 231.529 170.289C231.765 169.793 232.013 169.413 232.105 169.448C232.197 169.482 232.053 169.92 231.817 170.415C231.581 170.911 231.31 171.291 231.235 171.251Z"
        fill="#FAFAFA" />
    <path
        d="M224.416 178.255C224.341 178.295 224.076 177.978 223.707 177.638C223.338 177.299 222.999 177.062 223.033 176.976C223.068 176.89 223.506 177.045 223.909 177.42C224.312 177.794 224.485 178.214 224.416 178.255Z"
        fill="#FAFAFA" />
    <path
        d="M224.842 185.472C224.842 185.553 224.554 185.622 224.202 185.622C223.851 185.622 223.569 185.553 223.569 185.472C223.569 185.391 223.851 185.322 224.202 185.322C224.554 185.322 224.842 185.391 224.842 185.472Z"
        fill="#FAFAFA" />
    <path
        d="M231.852 183.456C231.777 183.416 231.927 183.053 232.036 182.604C232.145 182.154 232.192 181.763 232.278 181.757C232.364 181.751 232.457 182.172 232.33 182.673C232.203 183.174 231.915 183.502 231.852 183.456Z"
        fill="#FAFAFA" />
    <path
        d="M238.815 185.881C238.74 185.91 238.527 185.501 238.343 184.977C238.159 184.452 238.072 184.003 238.147 183.98C238.222 183.957 238.441 184.355 238.625 184.879C238.809 185.403 238.896 185.852 238.815 185.881Z"
        fill="#FAFAFA" />
    <path
        d="M237.704 195.788C237.635 195.748 237.813 195.264 238.101 194.705C238.389 194.147 238.677 193.726 238.764 193.766C238.85 193.807 238.66 194.291 238.366 194.844C238.072 195.396 237.779 195.84 237.704 195.788Z"
        fill="#FAFAFA" />
    <path
        d="M231.35 201.6C231.276 201.629 231.039 201.231 230.821 200.707C230.602 200.183 230.492 199.734 230.573 199.699C230.654 199.665 230.884 200.068 231.097 200.592C231.31 201.116 231.425 201.6 231.35 201.6Z"
        fill="#FAFAFA" />
    <path
        d="M224.312 203.852C224.312 203.933 224.07 204.002 223.776 204.002C223.482 204.002 223.246 203.933 223.246 203.852C223.246 203.772 223.488 203.702 223.776 203.702C224.064 203.702 224.312 203.772 224.312 203.852Z"
        fill="#FAFAFA" />
    <path
        d="M228.344 213.12C228.269 213.12 228.108 212.803 227.987 212.365C227.866 211.928 227.843 211.548 227.923 211.53C228.004 211.513 228.16 211.847 228.28 212.285C228.401 212.723 228.424 213.074 228.344 213.12Z"
        fill="#FAFAFA" />
    <path
        d="M223.246 210.01C223.177 209.969 223.246 209.699 223.436 209.405C223.626 209.111 223.816 208.909 223.885 208.95C223.954 208.99 223.885 209.267 223.695 209.56C223.505 209.854 223.321 210.056 223.246 210.01Z"
        fill="#FAFAFA" />
    <path
        d="M223.142 220.211C223.062 220.211 222.946 219.825 222.889 219.324C222.831 218.822 222.849 218.413 222.929 218.402C223.01 218.39 223.125 218.788 223.183 219.289C223.24 219.79 223.223 220.199 223.142 220.211Z"
        fill="#FAFAFA" />
</svg>